{
  "appName": {
    "message": "Shunya-laajennus",
    "description": "The name of the the extension."
  },
  "shields": {
    "message": "Suojaus",
    "description": "The Shields feature name"
  },
  "up": {
    "message": "päällä",
    "description": "Message for when shields is enabled"
  },
  "down": {
    "message": "pois",
    "description": "Message for when shields is disabled"
  },
  "forThisSite": {
    "message": "tällä sivustolla",
    "description": "Partial string for the phrase `shields is up *for this site*`"
  },
  "enabledMessage": {
    "message": "Jos sivusto ei näytä toimivan oikein, kokeile ottaa suojaus pois käytöstä",
    "description": "Message telling the user to disable shields if a site appears broken"
  },
  "disabledMessage": {
    "message": "Selaat tätä sivustoa ilman Shunyan yksityisyys- ja tietoturvasuojia. Eikö se toimi oikein kilpien ollessa käytössä?",
    "description": "Message telling the user that shields are disabled, and prompting them towards reporting an issue if necessary"
  },
  "reportBrokenSite": {
    "message": "Ilmoita toimimattomasta sivustosta",
    "description": "Message for the button allowing users to report a broken site to Shunya developers"
  },
  "itemsBlocked": {
    "message": "Kohdetta estetty",
    "description": "Message for the main blocked resources text when there is more than one ad/track/script blocked (plural)"
  },
  "itemBlocked": {
    "message": "Kohde estetty",
    "description": "Message for the main blocked resources text when there is one ad/track/script blocked (singular)"
  },
  "and": {
    "message": "ja",
    "description": "Message for the `and` conjunction. Used to connect grammatically the `item blocked and connection upgrades` and its variant phrases"
  },
  "connectionsUpgraded": {
    "message": "yhteyksiä päivitetty",
    "description": "Message for the main blocked resources text when there is at least one ad/track/script blocked and more than one connection upgrade (plural)"
  },
  "connectionUpgraded": {
    "message": "yhteys päivitetty",
    "description": "Message for the main blocked resources text when there is at least one ad/track/script blocked and one connection upgrade (singular)"
  },
  "thirdPartyTrackersBlocked": {
    "message": "Cross-site-seuraimet estetty",
    "description": "Message for the scripts blocked row label"
  },
  "readOnlyAdsTrackersBlocking": {
    "message": "Estetyt seuraimet & mainokset",
    "description": "Message for the option in the ads and trackers blocking select field in read only view"
  },
  "aggressiveAdsTrackersBlocking": {
    "message": "Seuraimet & mainokset estetty (aggressiivinen)",
    "description": "Message for the option in the ads and trackers blocking select field to block ads and trackers with aggressive heuristics"
  },
  "standardAdsTrackersBlocking": {
    "message": "Seuraimet & mainokset estetty (standardi)",
    "description": "Message for the option in the ads and trackers blocking select field to block ads and trackers with standard heuristics"
  },
  "allowAdsTrackers": {
    "message": "Salli kaikki seuraimet & mainokset",
    "description": "Message for the option in the ads and trackers blocking select field to allow all ads and trackers"
  },
  "connectionsUpgradedHTTPS": {
    "message": "Yhteys päivitetty HTTPS:ään",
    "description": "Message for the connections upgraded row label and for the main blocked resources text when there is more than one connection upgraded (plural) and no other ads/trackers blocked"
  },
  "connectionUpgradedHTTPS": {
    "message": "Yhteys päivitetty HTTPS:ään",
    "description": "Message for the main blocked resources text when there is one connection upgraded (singular) and no other ads/trackers blocked"
  },
  "scriptsBlocked": {
    "message": "Skriptit estetty",
    "description": "Message for the scripts blocked row label"
  },
  "thirdPartyCookiesBlocked": {
    "message": "Cross-site-evästeet estetty",
    "description": "Message for the option in the cookies select field to block all 3rd party cookies"
  },
  "allCookiesBlocked": {
    "message": "Evästeet estetty",
    "description": "Message for the option in the cookies select field to block all cookies"
  },
  "allCookiesAllowed": {
    "message": "Kaikki evästeet sallittu",
    "description": "Message for the option in the cookies select field to allow all cookies"
  },
  "readOnlyFingerprinting": {
    "message": "Fingerprinting-tunniste estetty",
    "description": "Message for the option in the fingerprinting field in read only view"
  },
  "standardFingerprinting": {
    "message": "Sormenjälkitunnistus estetty (standardi)",
    "description": "Message for the option in the fingerprinting select field to block all 3rd party recognition attempts"
  },
  "strictFingerprinting": {
    "message": "Sormenjälkitunnistus estetty (ankara, voi rikkoa sivustoja)",
    "description": "Message for the option in the fingerprinting select field to block all fingerprinting attempts"
  },
  "allowAllFingerprinting": {
    "message": "Salli kaikki sormenjälkitunnistaminen",
    "description": "Message for the option in the fingerprinting select field to allow all fingerprinting attempts"
  },
  "deviceRecognitionAttempts": {
    "message": "Sormenjälkitunnistuksen asetusyritykset",
    "description": "Message for the fingerprinting attempts blocked panel"
  },
  "scriptsOnThisSite": {
    "message": "Tämän sivuston skriptit",
    "description": "Message for the script resources blocked panel"
  },
  "blockedScripts": {
    "message": "Estetyt skriptit",
    "description": "Message for the script resources blocked"
  },
  "allowedScripts": {
    "message": "Sallitut skriptit",
    "description": "Message for the script resources allowed"
  },
  "blockAll": {
    "message": "Estä kaikki",
    "description": "Message for the resources blocked *block all* option"
  },
  "allowAll": {
    "message": "Salli kaikki",
    "description": "Message for the resources blocked *allow all* option"
  },
  "block": {
    "message": "Estä",
    "description": "Message for the resources blocked *block* option"
  },
  "allow": {
    "message": "Salli",
    "description": "Message for the resources blocked *allow* option"
  },
  "blockedOnce": {
    "message": "Estetty kerran",
    "description": "Message for the resources blocked *blocked once* option"
  },
  "allowedOnce": {
    "message": "Sallittu kerran",
    "description": "Message for the resources blocked *allowed once* option"
  },
  "allowScriptsOnce": {
    "message": "Salli komentosarjat kerran",
    "description": "Message for the shortcut in the main interface to allow all scripts once"
  },
  "cancel": {
    "message": "Peruuta",
    "description": "Message for the button inside the static list of resources blocked to cancel the operation"
  },
  "goBack": {
    "message": "Palaa",
    "description": "Message for the button inside the static list of resources blocked to go back from the current screen"
  },
  "applyOnce": {
    "message": "Käytä kerran",
    "description": "Message for action in dynamic list of resources blocked to *apply once*"
  },
  "changeDefaults": {
    "message": "Muuta globaalin suojan asetuksia",
    "description": "Message for the button action linking to the settings page"
  },
  "manageCustomFilters": {
    "message": "Hallitse muokattuja suodattimia",
    "description": "Message for context menu that opens a page for adding, editing, and removing custom cosmetic filters"
  },
  "elementPickerMode": {
    "message": "Estä elementti",
    "description": "Message for context menu that enables the element picker UI to apply cosmetic filter rules to the page."
  },
  "advancedView": {
    "message": "Tarkennettu näkymä",
    "description": "Message for the advanced view option"
  },
  "simpleView": {
    "message": "Pelkistetty näkymä",
    "description": "Message for the simple view option"
  },
  "shieldsExplanation": {
    "message": "Sivustoihin sisältyy usein evästeitä ja komentosarjoja (usein mainoksiin upotettuina), jotka yrittävät tunnistaa sinut ja laitteesi. Ne yrittävät selvittää henkilöllisyytesi ja jäljittää sinua verkossa seuraamalla, mitä teet kaikilla vierailemillasi sivustoilla. Shunya estää ne, jotta voit selata verkkoa ilman seuratuksi tulemista.",
    "description": "Message in read-only view explaining what Shunya Shields do"
  },
  "blockedResoucesExplanation": {
    "message": "Sivustojen välistä seurantasovellusta (cross-site trackers) ja muuta ikävää juttua estetty",
    "description": "Message for the main trackers count in Shields simple view"
  },
  "webCompatWarning": {
    "message": "Shield-asetusten muuttaminen tässä näkymässä saattaa vaikuttaa tämän sivuston verkkoyhteensopivuuteen.",
    "description": "Message for web compat warning when switching from simple to advanced view"
  },
  "gotIt": {
    "message": "Ymmärretty",
    "description": "Message for the button that confirms the advanced view"
  },
  "learnMore": {
    "message": "Lisätietoja",
    "description": "Message inviting the user to learn more about Shields"
  },
  "addToShunya": {
    "message": "Lisää Shunyaiin",
    "description": "Message for adding an extension to Shunya"
  },
  "removeFromShunya": {
    "message": "Poista Shunyasta",
    "description": "Message for removing an extension from Shunya"
  },
  "addToChrome": {
    "message": "Lisää Chromeen",
    "description": "Message for adding an extension to Chrome"
  },
  "removeFromChrome": {
    "message": "Poista Chromesta",
    "description": "Message for removing an extension from Chrome"
  }
}
