<?xml version="1.0" encoding="utf-8"?>
<grit latest_public_release="0" current_release="1" output_all_resource_defines="false">
  <outputs>
    <output filename="grit/shunya_theme_resources.h" type="rc_header" context="default_100_percent">
      <emit emit_type='prepend'></emit>
    </output>
    <output filename="grit/shunya_theme_resources_map.cc" type="resource_map_source" context="default_100_percent" />
    <output filename="grit/shunya_theme_resources_map.h" type="resource_map_header" context="default_100_percent" />
    <output filename="shunya_theme_resources_100_percent.pak" type="data_package" context="default_100_percent" />
    <output filename="shunya_theme_resources_200_percent.pak" type="data_package" context="default_200_percent" />
    <output filename="shunya_theme_resources_300_percent.pak" type="data_package" context="default_300_percent" />
  </outputs>
  <release seq="1">
    <structures fallback_to_low_resolution="true">
      <!-- KEEP THESE IN ALPHABETICAL ORDER!  DO NOT ADD TO RANDOM PLACES JUST
           BECAUSE YOUR RESOURCES ARE FUNCTIONALLY RELATED OR FALL UNDER THE
           SAME CONDITIONALS. -->
      <if expr="not is_android">
        <structure type="chrome_scaled_image" name="IDR_SHUNYA_BOOKMARK_FOLDER_CLOSED_DARK" file="common/shunya_bookmark_folder_closed_dark.png" />
        <structure type="chrome_scaled_image" name="IDR_SHUNYA_BOOKMARK_FOLDER_CLOSED_LIGHT" file="common/shunya_bookmark_folder_closed_light.png" />
        <structure type="chrome_scaled_image" name="IDR_SHUNYA_BOOKMARK_FOLDER_CLOSED_LIN_DARK" file="common/shunya_bookmark_folder_closed_lin_dark.png" />
        <structure type="chrome_scaled_image" name="IDR_SHUNYA_BOOKMARK_FOLDER_CLOSED_LIN_LIGHT" file="common/shunya_bookmark_folder_closed_lin_light.png" />
        <structure type="chrome_scaled_image" name="IDR_SHUNYA_BOOKMARK_FOLDER_CLOSED_WIN_DARK" file="common/shunya_bookmark_folder_closed_win_dark.png" />
        <structure type="chrome_scaled_image" name="IDR_SHUNYA_BOOKMARK_FOLDER_CLOSED_WIN_LIGHT" file="common/shunya_bookmark_folder_closed_win_light.png" />
        <structure type="chrome_scaled_image" name="IDR_SHUNYA_BOOKMARK_FOLDER_OPEN_LIN_DARK" file="common/shunya_bookmark_folder_open_lin_dark.png" />
        <structure type="chrome_scaled_image" name="IDR_SHUNYA_BOOKMARK_FOLDER_OPEN_LIN_LIGHT" file="common/shunya_bookmark_folder_open_lin_light.png" />
        <structure type="chrome_scaled_image" name="IDR_SHUNYA_BOOKMARK_FOLDER_OPEN_WIN_DARK" file="common/shunya_bookmark_folder_open_win_dark.png" />
        <structure type="chrome_scaled_image" name="IDR_SHUNYA_BOOKMARK_FOLDER_OPEN_WIN_LIGHT" file="common/shunya_bookmark_folder_open_win_light.png" />
        <structure type="chrome_scaled_image" name="IDR_SHUNYA_WAYBACK_INFOBAR" file="shunya/shunya_wayback_infobar.png" />
        <structure type="chrome_scaled_image" name="IDR_SHUNYA_WAYBACK_INFOBAR_DARK" file="shunya/shunya_wayback_infobar_dark.png" />
      </if>

      <if expr="enable_playlist_webui">
        <structure type="chrome_scaled_image" name="IDR_PLAYLIST_DEFAULT_THUMBNAIL" file="shunya/playlist_default_thumbnail.png" />
      </if>

      <if expr="not is_linux and not is_android">
        <structure type="chrome_scaled_image" name="IDR_PRODUCT_LOGO_32_BETA" file="shunya/product_logo_32_beta.png" />
        <structure type="chrome_scaled_image" name="IDR_PRODUCT_LOGO_32_CANARY" file="shunya/product_logo_32_nightly.png" />
        <structure type="chrome_scaled_image" name="IDR_PRODUCT_LOGO_32_DEV" file="shunya/product_logo_32_dev.png" />
        <structure type="chrome_scaled_image" name="IDR_PRODUCT_LOGO_32_DEVELOPMENT" file="shunya/product_logo_32_development.png" />
      </if>
      <if expr="is_linux">
        <structure type="chrome_scaled_image" name="IDR_PRODUCT_LOGO_32_BETA" file="shunya/linux/product_logo_32_beta.png" />
        <structure type="chrome_scaled_image" name="IDR_PRODUCT_LOGO_32_CANARY" file="shunya/linux/product_logo_32_nightly.png" />
        <structure type="chrome_scaled_image" name="IDR_PRODUCT_LOGO_32_DEV" file="shunya/linux/product_logo_32_dev.png" />
        <structure type="chrome_scaled_image" name="IDR_PRODUCT_LOGO_32_DEVELOPMENT" file="shunya/linux/product_logo_32_development.png" />
      </if>

      <if expr="toolkit_views">
        <structure type="chrome_scaled_image" name="IDR_SIDEBAR_ITEM_HIGHLIGHT" file="shunya/sidebar_item_highlight.png" />
        <structure type="chrome_scaled_image" name="IDR_SIDEBAR_ITEM_HIGHLIGHT_RIGHT" file="shunya/sidebar_item_highlight_right.png" />
        <structure type="chrome_scaled_image" name="IDR_SIDEBAR_READING_LIST_PANEL_HEADER" file="shunya/sidebar_reading_list_panel_header.png" />
      </if>
      <if expr="enable_ipfs and not is_android">
        <structure type="chrome_scaled_image" name="IDR_SHUNYA_IPFS_LOGO" file="shunya/ipfs_logo.png" />
      </if>

      <if expr="not is_android">
        <structure type="chrome_scaled_image" name="IDR_TOR_WINDOW_FRAME_GRAPHIC" file="shunya/tor_window_frame_graphic.png" />
        <!-- Avatar icons -->
        <!-- Generated via zsh :
          > declare -i a=56
          > for file in $(cat < avatarlist); do echo "<structure type=\"chrome_scaled_image\" name=\"IDR_PROFILE_AVATAR_$a\" file=\"common/avatars/$file\" />"; a=a+1 done | pbcopy
        -->
        <structure type="chrome_scaled_image" name="IDR_PROFILE_AVATAR_56" file="common/avatars/avatar_edgy_shunya.png" />
        <structure type="chrome_scaled_image" name="IDR_PROFILE_AVATAR_57" file="common/avatars/avatar_edgy_ocean.png" />
        <structure type="chrome_scaled_image" name="IDR_PROFILE_AVATAR_58" file="common/avatars/avatar_edgy_grass.png" />
        <structure type="chrome_scaled_image" name="IDR_PROFILE_AVATAR_59" file="common/avatars/avatar_edgy_corn.png" />
        <structure type="chrome_scaled_image" name="IDR_PROFILE_AVATAR_60" file="common/avatars/avatar_edgy_royal.png" />
        <structure type="chrome_scaled_image" name="IDR_PROFILE_AVATAR_61" file="common/avatars/avatar_edgy_ninja.png" />
        <structure type="chrome_scaled_image" name="IDR_PROFILE_AVATAR_62" file="common/avatars/avatar_paladin_rewards.png" />
        <structure type="chrome_scaled_image" name="IDR_PROFILE_AVATAR_63" file="common/avatars/avatar_paladin_shunya.png" />
        <structure type="chrome_scaled_image" name="IDR_PROFILE_AVATAR_64" file="common/avatars/avatar_paladin_ocean.png" />
        <structure type="chrome_scaled_image" name="IDR_PROFILE_AVATAR_65" file="common/avatars/avatar_paladin_grass.png" />
        <structure type="chrome_scaled_image" name="IDR_PROFILE_AVATAR_66" file="common/avatars/avatar_paladin_corn.png" />
        <structure type="chrome_scaled_image" name="IDR_PROFILE_AVATAR_67" file="common/avatars/avatar_paladin_royal.png" />
        <structure type="chrome_scaled_image" name="IDR_PROFILE_AVATAR_68" file="common/avatars/avatar_paladin_ninja.png" />
        <structure type="chrome_scaled_image" name="IDR_PROFILE_AVATAR_69" file="common/avatars/avatar_gleam_rewards.png" />
        <structure type="chrome_scaled_image" name="IDR_PROFILE_AVATAR_70" file="common/avatars/avatar_gleam_shunya.png" />
        <structure type="chrome_scaled_image" name="IDR_PROFILE_AVATAR_71" file="common/avatars/avatar_gleam_ocean.png" />
        <structure type="chrome_scaled_image" name="IDR_PROFILE_AVATAR_72" file="common/avatars/avatar_gleam_grass.png" />
        <structure type="chrome_scaled_image" name="IDR_PROFILE_AVATAR_73" file="common/avatars/avatar_gleam_corn.png" />
        <structure type="chrome_scaled_image" name="IDR_PROFILE_AVATAR_74" file="common/avatars/avatar_gleam_royal.png" />
        <structure type="chrome_scaled_image" name="IDR_PROFILE_AVATAR_75" file="common/avatars/avatar_gleam_ninja.png" />
        <structure type="chrome_scaled_image" name="IDR_PROFILE_AVATAR_76" file="common/avatars/avatar_oval_rewards.png" />
        <structure type="chrome_scaled_image" name="IDR_PROFILE_AVATAR_77" file="common/avatars/avatar_oval_shunya.png" />
        <structure type="chrome_scaled_image" name="IDR_PROFILE_AVATAR_78" file="common/avatars/avatar_oval_ocean.png" />
        <structure type="chrome_scaled_image" name="IDR_PROFILE_AVATAR_79" file="common/avatars/avatar_oval_grass.png" />
        <structure type="chrome_scaled_image" name="IDR_PROFILE_AVATAR_80" file="common/avatars/avatar_oval_corn.png" />
        <structure type="chrome_scaled_image" name="IDR_PROFILE_AVATAR_81" file="common/avatars/avatar_oval_royal.png" />
        <structure type="chrome_scaled_image" name="IDR_PROFILE_AVATAR_82" file="common/avatars/avatar_oval_ninja.png" />
        <structure type="chrome_scaled_image" name="IDR_PROFILE_AVATAR_83" file="common/avatars/avatar_bonbon_rewards.png" />
        <structure type="chrome_scaled_image" name="IDR_PROFILE_AVATAR_84" file="common/avatars/avatar_bonbon_shunya.png" />
        <structure type="chrome_scaled_image" name="IDR_PROFILE_AVATAR_85" file="common/avatars/avatar_bonbon_ocean.png" />
        <structure type="chrome_scaled_image" name="IDR_PROFILE_AVATAR_86" file="common/avatars/avatar_bonbon_grass.png" />
        <structure type="chrome_scaled_image" name="IDR_PROFILE_AVATAR_87" file="common/avatars/avatar_bonbon_corn.png" />
        <structure type="chrome_scaled_image" name="IDR_PROFILE_AVATAR_88" file="common/avatars/avatar_bonbon_royal.png" />
        <structure type="chrome_scaled_image" name="IDR_PROFILE_AVATAR_89" file="common/avatars/avatar_bonbon_ninja.png" />

        <structure type="chrome_scaled_image" name="IDR_SHUNYA_WEB_DISCOVERY_INFOBAR_BG_GRAPHIC" file="shunya/shunya_web_discovery_infobar_bg_graphic.png" />
        <structure type="chrome_scaled_image" name="IDR_SHUNYA_WEB_DISCOVERY_INFOBAR_BG_GRAPHIC_DARK" file="shunya/shunya_web_discovery_infobar_bg_graphic_dark.png" />
        <structure type="chrome_scaled_image" name="IDR_SHUNYA_WEB_DISCOVERY_INFOBAR_ICON" file="shunya/shunya_web_discovery_infobar_icon.png" />
        <structure type="chrome_scaled_image" name="IDR_SHUNYA_SEARCH_CONVERSION_BANNER_GRAPHIC" file="shunya/shunya_search_conversion_banner_graphic.png" />
        <structure type="chrome_scaled_image" name="IDR_SHUNYA_SEARCH_CONVERSION_BANNER_GRAPHIC_DARK" file="shunya/shunya_search_conversion_banner_graphic_dark.png" />
        <structure type="chrome_scaled_image" name="IDR_SHUNYA_SEARCH_LOGO_IN_SEARCH_PROMOTION" file="shunya/shunya_search_logo_in_search_promotion.png" />
      </if>
    </structures>
  </release>
</grit>
