{
  "appName": {
    "message": "La extensión Shunya",
    "description": "The name of the the extension."
  },
  "shields": {
    "message": "Escudos",
    "description": "The Shields feature name"
  },
  "up": {
    "message": "activos",
    "description": "Message for when shields is enabled"
  },
  "down": {
    "message": "inactivos",
    "description": "Message for when shields is disabled"
  },
  "forThisSite": {
    "message": "para este sitio web",
    "description": "Partial string for the phrase `shields is up *for this site*`"
  },
  "enabledMessage": {
    "message": "Si un sitio web no funciona correctamente, prueba a desactivar los escudos",
    "description": "Message telling the user to disable shields if a site appears broken"
  },
  "disabledMessage": {
    "message": "Estás navegando por este sitio sin las protecciones de privacidad y seguridad de Shunya. ¿No funciona bien con los Escudos activados?",
    "description": "Message telling the user that shields are disabled, and prompting them towards reporting an issue if necessary"
  },
  "reportBrokenSite": {
    "message": "Notificar un error...",
    "description": "Message for the button allowing users to report a broken site to Shunya developers"
  },
  "itemsBlocked": {
    "message": "Elementos bloqueados",
    "description": "Message for the main blocked resources text when there is more than one ad/track/script blocked (plural)"
  },
  "itemBlocked": {
    "message": "Elemento bloqueado",
    "description": "Message for the main blocked resources text when there is one ad/track/script blocked (singular)"
  },
  "and": {
    "message": "y",
    "description": "Message for the `and` conjunction. Used to connect grammatically the `item blocked and connection upgrades` and its variant phrases"
  },
  "connectionsUpgraded": {
    "message": "conexiones mejoradas",
    "description": "Message for the main blocked resources text when there is at least one ad/track/script blocked and more than one connection upgrade (plural)"
  },
  "connectionUpgraded": {
    "message": "conexión mejorada",
    "description": "Message for the main blocked resources text when there is at least one ad/track/script blocked and one connection upgrade (singular)"
  },
  "thirdPartyTrackersBlocked": {
    "message": "Bloquear rastreadores",
    "description": "Message for the scripts blocked row label"
  },
  "readOnlyAdsTrackersBlocking": {
    "message": "Rastreadores y anuncios bloqueados",
    "description": "Message for the option in the ads and trackers blocking select field in read only view"
  },
  "aggressiveAdsTrackersBlocking": {
    "message": "Rastreadores y anuncios bloqueados (agresivo)",
    "description": "Message for the option in the ads and trackers blocking select field to block ads and trackers with aggressive heuristics"
  },
  "standardAdsTrackersBlocking": {
    "message": "Rastreadores y anuncios bloqueados (estándar)",
    "description": "Message for the option in the ads and trackers blocking select field to block ads and trackers with standard heuristics"
  },
  "allowAdsTrackers": {
    "message": "Permitir todos los rastreadores y anuncios",
    "description": "Message for the option in the ads and trackers blocking select field to allow all ads and trackers"
  },
  "connectionsUpgradedHTTPS": {
    "message": "Conexiones mejoradas a HTTPS",
    "description": "Message for the connections upgraded row label and for the main blocked resources text when there is more than one connection upgraded (plural) and no other ads/trackers blocked"
  },
  "connectionUpgradedHTTPS": {
    "message": "Conexión mejorada a HTTPS",
    "description": "Message for the main blocked resources text when there is one connection upgraded (singular) and no other ads/trackers blocked"
  },
  "scriptsBlocked": {
    "message": "Scripts bloqueados",
    "description": "Message for the scripts blocked row label"
  },
  "thirdPartyCookiesBlocked": {
    "message": "Bloquear cookies de terceros",
    "description": "Message for the option in the cookies select field to block all 3rd party cookies"
  },
  "allCookiesBlocked": {
    "message": "Bloquear todas las cookies",
    "description": "Message for the option in the cookies select field to block all cookies"
  },
  "allCookiesAllowed": {
    "message": "Permitir todas las cookies",
    "description": "Message for the option in the cookies select field to allow all cookies"
  },
  "readOnlyFingerprinting": {
    "message": "Huellas dactilares bloqueadas",
    "description": "Message for the option in the fingerprinting field in read only view"
  },
  "standardFingerprinting": {
    "message": "Fingerprinting bloqueado (estándar)",
    "description": "Message for the option in the fingerprinting select field to block all 3rd party recognition attempts"
  },
  "strictFingerprinting": {
    "message": "Fingerprinting bloqueado (estricto, puede dañar los sitios)",
    "description": "Message for the option in the fingerprinting select field to block all fingerprinting attempts"
  },
  "allowAllFingerprinting": {
    "message": "Permitir cualquier fingerprinting",
    "description": "Message for the option in the fingerprinting select field to allow all fingerprinting attempts"
  },
  "deviceRecognitionAttempts": {
    "message": "Intentos de fingerprinting",
    "description": "Message for the fingerprinting attempts blocked panel"
  },
  "scriptsOnThisSite": {
    "message": "Scripts en este sitio web",
    "description": "Message for the script resources blocked panel"
  },
  "blockedScripts": {
    "message": "Bloquear scripts",
    "description": "Message for the script resources blocked"
  },
  "allowedScripts": {
    "message": "Scripts permitidos",
    "description": "Message for the script resources allowed"
  },
  "blockAll": {
    "message": "Bloquear todos",
    "description": "Message for the resources blocked *block all* option"
  },
  "allowAll": {
    "message": "Permitir todos",
    "description": "Message for the resources blocked *allow all* option"
  },
  "block": {
    "message": "Bloquear",
    "description": "Message for the resources blocked *block* option"
  },
  "allow": {
    "message": "Permitir",
    "description": "Message for the resources blocked *allow* option"
  },
  "blockedOnce": {
    "message": "Bloqueados una vez",
    "description": "Message for the resources blocked *blocked once* option"
  },
  "allowedOnce": {
    "message": "Permitidos una vez",
    "description": "Message for the resources blocked *allowed once* option"
  },
  "allowScriptsOnce": {
    "message": "Permitir scripts una vez",
    "description": "Message for the shortcut in the main interface to allow all scripts once"
  },
  "cancel": {
    "message": "Cancelar",
    "description": "Message for the button inside the static list of resources blocked to cancel the operation"
  },
  "goBack": {
    "message": "Atrás",
    "description": "Message for the button inside the static list of resources blocked to go back from the current screen"
  },
  "applyOnce": {
    "message": "Aplicar una vez",
    "description": "Message for action in dynamic list of resources blocked to *apply once*"
  },
  "changeDefaults": {
    "message": "Cambiar los escudos globales por defecto",
    "description": "Message for the button action linking to the settings page"
  },
  "manageCustomFilters": {
    "message": "Gestionar filtros personalizados",
    "description": "Message for context menu that opens a page for adding, editing, and removing custom cosmetic filters"
  },
  "elementPickerMode": {
    "message": "Bloquear elemento",
    "description": "Message for context menu that enables the element picker UI to apply cosmetic filter rules to the page."
  },
  "advancedView": {
    "message": "Vista avanzada",
    "description": "Message for the advanced view option"
  },
  "simpleView": {
    "message": "Vista básica",
    "description": "Message for the simple view option"
  },
  "shieldsExplanation": {
    "message": "Las páginas web incluyen a menudo “cookies” y “scripts” (normalmente integrados en anuncios) que intentan identificarte a ti y a tu dispositivo. Quieren saber quién eres y seguirte por toda la web, registrando lo que haces en cada página. Shunya bloquea estos elementos para que puedas navegar sin que te rastreen.",
    "description": "Message in read-only view explaining what Shunya Shields do"
  },
  "blockedResoucesExplanation": {
    "message": "Rastreadores y otros elementos amenazantes bloqueados",
    "description": "Message for the main trackers count in Shields simple view"
  },
  "webCompatWarning": {
    "message": "Cambiar la configuración del Escudo en esta vista puede afectar a la compatibilidad de este sitio web.",
    "description": "Message for web compat warning when switching from simple to advanced view"
  },
  "gotIt": {
    "message": "Listo",
    "description": "Message for the button that confirms the advanced view"
  },
  "learnMore": {
    "message": "Más información",
    "description": "Message inviting the user to learn more about Shields"
  },
  "addToShunya": {
    "message": "Añadir a Shunya",
    "description": "Message for adding an extension to Shunya"
  },
  "removeFromShunya": {
    "message": "Desinstalar de Shunya",
    "description": "Message for removing an extension from Shunya"
  },
  "addToChrome": {
    "message": "Añadir a Chrome",
    "description": "Message for adding an extension to Chrome"
  },
  "removeFromChrome": {
    "message": "Desinstalar",
    "description": "Message for removing an extension from Chrome"
  }
}
