{
  "appName": {
    "message": "L'Estensione Shunya",
    "description": "The name of the the extension."
  },
  "shields": {
    "message": "Protezioni",
    "description": "The Shields feature name"
  },
  "up": {
    "message": "su",
    "description": "Message for when shields is enabled"
  },
  "down": {
    "message": "giù",
    "description": "Message for when shields is disabled"
  },
  "forThisSite": {
    "message": "per questo sito",
    "description": "Partial string for the phrase `shields is up *for this site*`"
  },
  "enabledMessage": {
    "message": "Se un sito sembra non funzionante, prova con le protezioni abbassate.",
    "description": "Message telling the user to disable shields if a site appears broken"
  },
  "disabledMessage": {
    "message": "Stai navigando su questo sito senza le misure di privacy e sicurezza di Shunya. Il sito non funziona bene se attivi gli Scudi?",
    "description": "Message telling the user that shields are disabled, and prompting them towards reporting an issue if necessary"
  },
  "reportBrokenSite": {
    "message": "Segnala un sito non funzionante",
    "description": "Message for the button allowing users to report a broken site to Shunya developers"
  },
  "itemsBlocked": {
    "message": "Articoli bloccati",
    "description": "Message for the main blocked resources text when there is more than one ad/track/script blocked (plural)"
  },
  "itemBlocked": {
    "message": "Voci bloccate",
    "description": "Message for the main blocked resources text when there is one ad/track/script blocked (singular)"
  },
  "and": {
    "message": "e",
    "description": "Message for the `and` conjunction. Used to connect grammatically the `item blocked and connection upgrades` and its variant phrases"
  },
  "connectionsUpgraded": {
    "message": "connessioni aggiornate",
    "description": "Message for the main blocked resources text when there is at least one ad/track/script blocked and more than one connection upgrade (plural)"
  },
  "connectionUpgraded": {
    "message": "connessione aggiornata",
    "description": "Message for the main blocked resources text when there is at least one ad/track/script blocked and one connection upgrade (singular)"
  },
  "thirdPartyTrackersBlocked": {
    "message": "Tracker cross-site bloccati",
    "description": "Message for the scripts blocked row label"
  },
  "readOnlyAdsTrackersBlocking": {
    "message": "Tracker & ad bloccate",
    "description": "Message for the option in the ads and trackers blocking select field in read only view"
  },
  "aggressiveAdsTrackersBlocking": {
    "message": "Indicatori e annunci bloccati (aggressivo)",
    "description": "Message for the option in the ads and trackers blocking select field to block ads and trackers with aggressive heuristics"
  },
  "standardAdsTrackersBlocking": {
    "message": "Indicatori e annunci bloccati (standard)",
    "description": "Message for the option in the ads and trackers blocking select field to block ads and trackers with standard heuristics"
  },
  "allowAdsTrackers": {
    "message": "Permetti tutti gli indicatori e annunci",
    "description": "Message for the option in the ads and trackers blocking select field to allow all ads and trackers"
  },
  "connectionsUpgradedHTTPS": {
    "message": "Connessioni aggiornate a HTTPS",
    "description": "Message for the connections upgraded row label and for the main blocked resources text when there is more than one connection upgraded (plural) and no other ads/trackers blocked"
  },
  "connectionUpgradedHTTPS": {
    "message": "Connessione aggiornata a HTTPS",
    "description": "Message for the main blocked resources text when there is one connection upgraded (singular) and no other ads/trackers blocked"
  },
  "scriptsBlocked": {
    "message": "Script bloccati",
    "description": "Message for the scripts blocked row label"
  },
  "thirdPartyCookiesBlocked": {
    "message": "Cookie cross-site bloccati",
    "description": "Message for the option in the cookies select field to block all 3rd party cookies"
  },
  "allCookiesBlocked": {
    "message": "Cookie bloccati",
    "description": "Message for the option in the cookies select field to block all cookies"
  },
  "allCookiesAllowed": {
    "message": "Tutti i cookie permessi",
    "description": "Message for the option in the cookies select field to allow all cookies"
  },
  "readOnlyFingerprinting": {
    "message": "Riconoscimento impronta bloccato",
    "description": "Message for the option in the fingerprinting field in read only view"
  },
  "standardFingerprinting": {
    "message": "Fingerprinting bloccato (standard)",
    "description": "Message for the option in the fingerprinting select field to block all 3rd party recognition attempts"
  },
  "strictFingerprinting": {
    "message": "Fingerprinting bloccato (rigido, potrebbe non far funzionare alcuni siti)",
    "description": "Message for the option in the fingerprinting select field to block all fingerprinting attempts"
  },
  "allowAllFingerprinting": {
    "message": "Consenti tutte le impronte digirali",
    "description": "Message for the option in the fingerprinting select field to allow all fingerprinting attempts"
  },
  "deviceRecognitionAttempts": {
    "message": "Tentativi con impronta digitale",
    "description": "Message for the fingerprinting attempts blocked panel"
  },
  "scriptsOnThisSite": {
    "message": "Script su questo sito",
    "description": "Message for the script resources blocked panel"
  },
  "blockedScripts": {
    "message": "Script bloccati",
    "description": "Message for the script resources blocked"
  },
  "allowedScripts": {
    "message": "Script permessi",
    "description": "Message for the script resources allowed"
  },
  "blockAll": {
    "message": "Blocca tutto",
    "description": "Message for the resources blocked *block all* option"
  },
  "allowAll": {
    "message": "Permetti tutto",
    "description": "Message for the resources blocked *allow all* option"
  },
  "block": {
    "message": "Blocca",
    "description": "Message for the resources blocked *block* option"
  },
  "allow": {
    "message": "Permetti",
    "description": "Message for the resources blocked *allow* option"
  },
  "blockedOnce": {
    "message": "Bloccato una volta",
    "description": "Message for the resources blocked *blocked once* option"
  },
  "allowedOnce": {
    "message": "Permesso una volta",
    "description": "Message for the resources blocked *allowed once* option"
  },
  "allowScriptsOnce": {
    "message": "Consenti script una volta",
    "description": "Message for the shortcut in the main interface to allow all scripts once"
  },
  "cancel": {
    "message": "Annulla",
    "description": "Message for the button inside the static list of resources blocked to cancel the operation"
  },
  "goBack": {
    "message": "Torna indietro",
    "description": "Message for the button inside the static list of resources blocked to go back from the current screen"
  },
  "applyOnce": {
    "message": "Applica solo una volta",
    "description": "Message for action in dynamic list of resources blocked to *apply once*"
  },
  "changeDefaults": {
    "message": "Cambia le impostazioni predefinite della protezione globale",
    "description": "Message for the button action linking to the settings page"
  },
  "manageCustomFilters": {
    "message": "Gestisci i filtri personalizzati",
    "description": "Message for context menu that opens a page for adding, editing, and removing custom cosmetic filters"
  },
  "elementPickerMode": {
    "message": "Blocca elemento",
    "description": "Message for context menu that enables the element picker UI to apply cosmetic filter rules to the page."
  },
  "advancedView": {
    "message": "Vista Avanzata",
    "description": "Message for the advanced view option"
  },
  "simpleView": {
    "message": "Vista Semplice",
    "description": "Message for the simple view option"
  },
  "shieldsExplanation": {
    "message": "I siti spesso includono cookie e script che provano a identificare te e il tuo dispositivo (spesso inseriti negli annunci). Vogliono capire chi sei e ti seguono nel web — tracciano ciò che fai su ciascun sito. Shunya blocca queste cose in modo che tu possa navigare senza essere inseguito.",
    "description": "Message in read-only view explaining what Shunya Shields do"
  },
  "blockedResoucesExplanation": {
    "message": "Tracciamento cross-site e altre cose inquietanti bloccate",
    "description": "Message for the main trackers count in Shields simple view"
  },
  "webCompatWarning": {
    "message": "Modificare le impostazioni Shield in questa vista potrebbe compromettere la compatibilità su questo sito.",
    "description": "Message for web compat warning when switching from simple to advanced view"
  },
  "gotIt": {
    "message": "Fatto",
    "description": "Message for the button that confirms the advanced view"
  },
  "learnMore": {
    "message": "Scopri di più",
    "description": "Message inviting the user to learn more about Shields"
  },
  "addToShunya": {
    "message": "Aggiungi a Shunya",
    "description": "Message for adding an extension to Shunya"
  },
  "removeFromShunya": {
    "message": "Rimuovi da Shunya",
    "description": "Message for removing an extension from Shunya"
  },
  "addToChrome": {
    "message": "Aggiungi",
    "description": "Message for adding an extension to Chrome"
  },
  "removeFromChrome": {
    "message": "Rimuovi da Google Chrome",
    "description": "Message for removing an extension from Chrome"
  }
}
