{
  "configurations": [{
    "dashboard-bot-name": "mac-mini-x64-typical",
    "browser-type": "shunya",
    "profile": "shunya-typical-mac-v1.55.98",
    "extra-browser-args": [],
    "extra-benchmark-args": [],
  }],
  "benchmarks": [
    {
      "name": "loading.desktop.shunya",
      "pageset-repeat": 20,
      "stories": [
        "example.com_cold",
        "wikipedia.com_cold",
        "IGN_warm",
      ]
    },
    {
      "name": "system_health.memory_desktop",
      "pageset-repeat": 20,
      "stories": [
        "load:chrome:blank",
        "load:media:youtube:2018",
      ]
    },
    {
      "name": "system_health.common_desktop",
      "pageset-repeat": 20,
      "stories": [
        "load:chrome:blank",
        "browse:news:hackernews:2020",
      ]
    },
    {
      "name": "speedometer2",
      "pageset-repeat": 50
    }
  ]
}
