{
  "configurations": [{
    "dashboard-bot-name": "win11-hp-laptop-typical",
    "browser-type": "chrome.no-trials",
    "profile": "chrome-typical-win-114",
    "extra-browser-args": ["--disable-features=CalculateNativeWinOcclusion"],
    "extra-benchmark-args": [],
    "save-artifacts": true,
  }],
  "benchmarks": [
    {
      "name": "loading.desktop.shunya",
      "pageset-repeat": 10,
      "stories": [
        "example.com_cold",
        "wikipedia.com_cold",
        "IGN_warm",
      ]
    },
    {
      "name": "system_health.memory_desktop",
      "pageset-repeat": 10,
      "stories": [
        "load:chrome:blank",
        "load:media:youtube:2018",
      ]
    },
    {
      "name": "speedometer2",
      "pageset-repeat": 1
    }
  ]
}
