{
  "configurations": [{
    "dashboard-bot-name": "asus-w10-slow-laptop-typical",
    "browser-type": "chrome",
    "profile": "chrome-typical-win-114",
    "extra-browser-args": [],
    "extra-benchmark-args": [],
    "save-artifacts": false,
  }],
  "benchmarks": [
    {
      "name": "loading.desktop.shunya",
      "pageset-repeat": 10,
      "stories": [
        "example.com_cold",
        "wikipedia.com_cold",
        "IGN_warm",
      ]
    },
    {
      "name": "system_health.memory_desktop",
      "pageset-repeat": 10,
      "stories": [
        "load:chrome:blank",
        "browse:news:hackernews:2020",
      ]
    },
    {
      "name": "speedometer2",
      "pageset-repeat": 1
    }
  ]
}
