<?xml version="1.0" encoding="UTF-8"?>
<grit latest_public_release="0" current_release="1" output_all_resource_defines="false" source_lang_id="en">
  <outputs>
    <output filename="grit/shunya_components_strings.h" type="rc_header">
      <emit emit_type='prepend'></emit>
    </output>
    <output filename="shunya_components_strings_af.pak" type="data_package" lang="af" />
    <output filename="shunya_components_strings_am.pak" type="data_package" lang="am" />
    <output filename="shunya_components_strings_ar.pak" type="data_package" lang="ar" />
    <output filename="shunya_components_strings_as.pak" type="data_package" lang="as" />
    <output filename="shunya_components_strings_az.pak" type="data_package" lang="az" />
    <output filename="shunya_components_strings_be.pak" type="data_package" lang="be" />
    <output filename="shunya_components_strings_bg.pak" type="data_package" lang="bg" />
    <output filename="shunya_components_strings_bn.pak" type="data_package" lang="bn" />
    <output filename="shunya_components_strings_bs.pak" type="data_package" lang="bs" />
    <output filename="shunya_components_strings_ca.pak" type="data_package" lang="ca" />
    <output filename="shunya_components_strings_cs.pak" type="data_package" lang="cs" />
    <output filename="shunya_components_strings_cy.pak" type="data_package" lang="cy" />
    <output filename="shunya_components_strings_da.pak" type="data_package" lang="da" />
    <output filename="shunya_components_strings_de.pak" type="data_package" lang="de" />
    <output filename="shunya_components_strings_el.pak" type="data_package" lang="el" />
    <output filename="shunya_components_strings_en-GB.pak" type="data_package" lang="en-GB" />
    <output filename="shunya_components_strings_en-US.pak" type="data_package" lang="en" />
    <output filename="shunya_components_strings_es.pak" type="data_package" lang="es" />
    <if expr="is_ios">
      <!-- iOS uses es-MX for es-419 -->
      <output filename="shunya_components_strings_es-MX.pak" type="data_package" lang="es-419" />
    </if>
    <if expr="not is_ios">
      <output filename="shunya_components_strings_es-419.pak" type="data_package" lang="es-419" />
    </if>
    <output filename="shunya_components_strings_et.pak" type="data_package" lang="et" />
    <output filename="shunya_components_strings_eu.pak" type="data_package" lang="eu" />
    <output filename="shunya_components_strings_fa.pak" type="data_package" lang="fa" />
    <output filename="shunya_components_strings_fi.pak" type="data_package" lang="fi" />
    <output filename="shunya_components_strings_fil.pak" type="data_package" lang="fil" />
    <output filename="shunya_components_strings_fr.pak" type="data_package" lang="fr" />
    <output filename="shunya_components_strings_fr-CA.pak" type="data_package" lang="fr-CA" />
    <output filename="shunya_components_strings_gl.pak" type="data_package" lang="gl" />
    <output filename="shunya_components_strings_gu.pak" type="data_package" lang="gu" />
    <output filename="shunya_components_strings_he.pak" type="data_package" lang="he" />
    <output filename="shunya_components_strings_hi.pak" type="data_package" lang="hi" />
    <output filename="shunya_components_strings_hr.pak" type="data_package" lang="hr" />
    <output filename="shunya_components_strings_hu.pak" type="data_package" lang="hu" />
    <output filename="shunya_components_strings_hy.pak" type="data_package" lang="hy" />
    <output filename="shunya_components_strings_id.pak" type="data_package" lang="id" />
    <output filename="shunya_components_strings_it.pak" type="data_package" lang="it" />
    <output filename="shunya_components_strings_is.pak" type="data_package" lang="is" />
    <output filename="shunya_components_strings_ja.pak" type="data_package" lang="ja" />
    <output filename="shunya_components_strings_ka.pak" type="data_package" lang="ka" />
    <output filename="shunya_components_strings_kk.pak" type="data_package" lang="kk" />
    <output filename="shunya_components_strings_km.pak" type="data_package" lang="km" />
    <output filename="shunya_components_strings_kn.pak" type="data_package" lang="kn" />
    <output filename="shunya_components_strings_ko.pak" type="data_package" lang="ko" />
    <output filename="shunya_components_strings_ky.pak" type="data_package" lang="ky" />
    <output filename="shunya_components_strings_lo.pak" type="data_package" lang="lo" />
    <output filename="shunya_components_strings_lt.pak" type="data_package" lang="lt" />
    <output filename="shunya_components_strings_lv.pak" type="data_package" lang="lv" />
    <output filename="shunya_components_strings_mk.pak" type="data_package" lang="mk" />
    <output filename="shunya_components_strings_ml.pak" type="data_package" lang="ml" />
    <output filename="shunya_components_strings_mn.pak" type="data_package" lang="mn" />
    <output filename="shunya_components_strings_mr.pak" type="data_package" lang="mr" />
    <output filename="shunya_components_strings_ms.pak" type="data_package" lang="ms" />
    <output filename="shunya_components_strings_my.pak" type="data_package" lang="my" />
    <!-- The translation console uses 'no' for Norwegian Bokmål. It should
         be 'nb'. -->
    <output filename="shunya_components_strings_nb.pak" type="data_package" lang="no" />
    <output filename="shunya_components_strings_ne.pak" type="data_package" lang="ne" />
    <output filename="shunya_components_strings_nl.pak" type="data_package" lang="nl" />
    <output filename="shunya_components_strings_or.pak" type="data_package" lang="or" />
    <output filename="shunya_components_strings_pa.pak" type="data_package" lang="pa" />
    <output filename="shunya_components_strings_pl.pak" type="data_package" lang="pl" />
    <if expr="is_ios">
      <!-- iOS uses pt for pt-BR -->
      <output filename="shunya_components_strings_pt.pak" type="data_package" lang="pt-BR" />
    </if>
    <if expr="not is_ios">
      <output filename="shunya_components_strings_pt-BR.pak" type="data_package" lang="pt-BR" />
    </if>
    <output filename="shunya_components_strings_pt-PT.pak" type="data_package" lang="pt-PT" />
    <output filename="shunya_components_strings_ro.pak" type="data_package" lang="ro" />
    <output filename="shunya_components_strings_ru.pak" type="data_package" lang="ru" />
    <output filename="shunya_components_strings_si.pak" type="data_package" lang="si" />
    <output filename="shunya_components_strings_sk.pak" type="data_package" lang="sk" />
    <output filename="shunya_components_strings_sl.pak" type="data_package" lang="sl" />
    <output filename="shunya_components_strings_sq.pak" type="data_package" lang="sq" />
    <output filename="shunya_components_strings_sr.pak" type="data_package" lang="sr" />
    <output filename="shunya_components_strings_sr-Latn.pak" type="data_package" lang="sr-Latn" />
    <output filename="shunya_components_strings_sv.pak" type="data_package" lang="sv" />
    <output filename="shunya_components_strings_sw.pak" type="data_package" lang="sw" />
    <output filename="shunya_components_strings_ta.pak" type="data_package" lang="ta" />
    <output filename="shunya_components_strings_te.pak" type="data_package" lang="te" />
    <output filename="shunya_components_strings_th.pak" type="data_package" lang="th" />
    <output filename="shunya_components_strings_tr.pak" type="data_package" lang="tr" />
    <output filename="shunya_components_strings_uk.pak" type="data_package" lang="uk" />
    <output filename="shunya_components_strings_ur.pak" type="data_package" lang="ur" />
    <output filename="shunya_components_strings_uz.pak" type="data_package" lang="uz" />
    <output filename="shunya_components_strings_vi.pak" type="data_package" lang="vi" />
    <output filename="shunya_components_strings_zh-CN.pak" type="data_package" lang="zh-CN" />
    <output filename="shunya_components_strings_zh-HK.pak" type="data_package" lang="zh-HK" />
    <output filename="shunya_components_strings_zh-TW.pak" type="data_package" lang="zh-TW" />
    <output filename="shunya_components_strings_zu.pak" type="data_package" lang="zu" />
    <!-- Pseudolocales -->
    <output filename="shunya_components_strings_ar-XB.pak" type="data_package" lang="ar-XB" />
    <output filename="shunya_components_strings_en-XA.pak" type="data_package" lang="en-XA" />
  </outputs>
  <translations>
    <file path="strings/shunya_components_resources_am.xtb" lang="am" />
    <file path="strings/shunya_components_resources_ar.xtb" lang="ar" />
    <file path="strings/shunya_components_resources_bg.xtb" lang="bg" />
    <file path="strings/shunya_components_resources_bn.xtb" lang="bn" />
    <file path="strings/shunya_components_resources_ca.xtb" lang="ca" />
    <file path="strings/shunya_components_resources_cs.xtb" lang="cs" />
    <file path="strings/shunya_components_resources_da.xtb" lang="da" />
    <file path="strings/shunya_components_resources_de.xtb" lang="de" />
    <file path="strings/shunya_components_resources_el.xtb" lang="el" />
    <file path="strings/shunya_components_resources_en-GB.xtb" lang="en-GB" />
    <file path="strings/shunya_components_resources_es.xtb" lang="es" />
    <file path="strings/shunya_components_resources_es-419.xtb" lang="es-419" />
    <file path="strings/shunya_components_resources_et.xtb" lang="et" />
    <file path="strings/shunya_components_resources_fa.xtb" lang="fa" />
    <file path="strings/shunya_components_resources_fi.xtb" lang="fi" />
    <file path="strings/shunya_components_resources_fil.xtb" lang="fil" />
    <file path="strings/shunya_components_resources_fr.xtb" lang="fr" />
    <file path="strings/shunya_components_resources_fr-CA.xtb" lang="fr-CA" />
    <file path="strings/shunya_components_resources_gl.xtb" lang="gl" />
    <file path="strings/shunya_components_resources_gu.xtb" lang="gu" />
    <file path="strings/shunya_components_resources_hi.xtb" lang="hi" />
    <file path="strings/shunya_components_resources_hr.xtb" lang="hr" />
    <file path="strings/shunya_components_resources_hu.xtb" lang="hu" />
    <file path="strings/shunya_components_resources_id.xtb" lang="id" />
    <file path="strings/shunya_components_resources_it.xtb" lang="it" />
    <file path="strings/shunya_components_resources_iw.xtb" lang="he" />
    <file path="strings/shunya_components_resources_ja.xtb" lang="ja" />
    <file path="strings/shunya_components_resources_kn.xtb" lang="kn" />
    <file path="strings/shunya_components_resources_ko.xtb" lang="ko" />
    <file path="strings/shunya_components_resources_lt.xtb" lang="lt" />
    <file path="strings/shunya_components_resources_lv.xtb" lang="lv" />
    <file path="strings/shunya_components_resources_ml.xtb" lang="ml" />
    <file path="strings/shunya_components_resources_mr.xtb" lang="mr" />
    <file path="strings/shunya_components_resources_ms.xtb" lang="ms" />
    <file path="strings/shunya_components_resources_nl.xtb" lang="nl" />
    <file path="strings/shunya_components_resources_no.xtb" lang="no" />
    <file path="strings/shunya_components_resources_pl.xtb" lang="pl" />
    <file path="strings/shunya_components_resources_pt-BR.xtb" lang="pt-BR" />
    <file path="strings/shunya_components_resources_pt-PT.xtb" lang="pt-PT" />
    <file path="strings/shunya_components_resources_ro.xtb" lang="ro" />
    <file path="strings/shunya_components_resources_ru.xtb" lang="ru" />
    <file path="strings/shunya_components_resources_sk.xtb" lang="sk" />
    <file path="strings/shunya_components_resources_sl.xtb" lang="sl" />
    <file path="strings/shunya_components_resources_sr.xtb" lang="sr" />
    <file path="strings/shunya_components_resources_sv.xtb" lang="sv" />
    <file path="strings/shunya_components_resources_sw.xtb" lang="sw" />
    <file path="strings/shunya_components_resources_ta.xtb" lang="ta" />
    <file path="strings/shunya_components_resources_te.xtb" lang="te" />
    <file path="strings/shunya_components_resources_th.xtb" lang="th" />
    <file path="strings/shunya_components_resources_tr.xtb" lang="tr" />
    <file path="strings/shunya_components_resources_uk.xtb" lang="uk" />
    <file path="strings/shunya_components_resources_vi.xtb" lang="vi" />
    <file path="strings/shunya_components_resources_zh-CN.xtb" lang="zh-CN" />
    <file path="strings/shunya_components_resources_zh-TW.xtb" lang="zh-TW" />
  </translations>
  <release seq="1">
    <messages fallback_to_english="true">
      <!-- Error pages -->
      <message name="IDS_ERRORPAGES_IPFS_INCOGNITO_HEADING" desc="Heading of the IPFS not available in incognito error page.">
        IPFS page cannot be loaded.
      </message>
      <message name="IDS_ERRORPAGES_IPFS_INCOGNITO_SUMMARY" desc="Summary in the error page when IPFS failed in incognito mode.">
        IPFS pages are not allowed in private windows.
      </message>
      <message name="IDS_ERRORPAGES_IPFS_DISABLED_HEADING" desc="Heading of the IPFS disabled error page.">
        IPFS page cannot be loaded.
      </message>
      <message name="IDS_ERRORPAGES_IPFS_DISABLED_SUMMARY" desc="Summary in the error page when IPFS failed because it is disabled.">
        IPFS is disabled. Select IPFS resolve method in settings to open this site.
      </message>
      <!-- WebUI newtab resources -->
      <message name="IDS_SHUNYA_NEW_TAB_TOTAL_ADS_TRACKERS_BLOCKED" desc="total number of ads and trackers blocked">Trackers &amp; ads blocked</message>
      <message name="IDS_SHUNYA_NEW_TAB_TOTAL_HTTPS_UPGRADES" desc="total number of HTTPS upgrades">HTTPS Upgrades</message>
      <message name="IDS_SHUNYA_NEW_TAB_TOTAL_TIME_SAVED" desc="total time saved from blocking ads and trackers">Time saved</message>
      <message name="IDS_SHUNYA_NEW_TAB_ESTIMATED_BANDWIDTH_SAVED" desc="total bandwidth saved from blocking ads and trackers">Bandwidth saved</message>
      <message name="IDS_SHUNYA_NEW_TAB_THUMB_REMOVED" desc="Shown when a thumbnail is removed from the new tab page">Top site removed.</message>
      <message name="IDS_SHUNYA_NEW_TAB_UNDO_REMOVED" desc="Shown when a user wants to undo removing a tile.">Undo</message>
      <message name="IDS_SHUNYA_NEW_TAB_CLOSE" desc="Shown when a user wants to close the site removal notification.">Close</message>
      <message name="IDS_SHUNYA_NEW_TAB_RESTORE_ALL" desc="Allows restoring all top sites back to the original.">Restore All</message>
      <message name="IDS_SHUNYA_NEW_TAB_SECOND" desc="Displays the number of seconds.">second</message>
      <message name="IDS_SHUNYA_NEW_TAB_SECONDS" desc="Displays the number of seconds.">seconds</message>
      <message name="IDS_SHUNYA_NEW_TAB_MINUTE" desc="Displays the number of minutes.">minute</message>
      <message name="IDS_SHUNYA_NEW_TAB_MINUTES" desc="Displays the number of minutes.">minutes</message>
      <message name="IDS_SHUNYA_NEW_TAB_HOUR" desc="Displays the number of hours.">hour</message>
      <message name="IDS_SHUNYA_NEW_TAB_HOURS" desc="Displays the number of hours.">hours</message>
      <message name="IDS_SHUNYA_NEW_TAB_DAY" desc="Displays the number of days.">day</message>
      <message name="IDS_SHUNYA_NEW_TAB_DAYS" desc="Displays the number of days.">days</message>
      <message name="IDS_SHUNYA_NEW_TAB_BYTES" desc="Displays the number of bytes.">B</message>
      <message name="IDS_SHUNYA_NEW_TAB_KILOBYTES" desc="Displays the number of kilobytes.">KB</message>
      <message name="IDS_SHUNYA_NEW_TAB_MEGABYTES" desc="Displays the number of megabytes.">MB</message>
      <message name="IDS_SHUNYA_NEW_TAB_GIGABYTES" desc="Displays the number of gigabytes.">GB</message>

      <message name="IDS_SHUNYA_NEW_TAB_PHOTO_BY" desc="Prefix for photographer name">Photo by</message>
      <message name="IDS_SHUNYA_NEW_TAB_HIDE" desc="Shown as an option for a widget to hide itself">Hide</message>
      <message name="IDS_SHUNYA_NEW_TAB_PREFERENCES_PAGE_TITLE" desc="Title for preferences page">Edit Preferences</message>
      <message name="IDS_SHUNYA_NEW_TAB_BOOKMARKS_PAGE_TITLE" desc="Title for bookmarks page">View and Manage Bookmarks</message>
      <message name="IDS_SHUNYA_NEW_TAB_HISTORY_PAGE_TITLE" desc="Title for history page">View your browsing history</message>
      <message name="IDS_SHUNYA_NEW_TAB_DASHBOARD_SETTINGS_TITLE" desc="Title for dashboard settings">Customize Dashboard</message>
      <message name="IDS_SHUNYA_NEW_TAB_CUSTOMIZE" desc="Title for dashboard settings">Customize</message>
      <message name="IDS_SHUNYA_NEW_TAB_SHOW_BACKGROUND_IMAGE" desc="Text for settings background option">Show Background Images</message>
      <message name="IDS_SHUNYA_NEW_TAB_SHUNYA_BACKGROUND_IMAGE_OPTION_TITLE" desc="Text for shunya background option">Shunya backgrounds</message>
      <message name="IDS_SHUNYA_NEW_TAB_CUSTOM_BACKGROUND_IMAGE_OPTION_TITLE" desc="Text for custom background option">Use your own</message>
      <message name="IDS_SHUNYA_NEW_TAB_CUSTOM_BACKGROUND_IMAGE_OPTION_UPLOAD_LABEL" desc="Text for custom background option upload">Upload from device</message>
      <message name="IDS_SHUNYA_NEW_TAB_SHOW_SHUNYA_STATS" desc="Text for settings show stats option">Show Shunya Stats</message>
      <message name="IDS_SHUNYA_NEW_TAB_SHOW_CLOCK" desc="Text describing 'Show Clock' setting">Show Clock</message>
      <message name="IDS_SHUNYA_NEW_TAB_CLOCK_FORMAT" desc="Text describing 'Format' setting under Clock">Format</message>
      <message name="IDS_SHUNYA_NEW_TAB_CLOCK_FORMAT_DEFAULT" desc="Text for default choice Clock>Format setting">Automatic</message>
      <message name="IDS_SHUNYA_NEW_TAB_CLOCK_FORMAT_12" desc="Text for choice '12-hour clock' Clock>Format setting">12-hour clock</message>
      <message name="IDS_SHUNYA_NEW_TAB_CLOCK_FORMAT_24" desc="Text for choice '24-hour clock' Clock>Format setting">24-hour clock</message>

      <message name="IDS_SHUNYA_NEW_TAB_ADD_TOP_SITE_DIALOG_TITLE" desc="Title text for adding top site dialog ">Add site</message>
      <message name="IDS_SHUNYA_NEW_TAB_EDIT_TOP_SITE_DIALOG_TITLE" desc="Title text for editing top site dialog">Edit site</message>
      <message name="IDS_SHUNYA_NEW_TAB_EDIT_SITE_TILE_MENU_ITEM" desc="Text for editing site tile menu item">Edit site</message>
      <message name="IDS_SHUNYA_NEW_TAB_REMOVE_TILE_MENU_ITEM" desc="Text for removing top site tile menu item">Remove</message>
      <message name="IDS_SHUNYA_NEW_TAB_ADD_TOP_SITE_DIALOG_URL_LABEL" desc="Text for settings show top sites option">URL</message>
      <message name="IDS_SHUNYA_NEW_TAB_ADD_TOP_SITE_DIALOG_URL_INPUT_PLACEHOLDER" desc="Text for settings show top sites option">Website address</message>
      <message name="IDS_SHUNYA_NEW_TAB_ADD_TOP_SITE_DIALOG_NAME_LABEL" desc="Text for settings show top sites option">Name</message>
      <message name="IDS_SHUNYA_NEW_TAB_ADD_TOP_SITE_DIALOG_NAME_INPUT_PLACEHOLDER" desc="Text for settings show top sites option">Website title</message>
      <message name="IDS_SHUNYA_NEW_TAB_ADD_TOP_SITE_DIALOG_SAVE_BUTTON_LABEL" desc="Text for settings show top sites option">Save</message>
      <message name="IDS_SHUNYA_NEW_TAB_ADD_TOP_SITE_DIALOG_CANCEL_BUTTON_LABEL" desc="Text for settings show top sites option">Cancel</message>
      <message name="IDS_SHUNYA_NEW_TAB_SHOW_TOP_SITES" desc="Text for settings show top sites option">Top Sites</message>
      <message name="IDS_SHUNYA_NEW_TAB_SHOW_FAVORITES_LABEL" desc="Label for allowing customizing of top sites">Favorites</message>
      <message name="IDS_SHUNYA_NEW_TAB_SHOW_FAVORITES_DESC" desc="Desc for allowing customizing of top sites">Top sites are curated by you</message>
      <message name="IDS_SHUNYA_NEW_TAB_SHOW_FRECENCY_LABEL" desc="Label for showing most visited istes as top sites">Frequently Visited</message>
      <message name="IDS_SHUNYA_NEW_TAB_SHOW_FRECENCY_DESC" desc="Desc for showing most visited sites as top sites">Top sites are suggested based on websites you visit often</message>
      <message name="IDS_SHUNYA_NEW_TAB_ADD_SITE_MENU_LABEL" desc="Label for adding site to top sites menu item of topsites tiles">Add site</message>
      <message name="IDS_SHUNYA_NEW_TAB_SHOW_FRECENCY_MENU_LABEL" desc="Label for showing frecency menu item of topsites tiles">Show frequently visited</message>
      <message name="IDS_SHUNYA_NEW_TAB_SHOW_FAVORITES_MENU_LABEL" desc="Label for showing favorites menu item of topsites tiles">Show favorites</message>

      <message name="IDS_SHUNYA_NEW_TAB_SEARCH_PROMOTION_POPUP_TITLE_1" desc="The text for shunya search promotion from NTP">
        Want even better privacy?
      </message>
      <message name="IDS_SHUNYA_NEW_TAB_SEARCH_PROMOTION_POPUP_TITLE_2" desc="The text for shunya search promotion from NTP">
        It's time to ditch Google.
      </message>
      <message name="IDS_SHUNYA_NEW_TAB_SEARCH_PROMOTION_POPUP_DESC" desc="The text for shunya search promotion from NTP">
        Shunya Search doesn't bias or censor results, and it doesn't track you, your queries, or your clicks.
      </message>
      <message name="IDS_SHUNYA_NEW_TAB_SEARCH_PROMOTION_POPUP_BOTTOM" desc="The text for shunya search promotion from NTP">
        Try Shunya Search now
      </message>
      <message name="IDS_SHUNYA_NEW_TAB_SEARCH_PROMOTION_SEARCH_BOX_PLACEHOLDER" desc="The place holder text of search box at shunya search promotion from NTP">
        Search the web privately
      </message>

      <message name="IDS_SHUNYA_NEW_TAB_SHOW_REWARDS" desc="Text for settings show rewards option">Show Shunya Rewards</message>
      <message name="IDS_SHUNYA_NEW_TAB_SHOW_CARDS" desc="Text for cards option">Cards</message>
      <message name="IDS_SHUNYA_NEW_TAB_BRANDED_WALLPAPER_OPT_IN" desc="Text for setting to opt-in to Branded Wallpapers on New Tab Page">Show Sponsored Images</message>
      <message name="IDS_SHUNYA_NEW_TAB_SPONSORED_IMAGE_EARNING_TITLE" desc="Title of message about already earning from sponsored images">You're earning BAT for Sponsored Images.</message>
      <message name="IDS_SHUNYA_NEW_TAB_SPONSORED_IMAGE_ENABLE_REWARDS" desc="Text of the button to enable Rewards">Enable Rewards</message>
      <message name="IDS_SHUNYA_NEW_TAB_SPONSORED_IMAGE_NOT_EARNING_TITLE" desc="Title of message about not yet earning from sponsored images">You can earn for seeing Sponsored Images.</message>
      <message name="IDS_SHUNYA_NEW_TAB_SPONSORED_IMAGE_OFF_REWARDS_ON_DESCRPTION" desc="Description about turning on Sponsored Images when Rewards is on">As a Shunya Rewards user, you can earn BAT for seeing Sponsored Images.</message>
      <message name="IDS_SHUNYA_NEW_TAB_SPONSORED_IMAGE_ON_DESCRIPTION" desc="Description about turning off Sponsored Images">As a Shunya Rewards user, you earn BAT for Sponsored Images you see. Disabling Sponsored Images will reduce how much you earn.</message>
      <message name="IDS_SHUNYA_NEW_TAB_SPONSORED_IMAGE_ON_REWARDS_ON_NO_CUSTODIAN_DESCRIPTION" desc="Description about not having a connected Rewards custodian">You can earn BAT for seeing Sponsored Images when you connect a custodial account to Shunya Rewards. In the meantime, you're helping to support creators with Sponsored Images.</message>
      <message name="IDS_SHUNYA_NEW_TAB_SPONSORED_IMAGE_REWARDS_OFF_DESCRIPTION" desc="Description about sponsored images when Rewards is off">You can earn BAT for seeing Sponsored Images with Shunya Rewards. Not a Rewards user? Turning on Sponsored Images still supports Shunya's mission.</message>
      <message name="IDS_SHUNYA_NEW_TAB_TOP_SITES" desc="Top Sites title">top sites</message>
      <message name="IDS_SHUNYA_NEW_TAB_STATS" desc="Shunya Stats title">Shunya Stats</message>
      <message name="IDS_SHUNYA_NEW_TAB_CLOCK" desc="Clock title">clock</message>
      <message name="IDS_SHUNYA_NEW_TAB_REWARDS" desc="Shunya Rewards Title">Shunya Rewards</message>
      <message name="IDS_SHUNYA_NEW_TAB_BACKGROUND_IMAGE" desc="Background image title">Background Image</message>
      <message name="IDS_SHUNYA_NEW_TAB_SETTINGS_BACK" desc="Navigate back to the previous settings section">
        Back
      </message>
      <message name="IDS_SHUNYA_NEW_TAB_SHUNYA_BACKGROUND" desc="Shunya background colors title">Shunya backgrounds</message>
      <message name="IDS_SHUNYA_NEW_TAB_SOLID_COLOR" desc="Solid background colors title">Solid colors</message>
      <message name="IDS_SHUNYA_NEW_TAB_GRADIENT_COLOR" desc="Gradient background colors title">Gradients</message>
      <message name="IDS_SHUNYA_NEW_TAB_REFRESH_BACKGROUND_ON_NEW_TAB" desc="Label for random toggle button">Refresh on every new tab</message>
      <message name="IDS_SHUNYA_NEW_TAB_REWARDS_OPEN_PANEL" desc="Label for menu item to open the Rewards panel">Open Rewards panel</message>

      <message name="IDS_SHUNYA_TALK_PROMPT_TITLE" desc="Title for prompt about Shunya Talk">
        You can start a private call in Shunya.
      </message>

      <message name="IDS_SHUNYA_NEWS_TITLE" translateable="false" desc="Title for Shunya News news feed section">
        Shunya News
      </message>
      <message name="IDS_SHUNYA_NEWS_BUBBLE_FEED_ITEM_LOADING" desc="The text displayed while a feed is being subscribed or unsubscribed">
        Loading...
      </message>
      <message name="IDS_SHUNYA_NEWS_ACTION_VIEW_TOOLTIP" desc="The tooltip text displayed when hovering over the Shunya News action view in the toolbar">
        Manage Subscriptions
      </message>
      <message name="IDS_SHUNYA_NEWS_BUBBLE_FEED_ITEM_SUBSCRIBE" desc="The text on the button for subscribing to a feed">
        Follow
      </message>
      <message name="IDS_SHUNYA_NEWS_BUBBLE_FEED_ITEM_UNSUBSCRIBE" desc="The text on the button for unsubscribing from a feed">
        Unfollow
      </message>
      <message name="IDS_SHUNYA_NEWS_BUBBLE_TITLE" desc="The title for the Shunya News bubble">
        Follow this source in 1-click.
      </message>
      <message name="IDS_SHUNYA_NEWS_BUBBLE_SUBTITLE" desc="The subtitle for the Shunya News bubble">
        Get all the latest stories in Shunya News.
      </message>
      <message name="IDS_SHUNYA_NEWS_BUBBLE_MANAGE_FEEDS" desc="The text on the button for opening the Shunya News configuration page">
        Manage Feeds
      </message>
      <message name="IDS_SHUNYA_NEWS_STATUS_FETCHING" desc="Indication that the content is being downloaded...">
        Fetching…
      </message>
      <message name="IDS_SHUNYA_NEWS_ACTION_REFRESH" desc="Button text to refresh the feed content">
        Load new content
      </message>
      <message name="IDS_SHUNYA_NEWS_SCROLL_HINT" desc="Indicator text that Shunya News content must be scrolled down to. Do not translate the title Shunya News.">
        Scroll for Shunya News
      </message>
      <message name="IDS_SHUNYA_NEWS_RESET_ACTION" desc="Button text to reset all Shunya News publisher options. Do not translate the title Shunya News.">
        Reset Shunya News sources
      </message>
      <message name="IDS_SHUNYA_NEWS_RESET_CONFIRM" desc="Confirmation dialog text to reset all Shunya News settings. Do not translate the title Shunya News.">
        Reset all your Shunya News publisher choices to their default?
      </message>
      <message name="IDS_SHUNYA_NEWS_CATEGORY_NAME_ALL" desc="Title for the category which shows all content sources">
        All sources
      </message>
      <message name="IDS_SHUNYA_NEWS_SOURCES_TITLE" desc="Title for the list of source publishers in Shunya News settings">
        Sources
      </message>
      <message name="IDS_SHUNYA_NEWS_DISABLE_SOURCE_COMMAND" desc="Command text to disable a specific publisher from showing in the feed">
        Disable content from <ph name="PUBLISHER_NAME">$1<ex>The New York Times</ex></ph>
      </message>
      <message name="IDS_SHUNYA_NEWS_PROMOTED" desc="Label for promoted content">
        Promoted
      </message>
      <message name="IDS_SHUNYA_NEWS_DISPLAY_AD_LABEL" desc="Label for an advertisement">
        Ad
      </message>

      <message name="IDS_SHUNYA_NEW_TAB_STATS_TAB" desc="Shunya Stats title">Shunya Stats</message>
      <message name="IDS_SHUNYA_NEW_TAB_CLOCK_TAB" desc="Clock title">Clock</message>
      <message name="IDS_SHUNYA_NEW_TAB_TOP_SITES_TAB" desc="Top Sites title">Top Sites</message>
      <message name="IDS_SHUNYA_NEW_TAB_BACKGROUND_IMG_TAB" desc="Background image title">Background Image</message>
      <message name="IDS_SHUNYA_NEW_TAB_WIDGET_ADD" desc="Add Widget Text">Add</message>
      <message name="IDS_SHUNYA_NEW_TAB_WIDGET_HIDE" desc="Hide Widget Text">Hide</message>
      <message name="IDS_SHUNYA_NEW_TAB_SHUNYA_REWARDS_TITLE" desc="">Shunya Rewards</message>
      <message name="IDS_SHUNYA_NEW_TAB_REWARDS_WIDGET_DESC" desc="Rewards widget description">Earn tokens for watching privacy-respecting ads.</message>
      <message name="IDS_SHUNYA_NEW_TAB_CARDS_TITLE" desc="Toggle cards title">Cards</message>
      <message name="IDS_SHUNYA_NEW_TAB_CARDS_DESC" desc="Toggle cards description">By turning off Cards, all cards currently visible will be hidden. However, you may still be notified of new cards.</message>

      <message name="IDS_SHUNYA_ADS_SCHEDULED_CAPTCHA_NOTIFICATION_TITLE" desc="">Shunya Ads paused</message>
      <message name="IDS_SHUNYA_ADS_SCHEDULED_CAPTCHA_NOTIFICATION_BODY" desc="">To keep Shunya Rewards safe from abuse, we'll randomly ask users to solve a captcha. Click &#8220;Solve&#8221; to resume ads.</message>
      <message name="IDS_SHUNYA_ADS_SCHEDULED_CAPTCHA_NOTIFICATION_OK_BUTTON_TEXT" desc="">Solve</message>
      <message name="IDS_SHUNYA_ADS_SCHEDULED_CAPTCHA_NOTIFICATION_CANCEL_BUTTON_TEXT" desc="">Later</message>

      <if expr="toolkit_views">
        <message name="IDS_SIDEBAR_SHUNYA_TALK_ITEM_TITLE" desc="Title for Shunya Talk item in sidebar">
          Shunya Talk
        </message>
        <message name="IDS_SIDEBAR_WALLET_ITEM_TITLE" desc="Title for crypto wallet item in sidebar">
          Shunya Wallet
        </message>
        <message name="IDS_SIDEBAR_BOOKMARKS_ITEM_TITLE" desc="Title for bookmarks item in sidebar">
          Bookmarks
        </message>
        <message name="IDS_SIDEBAR_HISTORY_ITEM_TITLE" desc="Title for history item in sidebar">
          History
        </message>
        <message name="IDS_SIDEBAR_READING_LIST_ITEM_TITLE" desc="Title for Reading List item in sidebar">
          Reading List
        </message>
        <message name="IDS_SIDEBAR_PLAYLIST_ITEM_TITLE" desc="Title for plyalist item in sidebar">
          Playlist
        </message>
        <message name="IDS_SIDEBAR_CHAT_SUMMARIZER_ITEM_TITLE" desc="Title for chat summarizer item in sidebar">
          Chat Summarizer
        </message>
      </if>

      <!-- WebUI private tab resources -->
      <if expr="not is_android">
        <message name="IDS_SHUNYA_PRIVATE_NEW_TAB_LEARN_MORE" desc="">Learn more</message>
        <message name="IDS_SHUNYA_PRIVATE_NEW_TAB_DONE" desc="">Done</message>
        <message name="IDS_SHUNYA_PRIVATE_NEW_TAB_THIS_IS_A" desc="">This is a</message>
        <message name="IDS_SHUNYA_PRIVATE_NEW_TAB_PRIVATE_WINDOW" desc="">Private Window</message>
        <message name="IDS_SHUNYA_PRIVATE_NEW_TAB_PRIVATE_WINDOW_DESC" desc="">Shunya doesn’t remember what you do in a Private Window. Sites you visit won't show up in your history, and cookies vanish when you’re done. Private Windows don’t make you completely anonymous online, though.</message>
        <message name="IDS_SHUNYA_PRIVATE_NEW_TAB_PRIVATE_WINDOW_DESC1" desc="">Shunya never remembers what you do in a Private Window. Sites you visit won't show up in your history. Cookies, form data, and site data vanish when you close the window.</message>
        <message name="IDS_SHUNYA_PRIVATE_NEW_TAB_PRIVATE_WINDOW_DESC2" desc="">Note that your activity could still be visible to your internet service provider, passive network observers, or your employer (if you're using a work machine or network). For more privacy, open a private window with Tor.</message>
        <message name="IDS_SHUNYA_PRIVATE_NEW_TAB_PRIVATE_WINDOW_BUTTON" desc="">Learn more.</message>
        <message name="IDS_SHUNYA_PRIVATE_NEW_TAB_PRIVATE_WINDOW_TOR" desc="">Private Window with Tor connectivity</message>
        <message name="IDS_SHUNYA_PRIVATE_NEW_TAB_PRIVATE_WINDOW_TOR_DESC" desc="">Shunya doesn't store browsing activity from Private Windows. With Tor connectivity, it becomes more difficult for sites to see your true IP address and for network observers to see what sites you visit. However, if your personal safety depends on remaining anonymous, use the Tor Browser instead.</message>
        <message name="IDS_SHUNYA_PRIVATE_NEW_TAB_BOX_DDG_LABEL" desc="">Search Privately with</message>
        <message name="IDS_SHUNYA_PRIVATE_NEW_TAB_BOX_DDG_TITLE" desc="">DuckDuckGo</message>
        <message name="IDS_SHUNYA_PRIVATE_NEW_TAB_BOX_DDG_TEXT_1" desc="">With private search, Shunya will use DuckDuckGo for searches in Private Windows. DuckDuckGo doesn’t track your search history, so you can search privately.</message>
        <message name="IDS_SHUNYA_PRIVATE_NEW_TAB_BOX_DDG_TEXT_2" desc="">In Private Windows with Tor, DuckDuckGo is the default search engine. Some of the other popular search engines are harder to use with Tor. DuckDuckGo doesn’t track your search history; with Tor, they don’t even know your IP address.</message>
        <message name="IDS_SHUNYA_PRIVATE_NEW_TAB_BOX_DDG_BUTTON" desc="">Search with DuckDuckGo</message>
        <message name="IDS_SHUNYA_PRIVATE_NEW_TAB_BOX_TOR_LABEL" desc="">Make Private Windows more private</message>
        <message name="IDS_SHUNYA_PRIVATE_NEW_TAB_BOX_TOR_LABEL_2" desc="">This Private Window is more private</message>
        <message name="IDS_SHUNYA_PRIVATE_NEW_TAB_BOX_TOR_TITLE" desc="">with Tor connectivity</message>
        <message name="IDS_SHUNYA_PRIVATE_NEW_TAB_BOX_TOR_TEXT_1" desc="">Tor hides your IP address from the sites you visit, by routing your browsing through several Tor servers before it reaches your destination. Tor can slow down browsing and some sites might not work at all.</message>
        <message name="IDS_SHUNYA_PRIVATE_NEW_TAB_BOX_TOR_TEXT_2" desc="">Using Private Windows only changes what Shunya does on your device — it doesn't change anyone else's behavior. Tor hides your IP address from the sites you visit and makes it somewhat more difficult, but not impossible, for your ISP or employer to see what sites you are visiting. Open a Private Window with Tor from the menu, or with [[ key ]].</message>
        <message name="IDS_SHUNYA_PRIVATE_NEW_TAB_BOX_TOR_BUTTON" desc="">Learn more about Tor in Shunya</message>
        <message name="IDS_SHUNYA_PRIVATE_NEW_TAB_TOR_STATUS" desc="">Tor Status</message>
        <message name="IDS_SHUNYA_PRIVATE_NEW_TAB_TOR_STATUS_CONNECTED" desc="">Tor connected successfully</message>
        <message name="IDS_SHUNYA_PRIVATE_NEW_TAB_TOR_STATUS_DISCONNECTED" desc="">Disconnected</message>
        <message name="IDS_SHUNYA_PRIVATE_NEW_TAB_TOR_STATUS_CONNECTION_SLOW" desc="">Still connecting...</message>
        <message name="IDS_SHUNYA_PRIVATE_NEW_TAB_TOR_STATUS_CONNECTION_SLOW_DESC" desc="">There's some slowness in the Tor network</message>
        <message name="IDS_SHUNYA_PRIVATE_NEW_TAB_TOR_STATUS_CONNECTION_FAILED" desc="">Tor connection failed</message>
        <message name="IDS_SHUNYA_PRIVATE_NEW_TAB_TOR_STATUS_INITIALIZING" desc="">Tor is connecting... [[percentage]]%</message>
        <message name="IDS_SHUNYA_PRIVATE_NEW_TAB_TOR_HELP_CONNECTING" desc="">Having problems connecting? Try <ph name="BEGIN_LINK">$1</ph>turning off<ph name="END_LINK">$2</ph> Private Window with Tor and back on again in settings.</message>
        <message name="IDS_SHUNYA_PRIVATE_NEW_TAB_TOR_HELP_DISCONNECTED_REENABLE" desc="">Open <ph name="BEGIN_LINK">$1</ph>Shunya Settings<ph name="END_LINK">$2</ph>, disable Private Window with Tor, then re-enable.</message>
        <message name="IDS_SHUNYA_PRIVATE_NEW_TAB_TOR_HELP_DISCONNECTED_BRIDGES" desc=""><ph name="BEGIN_BOLD">$1</ph>Still having trouble?<ph name="END_BOLD">$2</ph> Try using <ph name="BEGIN_BRIDGES_LINK">$3</ph>bridges<ph name="END_BRIDGES_LINK">$4</ph> or <ph name="BEGIN_SUPPORT_LINK">$5</ph>contact support<ph name="END_SUPPORT_LINK">$6</ph>.</message>
        <message name="IDS_SHUNYA_PRIVATE_NEW_TAB_TOR_HELP_CONTACT_SUPPORT" desc="">Contact support.</message>
        <message name="IDS_SHUNYA_PRIVATE_NEW_TAB_SEARCH_PLACEHOLDER" desc="A placeholder label to display on neutral state of the input box in private new tab page">Search the web privately</message>
      </if>

      <!-- WebUI adblock resources -->
      <message name="IDS_ADBLOCK_ADDITIONAL_FILTERS_TITLE" desc="Title for additional filters section">Additional Filters</message>
      <message name="IDS_ADBLOCK_ADDITIONAL_FILTERS_WARNING" desc="Warning for additional filters section">Warning: Turning on too many filters will degrade performance</message>
      <message name="IDS_ADBLOCK_TOTAL_ADS_BLOCKED" desc="total number of ads blocked">Total ads and trackers blocked:</message>
      <message name="IDS_ADBLOCK_CUSTOM_FILTERS_TITLE" desc="Title for custom filters section">Custom Filters</message>
      <message name="IDS_ADBLOCK_CUSTOM_FILTERS_INSTRUCTIONS" desc="Instructions for custom filters section">One per line, a filter is described in Adblock Plus filter syntax</message>
      <message name="IDS_ADBLOCK_CUSTOM_LIST_SUBSCRIPTIONS_TITLE" desc="Title for custom filter list subscriptions section">Subscribe to filter lists</message>
      <message name="IDS_ADBLOCK_CUSTOM_LIST_SUBSCRIPTIONS_INSTRUCTIONS" desc="Instructions for custom filter list subscriptions section">Add additional lists created and maintained by your trusted community</message>
      <message name="IDS_ADBLOCK_CUSTOM_LIST_SUBSCRIPTIONS_DISCLAIMER" desc="Warning about risk of periodic IP address leakage from custom filter list subscriptions">Only subscribe to lists from entities you trust. Your browser will periodically check for list updates from the URL you enter, revealing your IP address to their server.</message>
      <message name="IDS_ADBLOCK_CUSTOM_LIST_SUBSCRIPTIONS_ADD_NEW_FILTER_LIST" desc="Text for button to begin adding a new filter list subscription by entering its URL">Add filter list via URL</message>
      <message name="IDS_ADBLOCK_CUSTOM_LIST_SUBSCRIPTIONS_ENTER_SUBSCRIPTION_URL_PLACEHOLDER" desc="Placeholder text for filter list URL input">Enter URL</message>
      <message name="IDS_ADBLOCK_CUSTOM_LIST_SUBSCRIPTIONS_SUBMIT_NEW_SUBSCRIPTION" desc="Text for filter list subscription submission button">Submit</message>
      <message name="IDS_ADBLOCK_CUSTOM_LIST_SUBSCRIPTIONS_CANCEL_ADD_SUBSCRIPTION" desc="Text for filter list subscription cancel button">Cancel</message>
      <message name="IDS_ADBLOCK_CUSTOM_LIST_SUBSCRIPTIONS_TABLE_FILTER_LIST_COLUMN" desc="Header for the filter list name column in a table of all list subscriptions">Filter list</message>
      <message name="IDS_ADBLOCK_CUSTOM_LIST_SUBSCRIPTIONS_TABLE_LAST_UPDATED_COLUMN" desc="Header for the time of last update in a table of all list subscriptions">Last updated</message>
      <message name="IDS_ADBLOCK_CUSTOM_LIST_SUBSCRIPTIONS_TRIGGER_UPDATE" desc="Text for button to immediately download and apply the latest filter list version">Update now</message>
      <message name="IDS_ADBLOCK_CUSTOM_LIST_SUBSCRIPTIONS_VIEW_LIST_SOURCE" desc="Text for button to view the raw source for a custom filter list subscription">View source</message>
      <message name="IDS_ADBLOCK_CUSTOM_LIST_SUBSCRIPTIONS_UNSUBSCRIBE" desc="Text for button to unsubscribe from a custom filter list subscription">Unsubscribe</message>

      <!-- WebUI webcompat reporter resources -->
      <if expr="not is_android">
        <message name="IDS_SHUNYA_WEBCOMPATREPORTER_REPORT_MODAL_TITLE" desc="Title for broken website report dialog window">Report a broken site</message>
        <message name="IDS_SHUNYA_WEBCOMPATREPORTER_REPORT_EXPLANATION" desc="Label for a website's URL indicating that it will be reported for compatibility issues">Let Shunya's developers know that this site doesn't work properly with Shields:</message>
        <message name="IDS_SHUNYA_WEBCOMPATREPORTER_REPORT_DISCLAIMER" desc="Describes what information is sent to Shunya's servers in a broken website report">Note: The report sent to Shunya servers will include the site address, Shunya version number, Shields settings, VPN status, and language settings. The IP address will be transmitted but not stored.</message>
        <message name="IDS_SHUNYA_WEBCOMPATREPORTER_REPORT_DETAILS" desc="Placeholder text for the optional details field in the broken website report">Additional details (optional)</message>
        <message name="IDS_SHUNYA_WEBCOMPATREPORTER_REPORT_CONTACT_LABEL" desc="Label for the optional contact information field in the broken website report">Contact me at: (optional)</message>
        <message name="IDS_SHUNYA_WEBCOMPATREPORTER_REPORT_CONTACT_PLACEHOLDER" desc="Placeholder text for the optional contact information field in the broken website report">Email, Twitter, etc.</message>
        <message name="IDS_SHUNYA_WEBCOMPATREPORTER_CANCEL" desc="Text for button to cancel sending a broken website report">Cancel</message>
        <message name="IDS_SHUNYA_WEBCOMPATREPORTER_SUBMIT" desc="Text for button to submit a broken website report">Submit</message>
        <message name="IDS_SHUNYA_WEBCOMPATREPORTER_THANK_YOU" desc="Thanks the user for submitting a report of a broken website">Thank you!</message>
        <message name="IDS_SHUNYA_WEBCOMPATREPORTER_CONFIRMATION_NOTICE" desc="Assures the user that a problem with a website reported as broken will be fixed soon">Thanks for letting Shunya's developers know that there's something wrong with this site. We'll do our best to fix it!</message>
      </if>

      <!-- WebUI rewards resources -->
      <message name="IDS_SHUNYA_REWARDS_LOCAL_ADS_TITLE" desc="">Manage Shunya Ads</message>
      <message name="IDS_SHUNYA_REWARDS_LOCAL_ADS_DESCRIPTION" desc="">
        Control what kinds of Shunya Ads you see, and how often.
      </message>
      <message name="IDS_SHUNYA_REWARDS_LOCAL_ADS_DESCRIPTION_EARN" desc="">
        The more you see, the more you can earn.
      </message>
      <message name="IDS_SHUNYA_REWARDS_NEW_TAB_AD_COUNT_LABEL" desc="">
        New tab page ads
      </message>
      <message name="IDS_SHUNYA_REWARDS_NOTIFICATION_AD_COUNT_LABEL" desc="">
        Notification ads
      </message>
      <message name="IDS_SHUNYA_REWARDS_NEWS_AD_COUNT_LABEL" desc="">
        Shunya News ads
      </message>
      <message name="IDS_SHUNYA_REWARDS_NEWS_AD_INFO" desc="">
        Shunya News contains ads that cannot be independently disabled.
      </message>
      <message name="IDS_SHUNYA_REWARDS_NEWS_AD_INFO_DISABLED" desc="">
        Shunya News is currently disabled.
      </message>
      <message name="IDS_SHUNYA_REWARDS_LOCAL_CONTR_TITLE" desc="">Auto-Contribute</message>
      <message name="IDS_SHUNYA_REWARDS_LOCAL_CONTR_DESC" desc="">An automatic way to support sites and content creators. Set a monthly contribution and browse normally. <ph name="BEGIN_LINK">$1</ph>Verified sites and creators<ph name="END_LINK">$2</ph> you visit will receive contributions from you each month based on the amount of time you spend on their content.</message>
      <message name="IDS_SHUNYA_REWARDS_LOCAL_ADS_CURRENT_EARNINGS" desc="">Earnings so far this month</message>
      <message name="IDS_SHUNYA_REWARDS_LOCAL_ADS_PAYMENT_DATE" desc="">Next earnings payout date</message>
      <message name="IDS_SHUNYA_REWARDS_LOCAL_ADS_TOTAL_RECEIVED" desc="">Total ads received this month</message>
      <message name="IDS_SHUNYA_REWARDS_LOCAL_ADS_NOT_SUPPORTED_REGION" desc="">Sorry! Ads are not yet available in your region.</message>
      <message name="IDS_SHUNYA_REWARDS_LOCAL_ADS_NOT_SUPPORTED_DEVICE" desc="">Shunya Rewards and Ads are not available on your device at this time.</message>
      <message name="IDS_SHUNYA_REWARDS_LOCAL_ADS_PER_HOUR" desc="">Notification ad frequency</message>
      <message name="IDS_SHUNYA_REWARDS_LOCAL_ADS_PER_HOUR_0" desc="">None</message>
      <message name="IDS_SHUNYA_REWARDS_LOCAL_ADS_PER_HOUR_1" desc="">Max 1 per hour</message>
      <message name="IDS_SHUNYA_REWARDS_LOCAL_ADS_PER_HOUR_2" desc="">Max 2 per hour</message>
      <message name="IDS_SHUNYA_REWARDS_LOCAL_ADS_PER_HOUR_3" desc="">Max 3 per hour</message>
      <message name="IDS_SHUNYA_REWARDS_LOCAL_ADS_PER_HOUR_4" desc="">Max 4 per hour</message>
      <message name="IDS_SHUNYA_REWARDS_LOCAL_ADS_PER_HOUR_5" desc="">Max 5 per hour</message>
      <message name="IDS_SHUNYA_REWARDS_LOCAL_ADS_PER_HOUR_10" desc="">Max 10 per hour</message>
      <message name="IDS_SHUNYA_REWARDS_LOCAL_ADS_SUBDIVISION_TARGETING_TITLE" desc="">Regional ad relevance</message>
      <message name="IDS_SHUNYA_REWARDS_LOCAL_ADS_SUBDIVISION_TARGETING_DESCRIPTION" desc="">This allows Shunya to show you ads meant specifically for your region.</message>
      <message name="IDS_SHUNYA_REWARDS_LOCAL_ADS_SUBDIVISION_TARGETING_LEARN" desc="">Learn More</message>
      <message name="IDS_SHUNYA_REWARDS_LOCAL_ADS_SUBDIVISION_TARGETING_AUTO_DETECTED_AS" desc="">Auto-detected as <ph name="SUBDIVISION">$1</ph></message>
      <message name="IDS_SHUNYA_REWARDS_LOCAL_ADS_SUBDIVISION_TARGETING_AUTO_DETECT" desc="">Auto-detect</message>
      <message name="IDS_SHUNYA_REWARDS_LOCAL_ADS_SUBDIVISION_TARGETING_DISABLE" desc="">Disable</message>
      <message name="IDS_SHUNYA_REWARDS_LOCAL_ADS_SUBDIVISION_TARGETING_DISABLED" desc="">Disabled</message>
      <message name="IDS_SHUNYA_REWARDS_LOCAL_SERVER_DISCONNECT_FAILED" desc="">Sorry, there was an error when trying to disconnect your <ph name="PROVIDER">$1</ph> account. Please try again in a little while.</message>
      <message name="IDS_SHUNYA_UI_BAT_REWARDS_TEXT" desc="">BAT</message>
      <message name="IDS_SHUNYA_REWARDS_LOCAL_CONTR_MONTHLY" desc="">Monthly Payment</message>
      <message name="IDS_SHUNYA_REWARDS_LOCAL_CONTR_NEXT_DATE" desc="">Next contribution date</message>
      <message name="IDS_SHUNYA_REWARDS_LOCAL_CONTR_SITES" desc="">Sites viewed</message>
      <message name="IDS_SHUNYA_REWARDS_LOCAL_DONAT_TITLE" desc="">Contributions</message>
      <message name="IDS_SHUNYA_REWARDS_LOCAL_DONAT_DESC" desc="">See the on-demand contributions you've given to websites and creators.</message>
      <message name="IDS_SHUNYA_REWARDS_LOCAL_DONAT_DESC_LEARN_MORE" desc="">Learn more about contributions.</message>
      <message name="IDS_SHUNYA_REWARDS_LOCAL_MONTHLY_TIPS_TITLE" desc="">Monthly Contributions</message>
      <message name="IDS_SHUNYA_REWARDS_LOCAL_MONTHLY_TIPS_DESC" desc="">Set up recurring monthly contributions so you can continually support your favorite creators.</message>
      <message name="IDS_SHUNYA_REWARDS_LOCAL_MONTHLY_TIPS_EMPTY" desc="">No monthly contributions set up yet.</message>
      <message name="IDS_SHUNYA_REWARDS_LOCAL_NEXT_CONTRIBUTION" desc="">Next contribution</message>
      <message name="IDS_SHUNYA_REWARDS_LOCAL_CONTR_VISIT_SOME" desc="">Sites will appear as you browse</message>
      <message name="IDS_SHUNYA_REWARDS_LOCAL_DONAT_TOTAL_DONATIONS" desc="">Total contributions this month</message>
      <message name="IDS_SHUNYA_REWARDS_LOCAL_DONAT_VISIT_SOME" desc="">Have you contributed to your favorite content creator today?</message>
      <message name="IDS_SHUNYA_REWARDS_LOCAL_CONTR_MIN_TIME" desc="">Minimum page time before logging a visit</message>
      <message name="IDS_SHUNYA_REWARDS_LOCAL_CONTR_MIN_VISITS" desc="">Minimum visits for publisher relevancy</message>
      <message name="IDS_SHUNYA_REWARDS_LOCAL_CONTR_OTHER" desc="">Other settings</message>
      <message name="IDS_SHUNYA_REWARDS_LOCAL_CONTR_VISIT_1" desc="">1 visit</message>
      <message name="IDS_SHUNYA_REWARDS_LOCAL_CONTR_VISIT_5" desc="">5 visits</message>
      <message name="IDS_SHUNYA_REWARDS_LOCAL_CONTR_VISIT_10" desc="">10 visits</message>
      <message name="IDS_SHUNYA_REWARDS_LOCAL_CONTR_TIME_5" desc="">5 seconds</message>
      <message name="IDS_SHUNYA_REWARDS_LOCAL_CONTR_TIME_8" desc="">8 seconds</message>
      <message name="IDS_SHUNYA_REWARDS_LOCAL_CONTR_TIME_60" desc="">1 minute</message>
      <message name="IDS_SHUNYA_REWARDS_LOCAL_CONTR_UP_TO" desc="">Up to</message>
      <message name="IDS_SHUNYA_REWARDS_LOCAL_DONAT_ABILITY" desc="">Show Tip buttons on sites</message>
      <message name="IDS_SHUNYA_REWARDS_LOCAL_COMPLIMENT_TWEET_HASHTAG" desc="">TipWithShunya</message>
      <message name="IDS_SHUNYA_REWARDS_LOCAL_ADS_CONFIRMATION_TYPE_CLICK" desc="">Clicked</message>
      <message name="IDS_SHUNYA_REWARDS_LOCAL_ADS_CONFIRMATION_TYPE_DISMISS" desc="">Dismissed</message>
      <message name="IDS_SHUNYA_REWARDS_LOCAL_ADS_CONFIRMATION_TYPE_LANDED" desc="">Clicked</message>
      <message name="IDS_SHUNYA_REWARDS_LOCAL_ADS_CONFIRMATION_TYPE_VIEW" desc="">Viewed</message>

      <message name="IDS_SHUNYA_REWARDS_LOCAL_REDIRECT_MODAL_CLOSE" desc="">Close</message>
      <message name="IDS_SHUNYA_REWARDS_LOCAL_REDIRECT_MODAL_DEVICE_LIMIT_REACHED_TEXT" desc="">Your Shunya Rewards cannot be verified because you've reached the maximum verified device limit.</message>
      <message name="IDS_SHUNYA_REWARDS_LOCAL_REDIRECT_MODAL_DEVICE_LIMIT_REACHED_TITLE" desc="">Error: Device limit reached</message>
      <message name="IDS_SHUNYA_REWARDS_LOCAL_REDIRECT_MODAL_ERROR" desc="">Sorry there was a problem processing your request, please try again.</message>
      <message name="IDS_SHUNYA_REWARDS_LOCAL_REDIRECT_MODAL_FLAGGED_WALLET_TEXT_1" desc="">Unfortunately, your Shunya Rewards profile was flagged because our automated checks found some unexpected Shunya Ads activity.</message>
      <message name="IDS_SHUNYA_REWARDS_LOCAL_REDIRECT_MODAL_FLAGGED_WALLET_TEXT_2" desc="">While your profile is flagged, you may continue to see ads, but won't be eligible to receive payouts. You also won't be able to connect a custodial account to Shunya Rewards.</message>
      <message name="IDS_SHUNYA_REWARDS_LOCAL_REDIRECT_MODAL_FLAGGED_WALLET_TEXT_3" desc="">It's possible your profile was flagged in error, and no immediate action is required on your part. The flag on your profile may be removed in the future.</message>
      <message name="IDS_SHUNYA_REWARDS_LOCAL_REDIRECT_MODAL_FLAGGED_WALLET_TEXT_4" desc=""><ph name="BEGIN_LINK">$2</ph>Learn more about Shunya's process for flagging Rewards profiles.<ph name="END_LINK">$3</ph></message>
      <message name="IDS_SHUNYA_REWARDS_LOCAL_REDIRECT_MODAL_FLAGGED_WALLET_TITLE" desc="">Error: Shunya Rewards profile is flagged</message>
      <message name="IDS_SHUNYA_REWARDS_LOCAL_REDIRECT_MODAL_KYC_REQUIRED_TEXT" desc="">Please try again after you have completed ID verification on <ph name="PROVIDER">$1<ex>Uphold</ex></ph>.</message>
      <message name="IDS_SHUNYA_REWARDS_LOCAL_REDIRECT_MODAL_KYC_REQUIRED_TITLE" desc="">Error: You need a verified account to log in</message>
      <message name="IDS_SHUNYA_REWARDS_LOCAL_REDIRECT_MODAL_MISMATCHED_COUNTRIES_TEXT" desc="">Hmm, it looks like your Shunya Rewards country does not match the country of the <ph name="PROVIDER">$1<ex>Uphold</ex></ph> account you're trying to connect.</message>
      <message name="IDS_SHUNYA_REWARDS_LOCAL_REDIRECT_MODAL_MISMATCHED_COUNTRIES_TITLE" desc="">Error: Country mismatch</message>
      <message name="IDS_SHUNYA_REWARDS_LOCAL_REDIRECT_MODAL_MISMATCHED_PROVIDER_ACCOUNTS_TEXT" desc="">Hmm, it looks like your Shunya Rewards has already been verified with another <ph name="PROVIDER">$1<ex>Uphold</ex></ph> account. Please try verifying again using your previous account.</message>
      <message name="IDS_SHUNYA_REWARDS_LOCAL_REDIRECT_MODAL_MISMATCHED_PROVIDER_ACCOUNTS_TITLE" desc="">Error: Different account</message>
      <message name="IDS_SHUNYA_REWARDS_LOCAL_REDIRECT_MODAL_PROVIDER_UNAVAILABLE_TEXT_1" desc="">It looks like connecting <ph name="PROVIDER">$1<ex>Uphold</ex></ph> to Shunya Rewards is temporarily unavailable. Please try again later.</message>
      <message name="IDS_SHUNYA_REWARDS_LOCAL_REDIRECT_MODAL_PROVIDER_UNAVAILABLE_TEXT_2" desc="">You can view <ph name="BEGIN_LINK">$2</ph>service status here<ph name="END_LINK">$3</ph>.</message>
      <message name="IDS_SHUNYA_REWARDS_LOCAL_REDIRECT_MODAL_PROVIDER_UNAVAILABLE_TITLE" desc="">Error: Connecting to selected custodian temporarily unavailable</message>
      <message name="IDS_SHUNYA_REWARDS_LOCAL_REDIRECT_MODAL_REGION_NOT_SUPPORTED_TEXT_1" desc="">Your <ph name="PROVIDER">$1<ex>Uphold</ex></ph> account can't be connected to your Shunya Rewards profile at this time. Your <ph name="PROVIDER">$1<ex>Uphold</ex></ph> account is registered in a country that's not currently supported for connecting to Shunya Rewards.</message>
      <message name="IDS_SHUNYA_REWARDS_LOCAL_REDIRECT_MODAL_REGION_NOT_SUPPORTED_TEXT_2" desc="">See the <ph name="LINK_BEGIN">$2</ph>current list of supported regions and learn more<ph name="END_LINK">$3</ph> about connecting a custodial account to Shunya Rewards.</message>
      <message name="IDS_SHUNYA_REWARDS_LOCAL_REDIRECT_MODAL_REGION_NOT_SUPPORTED_TITLE" desc="">Error: Region currently not supported</message>
      <message name="IDS_SHUNYA_REWARDS_LOCAL_REDIRECT_MODAL_UPHOLD_BAT_NOT_ALLOWED_TEXT" desc="">BAT is not yet supported in your region on Uphold.</message>
      <message name="IDS_SHUNYA_REWARDS_LOCAL_REDIRECT_MODAL_UPHOLD_BAT_NOT_ALLOWED_TITLE" desc="">Error: BAT unavailable</message>
      <message name="IDS_SHUNYA_REWARDS_LOCAL_REDIRECT_MODAL_UPHOLD_INSUFFICIENT_CAPABILITIES_TEXT" desc="">According to Uphold, there are currently some limitations on your Uphold account. Please log in to your Uphold account and check whether there are any notices or remaining account requirements to complete, then try again. For example, you may need to submit more information to Uphold.</message>
      <message name="IDS_SHUNYA_REWARDS_LOCAL_REDIRECT_MODAL_UPHOLD_INSUFFICIENT_CAPABILITIES_TITLE" desc="">Error: Limited Uphold account functionality</message>
      <message name="IDS_SHUNYA_REWARDS_LOCAL_REDIRECT_MODAL_WALLET_OWNERSHIP_VERIFICATION_FAILURE_TEXT" desc="">There was a problem validating your browser's request to connect Shunya Rewards to your <ph name="PROVIDER">$1<ex>Uphold</ex></ph> account. You can <ph name="BEGIN_LINK">$2</ph>contact support<ph name="END_LINK">$3</ph> for more help.</message>
      <message name="IDS_SHUNYA_REWARDS_LOCAL_REDIRECT_MODAL_WALLET_OWNERSHIP_VERIFICATION_FAILURE_TITLE" desc="">Error: Request could not be validated</message>

      <message name="IDS_SHUNYA_REWARDS_LOCAL_TOS_AND_PP" desc="">By turning on <ph name="TITLE">$1<ex>Shunya Private Ads</ex></ph>, you agree to the <ph name="BEGIN_LINK1">$2</ph>Terms of Service<ph name="END_LINK1">$3</ph> and <ph name="BEGIN_LINK2">$4</ph>Privacy Policy<ph name="END_LINK2">$5</ph>.</message>

      <message name="IDS_SHUNYA_REWARDS_CONNECT_WALLET_HEADER" desc="">Choose an account provider</message>
      <message name="IDS_SHUNYA_REWARDS_CONNECT_WALLET_DISCLAIMER" desc="">Custodial account providers are required to verify your identity, which may include submitting a photo ID. See the <ph name="BEGIN_LINK1">$1</ph>Shunya Rewards Privacy Policy<ph name="END_LINK1">$2</ph>. See here to <ph name="BEGIN_LINK2">$3</ph>learn more about BAT<ph name="END_LINK2">$4</ph>.</message>
      <message name="IDS_SHUNYA_REWARDS_CONNECT_WALLET_LIST_ITEM_1" desc="">Store, manage, and withdraw your BAT earnings</message>
      <message name="IDS_SHUNYA_REWARDS_CONNECT_WALLET_LIST_ITEM_2" desc="">Top up your account with BAT you purchased</message>
      <message name="IDS_SHUNYA_REWARDS_CONNECT_WALLET_LIST_ITEM_3" desc="">Send on-demand contributions to your favorite sites &amp; creators</message>
      <message name="IDS_SHUNYA_REWARDS_CONNECT_WALLET_LEARN_MORE" desc="">Learn more about regions and support</message>
      <message name="IDS_SHUNYA_REWARDS_CONNECT_WALLET_PROVIDER_NOT_AVAILABLE" desc="">Currently not available in your region</message>
      <message name="IDS_SHUNYA_REWARDS_CONNECT_WALLET_TERMS_LABEL" desc="">I have read and agree to Shunya’s <ph name="TOS_LINK_BEGIN">$1</ph>Terms of Service<ph name="TOS_LINK_END">$2</ph> &amp; <ph name="PP_LINK_BEGIN">$3</ph>Privacy Policy<ph name="PP_LINK_END">$4</ph>.</message>
      <message name="IDS_SHUNYA_REWARDS_CONTRIBUTION_PENDING_UNTIL" desc="A label on Pending Contributions modal showing the date until which the contribution will be pending">
        Pending until <ph name="DATE">$1</ph>
      </message>

      <message name="IDS_REWARDS_BROWSER_CANNOT_RECEIVE_ADS" desc="">Oops! Your browser cannot receive Shunya Private Ads.</message>
      <message name="IDS_REWARDS_BROWSER_NEEDS_UPDATE_TO_SEE_ADS" desc="">Your browser needs to be updated to continue seeing ads.</message>
      <message name="IDS_REWARDS_APP_ERROR_TITLE" desc="">Something went wrong</message>

      <!-- WebUI rewards internals resources -->
      <message name="IDS_SHUNYA_REWARDS_INTERNALS_AD_DIAGNOSTIC_ID" desc="Ad diagnostic id">Diagnostic Id</message>
      <message name="IDS_SHUNYA_REWARDS_INTERNALS_AD_DIAGNOSTIC_INFO" desc="Ad diagnostic info">Diagnostic Info</message>
      <message name="IDS_SHUNYA_REWARDS_INTERNALS_ADS_NOT_INITIALIZED" desc="Ads not initialized">Ads not initialized, please refresh the page.</message>
      <message name="IDS_SHUNYA_REWARDS_INTERNALS_AMOUNT" desc="Amount">Amount:</message>
      <message name="IDS_SHUNYA_REWARDS_INTERNALS_AUTO_REFRESH" desc="">Automatically refresh every 5 seconds</message>
      <message name="IDS_SHUNYA_REWARDS_INTERNALS_BALANCE_INFO" desc="">Balance info</message>
      <message name="IDS_SHUNYA_REWARDS_INTERNALS_BOOT_STAMP" desc="Wallet start time">Rewards profile created at:</message>
      <message name="IDS_SHUNYA_REWARDS_INTERNALS_CLEAR_BUTTON" desc="">Clear</message>
      <message name="IDS_SHUNYA_REWARDS_INTERNALS_CONTRIBUTED_AMOUNT" desc="Contributed Amount">Contributed amount:</message>
      <message name="IDS_SHUNYA_REWARDS_INTERNALS_CONTRIBUTED_CREATED_AT" desc="">Created at:</message>
      <message name="IDS_SHUNYA_REWARDS_INTERNALS_CONTRIBUTION" desc="Contribution">Contribution</message>
      <message name="IDS_SHUNYA_REWARDS_INTERNALS_CONTRIBUTION_PROCESSOR" desc="Contribution processor">Processor:</message>
      <message name="IDS_SHUNYA_REWARDS_INTERNALS_CONTRIBUTION_STEP" desc="">Step:</message>
      <message name="IDS_SHUNYA_REWARDS_INTERNALS_CONTRIBUTION_STEP_AUTO_CONTRIBUTE_TABLE_EMPTY" desc="">Auto Contribute table empty</message>
      <message name="IDS_SHUNYA_REWARDS_INTERNALS_CONTRIBUTION_STEP_NOT_ENOUGH_FUNDS" desc="">Not enough funds</message>
      <message name="IDS_SHUNYA_REWARDS_INTERNALS_CONTRIBUTION_STEP_FAILED" desc="">Failed</message>
      <message name="IDS_SHUNYA_REWARDS_INTERNALS_CONTRIBUTION_STEP_COMPLETED" desc="">Completed</message>
      <message name="IDS_SHUNYA_REWARDS_INTERNALS_CONTRIBUTION_STEP_NO" desc="">Unknown</message>
      <message name="IDS_SHUNYA_REWARDS_INTERNALS_CONTRIBUTION_STEP_START" desc="">Start</message>
      <message name="IDS_SHUNYA_REWARDS_INTERNALS_CONTRIBUTION_STEP_PREPARE" desc="">Prepare</message>
      <message name="IDS_SHUNYA_REWARDS_INTERNALS_CONTRIBUTION_STEP_RESERVE" desc="">Reserve</message>
      <message name="IDS_SHUNYA_REWARDS_INTERNALS_CONTRIBUTION_STEP_EXTERNAL_TRANSACTION" desc="">External transaction</message>
      <message name="IDS_SHUNYA_REWARDS_INTERNALS_CONTRIBUTION_STEP_CREDS" desc="">Creds</message>
      <message name="IDS_SHUNYA_REWARDS_INTERNALS_CONTRIBUTION_STEP_REWARDS_OFF" desc="">Rewards was turned off</message>
      <message name="IDS_SHUNYA_REWARDS_INTERNALS_CONTRIBUTION_STEP_AUTO_CONTRIBUTE_OFF" desc="">Auto-contribute was turned off</message>
      <message name="IDS_SHUNYA_REWARDS_INTERNALS_CONTRIBUTION_STEP_RETRY_COUNT" desc="">Stopped retrying</message>
      <message name="IDS_SHUNYA_REWARDS_INTERNALS_CUSTODIAN" desc="Custodian">Custodian:</message>
      <message name="IDS_SHUNYA_REWARDS_INTERNALS_CUSTODIAN_MEMBER_ID" desc="Custodian member ID">Custodian member ID:</message>
      <message name="IDS_SHUNYA_REWARDS_INTERNALS_EVENT_LOG_KEY" desc="event log key">Key</message>
      <message name="IDS_SHUNYA_REWARDS_INTERNALS_EVENT_LOG_VALUE" desc="event log value">Value</message>
      <message name="IDS_SHUNYA_REWARDS_INTERNALS_EVENT_LOG_TIME" desc="when event was logged">Logged at</message>
      <message name="IDS_SHUNYA_REWARDS_INTERNALS_MAIN_DISCLAIMER" desc="">WARNING: Data on these pages may be sensitive. Be careful who you share them with.</message>
      <message name="IDS_SHUNYA_REWARDS_INTERNALS_LOG_DISCLAIMER" desc="">WARNING: This log file may contain sensitive data. Be careful who you share it with.</message>
      <message name="IDS_SHUNYA_REWARDS_INTERNALS_CONTRIBUTION_TYPE" desc="Contribution type">Type:</message>
      <message name="IDS_SHUNYA_REWARDS_INTERNALS_CONTRIBUTIONS" desc="">Contributions</message>
      <message name="IDS_SHUNYA_REWARDS_INTERNALS_DOWNLOAD_BUTTON" desc="">Download full log</message>
      <message name="IDS_SHUNYA_REWARDS_INTERNALS_EXTERNAL_WALLET" desc="">Custodial account connection info</message>
      <message name="IDS_SHUNYA_REWARDS_INTERNALS_INVALID" desc="Invalid indicator">Invalid</message>
      <message name="IDS_SHUNYA_REWARDS_INTERNALS_KEY_INFO_SEED" desc="Key info seed">Key info seed:</message>
      <message name="IDS_SHUNYA_REWARDS_INTERNALS_LOG_NOTICE" desc="">We show the last [[numberOfLines]] lines of the log. If you want the whole log, you can download it above.</message>
      <message name="IDS_SHUNYA_REWARDS_INTERNALS_MAIN_TITLE" desc="">Rewards internals</message>
      <message name="IDS_SHUNYA_REWARDS_INTERNALS_NOT_SET" desc="Not set">Not set</message>
      <message name="IDS_SHUNYA_REWARDS_INTERNALS_PERSONA_ID" desc="Wallet persona ID">Persona ID</message>
      <message name="IDS_SHUNYA_REWARDS_INTERNALS_PROMOTION_ADS" desc="">Ads</message>
      <message name="IDS_SHUNYA_REWARDS_INTERNALS_PROMOTION_AMOUNT" desc="">Amount</message>
      <message name="IDS_SHUNYA_REWARDS_INTERNALS_PROMOTION_CLAIMED_AT" desc="">Claimed at</message>
      <message name="IDS_SHUNYA_REWARDS_INTERNALS_PROMOTION_CLAIM_ID" desc="">Claim ID</message>
      <message name="IDS_SHUNYA_REWARDS_INTERNALS_PROMOTION_EXPIRES_AT" desc="">Expires at</message>
      <message name="IDS_SHUNYA_REWARDS_INTERNALS_PROMOTION_ID" desc="">ID</message>
      <message name="IDS_SHUNYA_REWARDS_INTERNALS_PROMOTION_LEGACY_CLAIMED" desc="">Legacy promotion</message>
      <message name="IDS_SHUNYA_REWARDS_INTERNALS_PROMOTION_LEGACY_NO" desc="">No</message>
      <message name="IDS_SHUNYA_REWARDS_INTERNALS_PROMOTION_LEGACY_YES" desc="">Yes</message>
      <message name="IDS_SHUNYA_REWARDS_INTERNALS_PROMOTIONS" desc="">Promotions</message>
      <message name="IDS_SHUNYA_REWARDS_INTERNALS_PROMOTION_STATUS" desc="">Status</message>
      <message name="IDS_SHUNYA_REWARDS_INTERNALS_PROMOTION_STATUS_ACTIVE" desc="">Active</message>
      <message name="IDS_SHUNYA_REWARDS_INTERNALS_PROMOTION_STATUS_ATTESTED" desc="">Attested</message>
      <message name="IDS_SHUNYA_REWARDS_INTERNALS_PROMOTION_STATUS_FINISHED" desc="">Finished</message>
      <message name="IDS_SHUNYA_REWARDS_INTERNALS_PROMOTION_STATUS_OVER" desc="">Over</message>
      <message name="IDS_SHUNYA_REWARDS_INTERNALS_PROMOTION_TYPE" desc="">Type</message>
      <message name="IDS_SHUNYA_REWARDS_INTERNALS_PROMOTION_UGP" desc="">UGP</message>
      <message name="IDS_SHUNYA_REWARDS_INTERNALS_PROMOTION_VERSION" desc="">Version</message>
      <message name="IDS_SHUNYA_REWARDS_INTERNALS_REFRESH_BUTTON" desc="Refresh button">Refresh</message>
      <message name="IDS_SHUNYA_REWARDS_INTERNALS_RETRY_COUNT" desc="Retry count">Retry Count:</message>
      <message name="IDS_SHUNYA_REWARDS_INTERNALS_REWARDS_COUNTRY" desc="Rewards	country">Rewards country:</message>
      <message name="IDS_SHUNYA_REWARDS_INTERNALS_REWARDS_TYPE_AUTO" desc="Auto Contribute">Auto Contribute</message>
      <message name="IDS_SHUNYA_REWARDS_INTERNALS_REWARDS_TYPE_ONE_TIME_TIP" desc="On-demand tip">Contribution</message>
      <message name="IDS_SHUNYA_REWARDS_INTERNALS_REWARDS_TYPE_RECURRING_TIP" desc="Recurring tip">Recurring contribution</message>
      <message name="IDS_SHUNYA_REWARDS_INTERNALS_TAB_AD_DIAGNOSTICS" desc="">Ad diagnostics</message>
      <message name="IDS_SHUNYA_REWARDS_INTERNALS_TAB_CONTRIBUTIONS" desc="">Contributions</message>
      <message name="IDS_SHUNYA_REWARDS_INTERNALS_TAB_EVENT_LOGS" desc="">Event logs</message>
      <message name="IDS_SHUNYA_REWARDS_INTERNALS_TAB_GENERAL_INFO" desc="">General info</message>
      <message name="IDS_SHUNYA_REWARDS_INTERNALS_TAB_LOGS" desc="">Logs</message>
      <message name="IDS_SHUNYA_REWARDS_INTERNALS_TAB_PROMOTIONS" desc="">Promotions</message>
      <message name="IDS_SHUNYA_REWARDS_INTERNALS_TOTAL_AMOUNT" desc="Total Amount">Total amount:</message>
      <message name="IDS_SHUNYA_REWARDS_INTERNALS_TOTAL_BALANCE" desc="Total balance">Total balance</message>
      <message name="IDS_SHUNYA_REWARDS_INTERNALS_USER_ID" desc="Wallet user ID">User ID</message>
      <message name="IDS_SHUNYA_REWARDS_INTERNALS_VALID" desc="Valid indicator">Valid</message>
      <message name="IDS_SHUNYA_REWARDS_INTERNALS_WALLET_ADDRESS" desc="">Wallet address:</message>
      <message name="IDS_SHUNYA_REWARDS_INTERNALS_WALLET_HISTORY" desc="">Wallet History</message>
      <message name="IDS_SHUNYA_REWARDS_INTERNALS_WALLET_INFO" desc="">Rewards info</message>
      <message name="IDS_SHUNYA_REWARDS_INTERNALS_WALLET_NOT_CREATED" desc="">Rewards profile not yet created</message>
      <message name="IDS_SHUNYA_REWARDS_INTERNALS_WALLET_PAYMENT_ID" desc="Rewards payment ID">Rewards payment ID:</message>
      <message name="IDS_SHUNYA_REWARDS_INTERNALS_WALLET_STATUS" desc="Wallet status">Rewards state:</message>
      <message name="IDS_SHUNYA_REWARDS_INTERNALS_WALLET_STATUS_NOT_CONNECTED" desc="">Not connected</message>
      <message name="IDS_SHUNYA_REWARDS_INTERNALS_WALLET_STATUS_VERIFIED" desc="">Verified</message>
      <message name="IDS_SHUNYA_REWARDS_INTERNALS_WALLET_STATUS_DISCONNECTED_VERIFIED" desc="">Disconnected (Verified)</message>
      <message name="IDS_SHUNYA_REWARDS_INTERNALS_WALLET_CREATION_ENVIRONMENT" desc="">Creation environment:</message>
      <message name="IDS_SHUNYA_REWARDS_INTERNALS_CURRENT_ENVIRONMENT" desc="">Current environment:</message>

      <!-- WebUI shunya ui resources -->
      <message name="IDS_SHUNYA_UI_ACTIVITY_COPY" desc=""> Shunya Software. Shunya is a registered trademark of Shunya Software. Site names may be trademarks or registered trademarks of the site owner.</message>
      <message name="IDS_SHUNYA_UI_ACTIVITY_NOTE" desc="">To protect your privacy, this Shunya Rewards statement is not saved, recorded or logged anywhere other than on your device (this computer). It cannot be retrieved from Shunya in the event of data loss on your device.</message>
      <message name="IDS_SHUNYA_UI_ADS" desc="">Ads</message>
      <message name="IDS_SHUNYA_UI_ADS_ALL">All</message>
      <message name="IDS_SHUNYA_UI_ADS_CATEGORY">Category</message>
      <message name="IDS_SHUNYA_UI_ADS_CURRENTLY_VIEWING" desc="">Maximum ads received per hour: </message>
      <message name="IDS_SHUNYA_UI_ADS_HISTORY_NONE" desc="">No ads viewed in the last <ph name="TOTAL_DAYS">$1</ph> days.</message>
      <message name="IDS_SHUNYA_UI_ADS_HISTORY_SUBTITLE" desc="">Ads you've received in the past [[totalDays]] days</message>
      <message name="IDS_SHUNYA_UI_ADS_HISTORY_TITLE" desc="">Ads History</message>
      <message name="IDS_SHUNYA_UI_ADS_GRANT_RECEIVED" desc="">Ads rewards received</message>
      <message name="IDS_SHUNYA_UI_ADS_MARK_AS_INAPPROPRIATE" desc="">Mark As Inappropriate</message>
      <message name="IDS_SHUNYA_UI_ADS_MARK_AS_INAPPROPRIATE_CHECKED" desc="">Mark As Inappropriate ✓</message>
      <message name="IDS_SHUNYA_UI_ADS_NO_ADS_HISTORY" desc="">There is currently no Shunya Ads history</message>
      <message name="IDS_SHUNYA_UI_ADS_OPT_OUT_TOOLTIP" desc="">You will no longer receive ads from this category</message>
      <message name="IDS_SHUNYA_UI_ADS_SAVED">Saved</message>
      <message name="IDS_SHUNYA_UI_ADS_SAVE_AD">Save</message>
      <message name="IDS_SHUNYA_UI_BAT_TEXT" desc="">BAT</message>
      <message name="IDS_SHUNYA_UI_AMOUNT" desc="">Amount</message>
      <message name="IDS_SHUNYA_UI_SHUNYA_CONTRIBUTE_TITLE" desc="">Auto-Contribute</message>
      <message name="IDS_SHUNYA_UI_SHUNYA_CONTRIBUTE_TRANSACTION" desc="">Auto-Contribute [[processor]]</message>
      <message name="IDS_SHUNYA_UI_SHUNYA_REWARDS" desc="">Shunya Rewards</message>
      <message name="IDS_SHUNYA_UI_PRIVACY_POLICY" desc="">Privacy Policy</message>
      <message name="IDS_SHUNYA_UI_CANCEL" desc="">Cancel</message>
      <message name="IDS_SHUNYA_UI_CAPTCHA_DRAG" desc="">Drag the BAT Icon on to the</message>
      <message name="IDS_SHUNYA_UI_CAPTCHA_TARGET" desc="">target.</message>
      <message name="IDS_SHUNYA_UI_CLAIM" desc="">Claim</message>
      <message name="IDS_SHUNYA_UI_CONTRIBUTE" desc="">Contribute</message>
      <message name="IDS_SHUNYA_UI_DATE" desc="">Date</message>
      <message name="IDS_SHUNYA_UI_DEPOSITS" desc="">Deposits</message>
      <message name="IDS_SHUNYA_UI_DESCRIPTION" desc="">Description</message>
      <message name="IDS_SHUNYA_UI_DISABLED_PANEL_TITLE" desc="">Shunya Rewards is</message>
      <message name="IDS_SHUNYA_UI_DONATION" desc="">Contribute</message>
      <message name="IDS_SHUNYA_UI_DONE" desc="">Done</message>
      <message name="IDS_SHUNYA_UI_EARNINGS_ADS" desc="">Earnings from Ads</message>
      <message name="IDS_SHUNYA_UI_EARNINGS_VIEW_DEPOSIT_HISTORY" desc="">View deposit history</message>
      <message name="IDS_SHUNYA_UI_EXCLUDE_SITE" desc="">Exclude this site</message>
      <message name="IDS_SHUNYA_UI_EXCLUDED_SITES" desc="">Total number of sites you excluded from Auto-Contribute:</message>
      <message name="IDS_SHUNYA_UI_GRANT_DISCLAIMER" desc="">[[currency]] not used by the expiration date will be automatically returned to the Shunya User Growth Pool.</message>
      <message name="IDS_SHUNYA_UI_GRANT_EXPIRE" desc="">Grant Expiration Date</message>
      <message name="IDS_SHUNYA_UI_IMPORT" desc="">import</message>
      <message name="IDS_SHUNYA_UI_LEARN_MORE" desc="">Learn More</message>
      <message name="IDS_SHUNYA_UI_MONTHLY_TIPS_BANG" desc="">Monthly Contributions!</message>
      <message name="IDS_SHUNYA_UI_MONTHLY_TIPS" desc="">Monthly Contributions</message>
      <message name="IDS_SHUNYA_UI_GRANT_TITLE_UGP" desc="Title for a reward grant when it has been claimed">It's your lucky day!</message>
      <message name="IDS_SHUNYA_UI_GRANT_SUBTITLE_UGP" desc="Subtitle for a reward grant when it has been claimed">Your token grant is on its way.</message>
      <message name="IDS_SHUNYA_UI_GRANT_AMOUNT_TITLE_UGP" desc="">Free Token Grant</message>
      <message name="IDS_SHUNYA_UI_GRANT_DATE_TITLE_UGP" desc="">Grant Expiration Date</message>
      <message name="IDS_SHUNYA_UI_GRANT_TITLE_ADS" desc="Title for an ads reward when it has been claimed">Congrats!</message>
      <message name="IDS_SHUNYA_UI_GRANT_SUBTITLE_ADS" desc="Subtitle for an ads reward when it has been claimed">You've successfully claimed ads rewards.</message>
      <message name="IDS_SHUNYA_UI_GRANT_AMOUNT_TITLE_ADS" desc="">Ads Rewards</message>
      <message name="IDS_SHUNYA_UI_GRANT_DATE_TITLE_ADS" desc="">Rewards Period</message>
      <message name="IDS_SHUNYA_UI_MONTHLY_TIP" desc="">Monthly Contribution</message>
      <message name="IDS_SHUNYA_UI_NO_ACTIVITY" desc="">No activities yet…</message>
      <message name="IDS_SHUNYA_UI_OFF" desc="">off</message>
      <message name="IDS_SHUNYA_UI_OK" desc="">ok</message>
      <message name="IDS_SHUNYA_UI_ON" desc="">on</message>
      <message name="IDS_SHUNYA_UI_ONE_TIME" desc="">Contribution</message>
      <message name="IDS_SHUNYA_UI_ONE_TIME_DONATION" desc="">Contributions</message>
      <message name="IDS_SHUNYA_UI_OPEN_ADS_HISTORY" desc="">30-day Ads History</message>
      <message name="IDS_SHUNYA_UI_PAYMENT" desc="">Payment</message>
      <message name="IDS_SHUNYA_UI_PAYMENT_PINNED_SITES_HEADER" desc="">Pinned sites are now</message>
      <message name="IDS_SHUNYA_UI_PAYMENT_PINNED_SITES_MSG" desc="">Here's how monthly contributions work:</message>
      <message name="IDS_SHUNYA_UI_PAYMENT_PINNED_SITES_ONE" desc="">Monthly contributions do not come out of your Auto-Contribute payment. They're separate.</message>
      <message name="IDS_SHUNYA_UI_PAYMENT_PINNED_SITES_TWO" desc="">Each site is paid a fixed amount monthly.</message>
      <message name="IDS_SHUNYA_UI_PAYMENT_PINNED_SITES_THREE" desc="">Monthly contributions are paid out all at once, each month. If you're using Auto-Contribute, contributions go out at the same time as your monthly Auto-Contribute payment.</message>
      <message name="IDS_SHUNYA_UI_PAYMENT_PINNED_SITES_FOUR" desc="">You can remove any site receiving monthly contributions from inside of the Contribution panel.</message>
      <message name="IDS_SHUNYA_UI_PLEASE_NOTE" desc="">Please note:</message>
      <message name="IDS_SHUNYA_UI_PRINT" desc="">Print</message>
      <message name="IDS_SHUNYA_UI_PROCESSING_REQUEST" desc="">Your request is still being processed, please wait.</message>
      <message name="IDS_SHUNYA_UI_PROCESSING_REQUEST_BUTTON" desc="">Try again</message>
      <message name="IDS_SHUNYA_UI_PROCESSOR_SHUNYA_TOKENS" desc="">Rewards BAT</message>
      <message name="IDS_SHUNYA_UI_PROCESSOR_BITFLYER" desc="">bitFlyer</message>
      <message name="IDS_SHUNYA_UI_PROCESSOR_GEMINI" desc="">Gemini</message>
      <message name="IDS_SHUNYA_UI_PROCESSOR_UPHOLD" desc="">Uphold</message>
      <message name="IDS_SHUNYA_UI_PROCESSOR_ZEBPAY" desc="">ZebPay</message>
      <message name="IDS_SHUNYA_UI_RECURRING" desc="">Recurring</message>
      <message name="IDS_SHUNYA_UI_RECURRING_DONATIONS" desc="">Monthly Contributions</message>
      <message name="IDS_SHUNYA_UI_RELAUNCH" desc="">Relaunch</message>
      <message name="IDS_SHUNYA_UI_REMOVE" desc="">remove</message>
      <message name="IDS_SHUNYA_UI_REMOVE_AD_FROM_SAVED" desc="">Remove From Saved</message>
      <message name="IDS_SHUNYA_UI_RESET" desc="">Reset</message>
      <message name="IDS_SHUNYA_UI_RESET_WALLET" desc="">Reset Shunya Rewards</message>
      <message name="IDS_SHUNYA_UI_CLEAR_EXCLUDE_LIST" desc="">Clear exclude list</message>
      <message name="IDS_SHUNYA_UI_REVIEW_SITE_MSG" desc="">Your pinned sites have been moved to</message>
      <message name="IDS_SHUNYA_UI_REWARDS_CONTRIBUTE" desc="">Auto-Contribute</message>
      <message name="IDS_SHUNYA_UI_REWARDS_CONTRIBUTE_ATTENTION" desc="">Attention</message>
      <message name="IDS_SHUNYA_UI_REWARDS_RESET_TEXT" desc="">By resetting, your current Shunya Rewards profile will be deleted and you will start again with a completely new Shunya Rewards profile. Before proceeding, <ph name="LINK_BEGIN">$1</ph>learn more<ph name="LINK_END">$2</ph> about resetting, just to be safe.</message>
      <message name="IDS_SHUNYA_UI_REWARDS_RESET_CONSENT" desc="">I understand that my current Shunya Rewards profile and Shunya Rewards data will be deleted from my device, and I've read the <ph name="LINK_BEGIN">$1</ph>support article about resetting<ph name="LINK_END">$2</ph>.</message>
      <message name="IDS_SHUNYA_UI_REWARDS_SUMMARY" desc="">Rewards Summary</message>
      <message name="IDS_SHUNYA_UI_SAVE" desc="">Save</message>
      <message name="IDS_SHUNYA_UI_SEE_ALL_ITEMS" desc="">See all [[numItems]] items</message>
      <message name="IDS_SHUNYA_UI_SEND_TIP" desc="">Send my Contribution</message>
      <message name="IDS_SHUNYA_UI_SETTINGS" desc="">Settings</message>
      <message name="IDS_SHUNYA_UI_SITE" desc="">site</message>
      <message name="IDS_SHUNYA_UI_TIP_ON_LIKE" desc="">Tip on like</message>
      <message name="IDS_SHUNYA_UI_TOKEN_GRANT_RECEIVED" desc="">Token grant received</message>
      <message name="IDS_SHUNYA_UI_TOKENS" desc="">tokens</message>
      <message name="IDS_SHUNYA_UI_TOKEN" desc="">Token</message>
      <message name="IDS_SHUNYA_UI_TOTAL" desc="">Total</message>
      <message name="IDS_SHUNYA_UI_TRANSACTIONS" desc="">Transactions</message>
      <message name="IDS_SHUNYA_UI_TYPE" desc="">Type</message>
      <message name="IDS_SHUNYA_UI_VERIFIED_PUBLISHER" desc="">Shunya Verified Publisher</message>
      <message name="IDS_SHUNYA_UI_VIEW_MONTHLY" desc="">View Monthly Statement for Details</message>
      <message name="IDS_SHUNYA_UI_WALLET_ACTIVITY" desc="">Activity</message>
      <message name="IDS_SHUNYA_UI_WALLET_BALANCE" desc="">Rewards balance</message>
      <message name="IDS_SHUNYA_UI_YOUR_WALLET" desc="">Your Shunya Rewards</message>
      <message name="IDS_SHUNYA_UI_VIEW_DETAILS" desc="">View Details</message>
      <message name="IDS_SHUNYA_UI_REWARDS_CREATING_TEXT" desc="">Creating your Shunya Rewards profile</message>

      <message name="IDS_SHUNYA_UI_EXCLUDED_SITES_TEXT" desc="">Sites Excluded</message>
      <message name="IDS_SHUNYA_UI_REMOVE_FROM_EXCLUDED" desc="">Remove from excluded</message>
      <message name="IDS_SHUNYA_UI_REWARDS_EXCLUDED_TEXT_1" desc="">You've excluded</message>
      <message name="IDS_SHUNYA_UI_REWARDS_EXCLUDED_TEXT_2" desc="">sites from Auto-Contribute.</message>
      <message name="IDS_SHUNYA_UI_SHOW_ALL" desc="">Show All</message>
      <message name="IDS_SHUNYA_UI_VIEWED_SITES" desc="">Sites Viewed</message>

      <message name="IDS_SHUNYA_UI_PROMO_LEARN_MORE" desc="">Learn more</message>
      <message name="IDS_SHUNYA_UI_PROMO_DISMISS" desc="">Don't show again</message>

      <message name="IDS_SHUNYA_UI_BITFLYER_VERIFICATION_PROMO_TITLE" desc="">Connect to bitFlyer</message>
      <message name="IDS_SHUNYA_UI_BITFLYER_VERIFICATION_PROMO_INFO" desc="">Connecting Shunya Rewards to a bitFlyer account will let you earn BAT and withdraw your BAT earnings from Shunya Rewards.</message>

      <message name="IDS_SHUNYA_UI_SHUNYA_CREATORS_PROMO_TITLE" desc="">Become a Shunya Creator!</message>
      <message name="IDS_SHUNYA_UI_SHUNYA_CREATORS_PROMO_INFO_1" desc="">Visit creators.shunya.com to sign up today and start earning BAT from your fans and followers.</message>
      <message name="IDS_SHUNYA_UI_SHUNYA_CREATORS_PROMO_INFO_2" desc="">Shunya supports YouTube, Twitch, Vimeo and more!</message>

      <message name="IDS_SHUNYA_UI_GEMINI_PROMO_TITLE" desc="">Sign up to Gemini to store your BAT securely</message>
      <message name="IDS_SHUNYA_UI_GEMINI_PROMO_INFO_1" desc="">Connect Shunya Rewards to Gemini to receive your BAT earnings directly to your Gemini account. Gemini is a full reserve and highly regulated cryptocurrency exchange and custodian.</message>
      <message name="IDS_SHUNYA_UI_GEMINI_PROMO_INFO_2" desc="">Millions of customers in 70+ countries choose Gemini to buy, sell, store, and stake over 90+ cryptos with ease.</message>

      <message name="IDS_SHUNYA_UI_TAP_NETWORK_TITLE" desc="">Redeem BAT for Gift Cards</message>
      <message name="IDS_SHUNYA_UI_TAP_NETWORK_INFO" desc="">With TAP Network, you can redeem your BAT for popular name-brand gift cards.</message>
      <message name="IDS_SHUNYA_UI_TAP_NETWORK_DISCLAIMER" desc="">* Requires Uphold account.</message>

      <message name="IDS_SHUNYA_UI_UPHOLD_PROMO_TITLE" desc="">Get 2% cryptoback with the Uphold card</message>
      <message name="IDS_SHUNYA_UI_UPHOLD_PROMO_INFO" desc="">Spend your crypto and other assets at nearly 50 million merchants and ATMs worldwide. Spend crypto to get crypto!</message>

      <!-- Rewards New Tab Widget resources -->
      <message name="IDS_EDIT_CARDS_TITLE" desc="">Edit Cards</message>
      <message name="IDS_REWARDS_WIDGET_START_USING" desc="">Start using Shunya Rewards</message>
      <message name="IDS_SHUNYA_TALK_WIDGET_TITLE" desc="">Shunya Talk</message>
      <message name="IDS_SHUNYA_TALK_WIDGET_WELCOME_TITLE" desc="">Start a private video call with your friends and colleagues.</message>
      <message name="IDS_SHUNYA_TALK_WIDGET_START_BUTTON" desc="">Start call</message>
      <message name="IDS_SHUNYA_TALK_WIDGET_ABOUT_DATA" desc="">About your data</message>

      <!-- WebUI Shunya Toolbar resources -->
      <message name="IDS_WALLETS_TITLE" desc="The toolbar title for the shunya://wallets page">Wallet</message>
      <!-- WebUI Crypto Wallets resources -->
      <message name="IDS_SHUNYA_WALLET_WELCOME" desc="">Welcome to Shunya Crypto Wallets</message>
      <message name="IDS_SHUNYA_WALLET_DISCLOSURE_ONE" desc="">Crypto Wallets lets you work with cryptocurrency and related assets in Shunya. Crypto Wallets supports Ethereum tokens like ETH and BAT, as well as collectibles, and lets you work with Ðapps and other smart contracts. All this is meant for people who are familiar with Ethereum and other blockchain systems — or are excited to learn.</message>
      <message name="IDS_SHUNYA_WALLET_DISCLOSURE_TWO" desc="">Only use Crypto Wallets if you accept that you alone are responsible for all risk associated with this use, and that Shunya Software bears no responsibility or liability for any losses including incidental or consequential losses you might suffer as a result of this use.</message>
      <message name="IDS_SHUNYA_WALLET_DISCLOSURE_THREE" desc="">All of this is completely separate from</message>
      <message name="IDS_SHUNYA_WALLET_DISCLOSURE_FOUR" desc="">So if you were looking to support your favorite sites, head over there instead.</message>
      <message name="IDS_SHUNYA_WALLET_SHUNYA_REWARDS" desc="">Shunya Rewards</message>
      <message name="IDS_SHUNYA_WALLET_DOWNLOADING" desc="">Downloading Component...</message>
      <message name="IDS_SHUNYA_WALLET_DISCLOSURE_CONFIRM" desc="">I understand</message>

      <message name="IDS_PAGE_INFO_SHUNYA_WEBTORRENT" desc="The message showed to the user in the HTTP info bubble view when viewing a webtorrent: page">
        You're viewing a WebTorrent page
      </message>

      <if expr="not is_ios">
        <part file="decentralized_dns_strings.grdp" />
      </if>
      <part file="domain_block_strings.grdp" />
      <part file="request_otr_strings.grdp" />
      <part file="ipfs_strings.grdp" />
      <part file="permissions_strings.grdp" />
      <part file="google_sign_in_permission_strings.grdp" />
      <part file="localhost_access_permission_strings.grdp" />
      <part file="rewards_strings.grdp" />
      <part file="wallet_strings.grdp" />
      <part file="tor_strings.grdp" />
      <part file="shunya_news_strings.grdp" />
      <part file="commands.grdp" />
      <part file="speedreader_strings.grdp" />
      <part file="ai_chat_prompts.grdp" />
      <part file="ai_chat_ui_strings.grdp" />
      <if expr="not is_android">
        <part file="shunya_shields_strings.grdp" />
        <part file="shunya_welcome_strings.grdp" />
      </if>
      <if expr="enable_shunya_vpn">
        <part file="shunya_vpn_strings.grdp" />
      </if>
    </messages>
  </release>
</grit>
