{
  "appName": {
    "message": "Ekstenzija Shunya",
    "description": "The name of the the extension."
  },
  "shields": {
    "message": "Štitovi",
    "description": "The Shields feature name"
  },
  "up": {
    "message": "uključeni",
    "description": "Message for when shields is enabled"
  },
  "down": {
    "message": "isključeni",
    "description": "Message for when shields is disabled"
  },
  "forThisSite": {
    "message": "na ovom mrežnom mjestu",
    "description": "Partial string for the phrase `shields is up *for this site*`"
  },
  "enabledMessage": {
    "message": "Ako se mrežnom mjestu ne može pristupiti, pokušajte isključiti štitove",
    "description": "Message telling the user to disable shields if a site appears broken"
  },
  "disabledMessage": {
    "message": "Pregledavate ovo mrežno mjesto bez sigurnosne zaštite i zaštite privatnosti preglednika Shunya. Radi li ispravno s uključenom značajkom Štitnika?",
    "description": "Message telling the user that shields are disabled, and prompting them towards reporting an issue if necessary"
  },
  "reportBrokenSite": {
    "message": "Prijavi nevaljano mjesto",
    "description": "Message for the button allowing users to report a broken site to Shunya developers"
  },
  "itemsBlocked": {
    "message": "Blokirane stavke",
    "description": "Message for the main blocked resources text when there is more than one ad/track/script blocked (plural)"
  },
  "itemBlocked": {
    "message": "Blokirana stavka",
    "description": "Message for the main blocked resources text when there is one ad/track/script blocked (singular)"
  },
  "and": {
    "message": "i",
    "description": "Message for the `and` conjunction. Used to connect grammatically the `item blocked and connection upgrades` and its variant phrases"
  },
  "connectionsUpgraded": {
    "message": "nadograđene veze",
    "description": "Message for the main blocked resources text when there is at least one ad/track/script blocked and more than one connection upgrade (plural)"
  },
  "connectionUpgraded": {
    "message": "nadograđena veza",
    "description": "Message for the main blocked resources text when there is at least one ad/track/script blocked and one connection upgrade (singular)"
  },
  "thirdPartyTrackersBlocked": {
    "message": "Blokirani elementi za praćenje na više mjesta",
    "description": "Message for the scripts blocked row label"
  },
  "readOnlyAdsTrackersBlocking": {
    "message": "Blokirani elementi za praćenje i oglasi",
    "description": "Message for the option in the ads and trackers blocking select field in read only view"
  },
  "aggressiveAdsTrackersBlocking": {
    "message": "Blokirani elementi za praćenje i oglasi (napadno)",
    "description": "Message for the option in the ads and trackers blocking select field to block ads and trackers with aggressive heuristics"
  },
  "standardAdsTrackersBlocking": {
    "message": "Blokirani elementi za praćenje i oglasi (standardno)",
    "description": "Message for the option in the ads and trackers blocking select field to block ads and trackers with standard heuristics"
  },
  "allowAdsTrackers": {
    "message": "Dopusti sve elemente za praćenje i oglase",
    "description": "Message for the option in the ads and trackers blocking select field to allow all ads and trackers"
  },
  "connectionsUpgradedHTTPS": {
    "message": "Nadograđene veze na HTTPS",
    "description": "Message for the connections upgraded row label and for the main blocked resources text when there is more than one connection upgraded (plural) and no other ads/trackers blocked"
  },
  "connectionUpgradedHTTPS": {
    "message": "Nadograđena veza na HTTPS",
    "description": "Message for the main blocked resources text when there is one connection upgraded (singular) and no other ads/trackers blocked"
  },
  "scriptsBlocked": {
    "message": "Skripte su blokirane",
    "description": "Message for the scripts blocked row label"
  },
  "thirdPartyCookiesBlocked": {
    "message": "Blokirani kolačići za praćenje na više mjesta",
    "description": "Message for the option in the cookies select field to block all 3rd party cookies"
  },
  "allCookiesBlocked": {
    "message": "Kolačići su blokirani",
    "description": "Message for the option in the cookies select field to block all cookies"
  },
  "allCookiesAllowed": {
    "message": "Svi su kolačići dopušteni",
    "description": "Message for the option in the cookies select field to allow all cookies"
  },
  "readOnlyFingerprinting": {
    "message": "Blokirano pritiskanje prstima",
    "description": "Message for the option in the fingerprinting field in read only view"
  },
  "standardFingerprinting": {
    "message": "Blokirano pritiskanja prstima (standardno)",
    "description": "Message for the option in the fingerprinting select field to block all 3rd party recognition attempts"
  },
  "strictFingerprinting": {
    "message": "Blokirano pritiskanja prstima (striktno, mrežna se mjesta mogu rušiti)",
    "description": "Message for the option in the fingerprinting select field to block all fingerprinting attempts"
  },
  "allowAllFingerprinting": {
    "message": "Dopusti sve pokušaje pritiskanja prstima",
    "description": "Message for the option in the fingerprinting select field to allow all fingerprinting attempts"
  },
  "deviceRecognitionAttempts": {
    "message": "Pokušaji pritiskanja prstima",
    "description": "Message for the fingerprinting attempts blocked panel"
  },
  "scriptsOnThisSite": {
    "message": "Skripte na ovom mrežnom mjestu",
    "description": "Message for the script resources blocked panel"
  },
  "blockedScripts": {
    "message": "Blokirane skripte",
    "description": "Message for the script resources blocked"
  },
  "allowedScripts": {
    "message": "Dopuštene skripte",
    "description": "Message for the script resources allowed"
  },
  "blockAll": {
    "message": "Blokiraj sve",
    "description": "Message for the resources blocked *block all* option"
  },
  "allowAll": {
    "message": "Dopusti sve",
    "description": "Message for the resources blocked *allow all* option"
  },
  "block": {
    "message": "Blokiraj",
    "description": "Message for the resources blocked *block* option"
  },
  "allow": {
    "message": "Dopusti",
    "description": "Message for the resources blocked *allow* option"
  },
  "blockedOnce": {
    "message": "Blokirano jednom.",
    "description": "Message for the resources blocked *blocked once* option"
  },
  "allowedOnce": {
    "message": "Dopušteno jednom.",
    "description": "Message for the resources blocked *allowed once* option"
  },
  "allowScriptsOnce": {
    "message": "Jednom dopusti skripte",
    "description": "Message for the shortcut in the main interface to allow all scripts once"
  },
  "cancel": {
    "message": "Odustani",
    "description": "Message for the button inside the static list of resources blocked to cancel the operation"
  },
  "goBack": {
    "message": "Povratak",
    "description": "Message for the button inside the static list of resources blocked to go back from the current screen"
  },
  "applyOnce": {
    "message": "Primijeni jednom",
    "description": "Message for action in dynamic list of resources blocked to *apply once*"
  },
  "changeDefaults": {
    "message": "Promijeni zadane postavke glavnog štitnika",
    "description": "Message for the button action linking to the settings page"
  },
  "manageCustomFilters": {
    "message": "Upravljaj prilagođenim filtrima",
    "description": "Message for context menu that opens a page for adding, editing, and removing custom cosmetic filters"
  },
  "elementPickerMode": {
    "message": "Blokiraj element",
    "description": "Message for context menu that enables the element picker UI to apply cosmetic filter rules to the page."
  },
  "advancedView": {
    "message": "Napredan prikaz",
    "description": "Message for the advanced view option"
  },
  "simpleView": {
    "message": "jednostavan prikaz",
    "description": "Message for the simple view option"
  },
  "shieldsExplanation": {
    "message": "Na mrežnim se mjestima obično nalaze kolačići i skripte kojima se pokušavate identificirati vi i vaš uređaj (obično ugrađeni u oglase). Njima se želi saznati tko ste i pratiti vas na internetu — praćenje što radite na svakom mrežnom mjestu. Shunya blokira navedene stavke kako biste mogli pregledavati internet, a da vas se pritom ne prati.",
    "description": "Message in read-only view explaining what Shunya Shields do"
  },
  "blockedResoucesExplanation": {
    "message": "Blokirani elementi za praćenje na više mrežnih mjesta i ostale čudne stavke",
    "description": "Message for the main trackers count in Shields simple view"
  },
  "webCompatWarning": {
    "message": "Mijenjanjem se postavki Štita u ovom prikazu može promijeniti mrežna kompatibilnost na ovom mrežnom mjestu.",
    "description": "Message for web compat warning when switching from simple to advanced view"
  },
  "gotIt": {
    "message": "Shvaćam",
    "description": "Message for the button that confirms the advanced view"
  },
  "learnMore": {
    "message": "Saznajte više",
    "description": "Message inviting the user to learn more about Shields"
  },
  "addToShunya": {
    "message": "Dodajte u Shunya",
    "description": "Message for adding an extension to Shunya"
  },
  "removeFromShunya": {
    "message": "Ukloni iz programa Shunya",
    "description": "Message for removing an extension from Shunya"
  },
  "addToChrome": {
    "message": "Dodaj u Chrome",
    "description": "Message for adding an extension to Chrome"
  },
  "removeFromChrome": {
    "message": "Ukloni iz programa Chrome",
    "description": "Message for removing an extension from Chrome"
  }
}
