{
  "appName": {
    "message": "Brejv oznaka datoteke",
    "description": "The name of the the extension."
  },
  "shields": {
    "message": "Štitovi",
    "description": "The Shields feature name"
  },
  "up": {
    "message": "gore",
    "description": "Message for when shields is enabled"
  },
  "down": {
    "message": "dole",
    "description": "Message for when shields is disabled"
  },
  "forThisSite": {
    "message": "za ovu veb lokaciju",
    "description": "Partial string for the phrase `shields is up *for this site*`"
  },
  "enabledMessage": {
    "message": "Ako se stranica pojavi slomljena, pokušajte sa isljučenim štitovima",
    "description": "Message telling the user to disable shields if a site appears broken"
  },
  "disabledMessage": {
    "message": "Pregleđujete ovaj sajt bez zaštite privatnosti i bezbednosne zaštite od strane aplikacije Shunya. Zar to ne funkcioniše ispravno sa „Shields up”?",
    "description": "Message telling the user that shields are disabled, and prompting them towards reporting an issue if necessary"
  },
  "reportBrokenSite": {
    "message": "Prijavite raskinutu vezu sa sajtom",
    "description": "Message for the button allowing users to report a broken site to Shunya developers"
  },
  "itemsBlocked": {
    "message": "Stavke je blokirane",
    "description": "Message for the main blocked resources text when there is more than one ad/track/script blocked (plural)"
  },
  "itemBlocked": {
    "message": "Stavka je blokirana",
    "description": "Message for the main blocked resources text when there is one ad/track/script blocked (singular)"
  },
  "and": {
    "message": "i",
    "description": "Message for the `and` conjunction. Used to connect grammatically the `item blocked and connection upgrades` and its variant phrases"
  },
  "connectionsUpgraded": {
    "message": "veze su nadograđene",
    "description": "Message for the main blocked resources text when there is at least one ad/track/script blocked and more than one connection upgrade (plural)"
  },
  "connectionUpgraded": {
    "message": "veza je nadograđena",
    "description": "Message for the main blocked resources text when there is at least one ad/track/script blocked and one connection upgrade (singular)"
  },
  "thirdPartyTrackersBlocked": {
    "message": "Višelokacijska praćenja blokirana",
    "description": "Message for the scripts blocked row label"
  },
  "readOnlyAdsTrackersBlocking": {
    "message": "Praćenja i reklame su blokirani",
    "description": "Message for the option in the ads and trackers blocking select field in read only view"
  },
  "aggressiveAdsTrackersBlocking": {
    "message": "Tragači i oglasi su blokirani (agresivno)",
    "description": "Message for the option in the ads and trackers blocking select field to block ads and trackers with aggressive heuristics"
  },
  "standardAdsTrackersBlocking": {
    "message": "Tragači i oglasi su blokirani (standardno)",
    "description": "Message for the option in the ads and trackers blocking select field to block ads and trackers with standard heuristics"
  },
  "allowAdsTrackers": {
    "message": "Dozvoli sve tragače i oglase",
    "description": "Message for the option in the ads and trackers blocking select field to allow all ads and trackers"
  },
  "connectionsUpgradedHTTPS": {
    "message": "Veze su nadograđene u HTTPS",
    "description": "Message for the connections upgraded row label and for the main blocked resources text when there is more than one connection upgraded (plural) and no other ads/trackers blocked"
  },
  "connectionUpgradedHTTPS": {
    "message": "Veza je nadograđena u HTTPS",
    "description": "Message for the main blocked resources text when there is one connection upgraded (singular) and no other ads/trackers blocked"
  },
  "scriptsBlocked": {
    "message": "Blokirane skripte",
    "description": "Message for the scripts blocked row label"
  },
  "thirdPartyCookiesBlocked": {
    "message": "Blokirani višelokacijski kolačići",
    "description": "Message for the option in the cookies select field to block all 3rd party cookies"
  },
  "allCookiesBlocked": {
    "message": "Kolačići su blokirani",
    "description": "Message for the option in the cookies select field to block all cookies"
  },
  "allCookiesAllowed": {
    "message": "Svi kolačići su omogućeni",
    "description": "Message for the option in the cookies select field to allow all cookies"
  },
  "readOnlyFingerprinting": {
    "message": "Fingerprinting je blokiran",
    "description": "Message for the option in the fingerprinting field in read only view"
  },
  "standardFingerprinting": {
    "message": "Blokirano je beleženje posebnih obeležja (standard)",
    "description": "Message for the option in the fingerprinting select field to block all 3rd party recognition attempts"
  },
  "strictFingerprinting": {
    "message": "Blokirano je beleženje posebnih obeležja (strogo, može da probija lokacije)",
    "description": "Message for the option in the fingerprinting select field to block all fingerprinting attempts"
  },
  "allowAllFingerprinting": {
    "message": "Dozvoli sva beleženja posebnih obeležja",
    "description": "Message for the option in the fingerprinting select field to allow all fingerprinting attempts"
  },
  "deviceRecognitionAttempts": {
    "message": "Pokušaji beleženja posebnih obeležja",
    "description": "Message for the fingerprinting attempts blocked panel"
  },
  "scriptsOnThisSite": {
    "message": "Skripte na ovoj veb lokaciji",
    "description": "Message for the script resources blocked panel"
  },
  "blockedScripts": {
    "message": "Blokirane skripte",
    "description": "Message for the script resources blocked"
  },
  "allowedScripts": {
    "message": "Dozvoljene skripte",
    "description": "Message for the script resources allowed"
  },
  "blockAll": {
    "message": "Blokiraj sve",
    "description": "Message for the resources blocked *block all* option"
  },
  "allowAll": {
    "message": "Dozvoli sve",
    "description": "Message for the resources blocked *allow all* option"
  },
  "block": {
    "message": "Blokiraj",
    "description": "Message for the resources blocked *block* option"
  },
  "allow": {
    "message": "Dozvoli",
    "description": "Message for the resources blocked *allow* option"
  },
  "blockedOnce": {
    "message": "Blokirano jednom",
    "description": "Message for the resources blocked *blocked once* option"
  },
  "allowedOnce": {
    "message": "Dozvoljeno jednom",
    "description": "Message for the resources blocked *allowed once* option"
  },
  "allowScriptsOnce": {
    "message": "Dozvoli jednom skripte",
    "description": "Message for the shortcut in the main interface to allow all scripts once"
  },
  "cancel": {
    "message": "Otkaži",
    "description": "Message for the button inside the static list of resources blocked to cancel the operation"
  },
  "goBack": {
    "message": "Idi nazad",
    "description": "Message for the button inside the static list of resources blocked to go back from the current screen"
  },
  "applyOnce": {
    "message": "Primeni jednom",
    "description": "Message for action in dynamic list of resources blocked to *apply once*"
  },
  "changeDefaults": {
    "message": "Promenite podrazumevane vrednosti globalnog štita",
    "description": "Message for the button action linking to the settings page"
  },
  "manageCustomFilters": {
    "message": "Rukovanje prilagođenim filterima",
    "description": "Message for context menu that opens a page for adding, editing, and removing custom cosmetic filters"
  },
  "elementPickerMode": {
    "message": "Blokiraj element",
    "description": "Message for context menu that enables the element picker UI to apply cosmetic filter rules to the page."
  },
  "advancedView": {
    "message": "Više opcija prikaza",
    "description": "Message for the advanced view option"
  },
  "simpleView": {
    "message": "Jednostavan prikaz",
    "description": "Message for the simple view option"
  },
  "shieldsExplanation": {
    "message": "Sajtovi često uključuju kolačiće i skripte koji pokušavaju da identifikuju Vas i Vaš uređaj (često su ugrađeni u oglase). Žele da saznaju ko ste i pratite vas po vebu - prate šta radite na svakom sajtu. Shunya blokira ove stvari tako da možete da pregledate a da Vas ne prate okolo.",
    "description": "Message in read-only view explaining what Shunya Shields do"
  },
  "blockedResoucesExplanation": {
    "message": "Praćenja sajtova i ostale grozne stvari su blokirane",
    "description": "Message for the main trackers count in Shields simple view"
  },
  "webCompatWarning": {
    "message": "Promena postavki Shield-a u ovom prikazu može uticati na kompatibilnost sa vebom na ovom sajtu.",
    "description": "Message for web compat warning when switching from simple to advanced view"
  },
  "gotIt": {
    "message": "Важи",
    "description": "Message for the button that confirms the advanced view"
  },
  "learnMore": {
    "message": "Nauči više",
    "description": "Message inviting the user to learn more about Shields"
  },
  "addToShunya": {
    "message": "Додавање у Shunya",
    "description": "Message for adding an extension to Shunya"
  },
  "removeFromShunya": {
    "message": "Уклони из Shunya-а",
    "description": "Message for removing an extension from Shunya"
  },
  "addToChrome": {
    "message": "Додај у Chrome",
    "description": "Message for adding an extension to Chrome"
  },
  "removeFromChrome": {
    "message": "Уклоните из Chrome-а",
    "description": "Message for removing an extension from Chrome"
  }
}
