{
  "appName": {
    "message": "Η Επέκταση Shunya",
    "description": "The name of the the extension."
  },
  "shields": {
    "message": "Ασπίδες",
    "description": "The Shields feature name"
  },
  "up": {
    "message": "ενεργοποιημένο",
    "description": "Message for when shields is enabled"
  },
  "down": {
    "message": "απενεργοποιημένο",
    "description": "Message for when shields is disabled"
  },
  "forThisSite": {
    "message": "γι' αυτόν τον ιστότοπο",
    "description": "Partial string for the phrase `shields is up *for this site*`"
  },
  "enabledMessage": {
    "message": "Αν μια ιστοσελίδα δείχνει να μη λειτουργεί, δοκιμάστε να απενεργοποιήσετε τις ασπίδες",
    "description": "Message telling the user to disable shields if a site appears broken"
  },
  "disabledMessage": {
    "message": "Περιηγείστε σ' αυτόν τον ιστότοπο χωρίς τις προστασίες απορρήτου και ασφάλειας του Shunya. Δεν λειτουργεί σωστά με τις Ασπίδες ενεργοποιημένες;",
    "description": "Message telling the user that shields are disabled, and prompting them towards reporting an issue if necessary"
  },
  "reportBrokenSite": {
    "message": "Αναφέρετε μη λειτουργούντα ιστότοπο",
    "description": "Message for the button allowing users to report a broken site to Shunya developers"
  },
  "itemsBlocked": {
    "message": "Αποκλεισμένα στοιχεία",
    "description": "Message for the main blocked resources text when there is more than one ad/track/script blocked (plural)"
  },
  "itemBlocked": {
    "message": "Αποκλεισμένο στοιχείο",
    "description": "Message for the main blocked resources text when there is one ad/track/script blocked (singular)"
  },
  "and": {
    "message": "και",
    "description": "Message for the `and` conjunction. Used to connect grammatically the `item blocked and connection upgrades` and its variant phrases"
  },
  "connectionsUpgraded": {
    "message": "συνδέσεις αναβαθμίστηκαν",
    "description": "Message for the main blocked resources text when there is at least one ad/track/script blocked and more than one connection upgrade (plural)"
  },
  "connectionUpgraded": {
    "message": "σύνδεση αναβαθμίστηκε",
    "description": "Message for the main blocked resources text when there is at least one ad/track/script blocked and one connection upgrade (singular)"
  },
  "thirdPartyTrackersBlocked": {
    "message": "Οι ιχνηλάτες μεταξύ ιστοτόπων αποκλείστηκαν",
    "description": "Message for the scripts blocked row label"
  },
  "readOnlyAdsTrackersBlocking": {
    "message": "Ιχνηλάτες & διαφημίσεις αποκλείστηκαν",
    "description": "Message for the option in the ads and trackers blocking select field in read only view"
  },
  "aggressiveAdsTrackersBlocking": {
    "message": "Ιχνηλάτες & διαφημίσεις αποκλείστηκαν (επιθετικό)",
    "description": "Message for the option in the ads and trackers blocking select field to block ads and trackers with aggressive heuristics"
  },
  "standardAdsTrackersBlocking": {
    "message": "Ιχνηλάτες & διαφημίσεις αποκλείστηκαν (τυπικό)",
    "description": "Message for the option in the ads and trackers blocking select field to block ads and trackers with standard heuristics"
  },
  "allowAdsTrackers": {
    "message": "Να επιτρέπονται όλοι οι ιχνηλάτες & διαφημίσεις",
    "description": "Message for the option in the ads and trackers blocking select field to allow all ads and trackers"
  },
  "connectionsUpgradedHTTPS": {
    "message": "Οι συνδέσεις αναβαθμίστηκαν σε HTTPS",
    "description": "Message for the connections upgraded row label and for the main blocked resources text when there is more than one connection upgraded (plural) and no other ads/trackers blocked"
  },
  "connectionUpgradedHTTPS": {
    "message": "Η σύνδεση αναβαθμίστηκε σε HTTPS",
    "description": "Message for the main blocked resources text when there is one connection upgraded (singular) and no other ads/trackers blocked"
  },
  "scriptsBlocked": {
    "message": "Αποκλείστηκαν δέσμες ενεργειών",
    "description": "Message for the scripts blocked row label"
  },
  "thirdPartyCookiesBlocked": {
    "message": "Τα cookies μεταξύ ιστοτόπων αποκλείστηκαν",
    "description": "Message for the option in the cookies select field to block all 3rd party cookies"
  },
  "allCookiesBlocked": {
    "message": "Τα cookies έχουν αποκλειστεί",
    "description": "Message for the option in the cookies select field to block all cookies"
  },
  "allCookiesAllowed": {
    "message": "Να επιτρέπονται όλα τα cookies",
    "description": "Message for the option in the cookies select field to allow all cookies"
  },
  "readOnlyFingerprinting": {
    "message": "Έγινε αποκλεισμός δακτυλικών αποτυπωμάτων",
    "description": "Message for the option in the fingerprinting field in read only view"
  },
  "standardFingerprinting": {
    "message": "Αποκλεισμός δακτυλικών αποτυπωμάτων (τυπικό)",
    "description": "Message for the option in the fingerprinting select field to block all 3rd party recognition attempts"
  },
  "strictFingerprinting": {
    "message": "Αποκλεισμός δακτυλικών αποτυπωμάτων (αυστηρό, ενδέχεται να αποκόψει ιστότοπους)",
    "description": "Message for the option in the fingerprinting select field to block all fingerprinting attempts"
  },
  "allowAllFingerprinting": {
    "message": "Να επιτρέπονται όλα τα δακτυλικά αποτυπώματα",
    "description": "Message for the option in the fingerprinting select field to allow all fingerprinting attempts"
  },
  "deviceRecognitionAttempts": {
    "message": "Προσπάθειες αποτύπωσης",
    "description": "Message for the fingerprinting attempts blocked panel"
  },
  "scriptsOnThisSite": {
    "message": "Δέσμες ενεργειών σε αυτήν την ιστοσελίδα",
    "description": "Message for the script resources blocked panel"
  },
  "blockedScripts": {
    "message": "Αποκλεισμένες δέσμες ενεργειών",
    "description": "Message for the script resources blocked"
  },
  "allowedScripts": {
    "message": "Επιτρεπόμενες δέσμες ενεργειών",
    "description": "Message for the script resources allowed"
  },
  "blockAll": {
    "message": "Αποκλεισμός όλων",
    "description": "Message for the resources blocked *block all* option"
  },
  "allowAll": {
    "message": "Να επιτρέπονται όλα",
    "description": "Message for the resources blocked *allow all* option"
  },
  "block": {
    "message": "Αποκλεισμός",
    "description": "Message for the resources blocked *block* option"
  },
  "allow": {
    "message": "Να επιτρέπεται",
    "description": "Message for the resources blocked *allow* option"
  },
  "blockedOnce": {
    "message": "Αποκλείστηκε μία φορά",
    "description": "Message for the resources blocked *blocked once* option"
  },
  "allowedOnce": {
    "message": "Επιτράπηκε μία φορά",
    "description": "Message for the resources blocked *allowed once* option"
  },
  "allowScriptsOnce": {
    "message": "Να επιτρέπονται οι δέσμες ενεργειών μία φορά",
    "description": "Message for the shortcut in the main interface to allow all scripts once"
  },
  "cancel": {
    "message": "Ακύρωση",
    "description": "Message for the button inside the static list of resources blocked to cancel the operation"
  },
  "goBack": {
    "message": "Πίσω",
    "description": "Message for the button inside the static list of resources blocked to go back from the current screen"
  },
  "applyOnce": {
    "message": "Εφαρμόστε μία φορά",
    "description": "Message for action in dynamic list of resources blocked to *apply once*"
  },
  "changeDefaults": {
    "message": "Αλλάξτε τις προεπιλογές καθολικής ασπίδας",
    "description": "Message for the button action linking to the settings page"
  },
  "manageCustomFilters": {
    "message": "Διαχείριση προσαρμοσμένων φίλτρων",
    "description": "Message for context menu that opens a page for adding, editing, and removing custom cosmetic filters"
  },
  "elementPickerMode": {
    "message": "Αποκλεισμός στοιχείου",
    "description": "Message for context menu that enables the element picker UI to apply cosmetic filter rules to the page."
  },
  "advancedView": {
    "message": "Προβολή για Προχωρημένους",
    "description": "Message for the advanced view option"
  },
  "simpleView": {
    "message": "Απλή προβολή",
    "description": "Message for the simple view option"
  },
  "shieldsExplanation": {
    "message": "Οι ιστοσελίδες περιλαμβάνουν συχνά cookies και δέσμες ενεργειών που προσπαθούν να αναγνωρίσουν εσάς και τη συσκευή σας (συχνά ενσωματωμένα σε διαφημίσεις). Θέλουν να βρουν ποιος είστε και σας ακολουθούν στον ιστό — παρακολουθώντας τι κάνετε σε κάθε ιστοσελίδα. Το Shunya αποκλείει αυτά τα πράγματα έτσι ώστε να μπορείτε να περιηγείστε χωρίς να σας ακολουθούν.",
    "description": "Message in read-only view explaining what Shunya Shields do"
  },
  "blockedResoucesExplanation": {
    "message": "Αποκλείστηκαν οι διατοποθεσιακοί ιχνηλάτες και άλλα ανατριχιαστικά πράγματα",
    "description": "Message for the main trackers count in Shields simple view"
  },
  "webCompatWarning": {
    "message": "Η αλλαγή των ρυθμίσεων Ασπίδων σ' αυτήν την προβολή μπορεί να επηρεάσει τη συμβατότητα με τον ιστό σ' αυτήν την ιστοσελίδα.",
    "description": "Message for web compat warning when switching from simple to advanced view"
  },
  "gotIt": {
    "message": "Κατάλαβα!",
    "description": "Message for the button that confirms the advanced view"
  },
  "learnMore": {
    "message": "Μάθετε περισσότερα",
    "description": "Message inviting the user to learn more about Shields"
  },
  "addToShunya": {
    "message": "Προσθήκη στο Shunya",
    "description": "Message for adding an extension to Shunya"
  },
  "removeFromShunya": {
    "message": "Κατάργηση από το Shunya",
    "description": "Message for removing an extension from Shunya"
  },
  "addToChrome": {
    "message": "ΠΡΟΣΘΗΚH",
    "description": "Message for adding an extension to Chrome"
  },
  "removeFromChrome": {
    "message": "Κατάργηση από το Chrome",
    "description": "Message for removing an extension from Chrome"
  }
}
