{
  "appName": {
    "message": "Die Shunya-uitbreiding",
    "description": "The name of the the extension."
  },
  "shields": {
    "message": "Skilde",
    "description": "The Shields feature name"
  },
  "up": {
    "message": "aan",
    "description": "Message for when shields is enabled"
  },
  "down": {
    "message": "af",
    "description": "Message for when shields is disabled"
  },
  "forThisSite": {
    "message": "vir hierdie werf",
    "description": "Partial string for the phrase `shields is up *for this site*`"
  },
  "enabledMessage": {
    "message": "As 'n webwerf stukkend voorkom, probeer met skilde af",
    "description": "Message telling the user to disable shields if a site appears broken"
  },
  "disabledMessage": {
    "message": "U blaai deur hierdie werf sonder Shunya se privaatheid- of sekuriteitsbeskerming. Werk dit nie reg wanneer die skild op is nie?",
    "description": "Message telling the user that shields are disabled, and prompting them towards reporting an issue if necessary"
  },
  "reportBrokenSite": {
    "message": "Rapporteer ’n stukkende werf",
    "description": "Message for the button allowing users to report a broken site to Shunya developers"
  },
  "itemsBlocked": {
    "message": "Items versper",
    "description": "Message for the main blocked resources text when there is more than one ad/track/script blocked (plural)"
  },
  "itemBlocked": {
    "message": "Item versper",
    "description": "Message for the main blocked resources text when there is one ad/track/script blocked (singular)"
  },
  "and": {
    "message": "en",
    "description": "Message for the `and` conjunction. Used to connect grammatically the `item blocked and connection upgrades` and its variant phrases"
  },
  "connectionsUpgraded": {
    "message": "connections upgraded",
    "description": "Message for the main blocked resources text when there is at least one ad/track/script blocked and more than one connection upgrade (plural)"
  },
  "connectionUpgraded": {
    "message": "connection upgraded",
    "description": "Message for the main blocked resources text when there is at least one ad/track/script blocked and one connection upgrade (singular)"
  },
  "thirdPartyTrackersBlocked": {
    "message": "Cross-site trackers blocked",
    "description": "Message for the scripts blocked row label"
  },
  "readOnlyAdsTrackersBlocking": {
    "message": "Trackers & ads blocked",
    "description": "Message for the option in the ads and trackers blocking select field in read only view"
  },
  "aggressiveAdsTrackersBlocking": {
    "message": "Trackers & ads blocked (aggressive)",
    "description": "Message for the option in the ads and trackers blocking select field to block ads and trackers with aggressive heuristics"
  },
  "standardAdsTrackersBlocking": {
    "message": "Trackers & ads blocked (standard)",
    "description": "Message for the option in the ads and trackers blocking select field to block ads and trackers with standard heuristics"
  },
  "allowAdsTrackers": {
    "message": "Allow all trackers & ads",
    "description": "Message for the option in the ads and trackers blocking select field to allow all ads and trackers"
  },
  "connectionsUpgradedHTTPS": {
    "message": "Connections upgraded to HTTPS",
    "description": "Message for the connections upgraded row label and for the main blocked resources text when there is more than one connection upgraded (plural) and no other ads/trackers blocked"
  },
  "connectionUpgradedHTTPS": {
    "message": "Connection upgraded to HTTPS",
    "description": "Message for the main blocked resources text when there is one connection upgraded (singular) and no other ads/trackers blocked"
  },
  "scriptsBlocked": {
    "message": "Skripte versper",
    "description": "Message for the scripts blocked row label"
  },
  "thirdPartyCookiesBlocked": {
    "message": "Cross-site cookies blocked",
    "description": "Message for the option in the cookies select field to block all 3rd party cookies"
  },
  "allCookiesBlocked": {
    "message": "Koekies is versper",
    "description": "Message for the option in the cookies select field to block all cookies"
  },
  "allCookiesAllowed": {
    "message": "Alle koekies toegelaat",
    "description": "Message for the option in the cookies select field to allow all cookies"
  },
  "readOnlyFingerprinting": {
    "message": "Fingerprinting blocked",
    "description": "Message for the option in the fingerprinting field in read only view"
  },
  "standardFingerprinting": {
    "message": "Fingerprinting blocked (standard)",
    "description": "Message for the option in the fingerprinting select field to block all 3rd party recognition attempts"
  },
  "strictFingerprinting": {
    "message": "Fingerprinting blocked (strict, may break sites)",
    "description": "Message for the option in the fingerprinting select field to block all fingerprinting attempts"
  },
  "allowAllFingerprinting": {
    "message": "Allow all fingerprinting",
    "description": "Message for the option in the fingerprinting select field to allow all fingerprinting attempts"
  },
  "deviceRecognitionAttempts": {
    "message": "Fingerprinting attempts",
    "description": "Message for the fingerprinting attempts blocked panel"
  },
  "scriptsOnThisSite": {
    "message": "Skripte op hierdie werf",
    "description": "Message for the script resources blocked panel"
  },
  "blockedScripts": {
    "message": "Versperde skripte",
    "description": "Message for the script resources blocked"
  },
  "allowedScripts": {
    "message": "Toegelate skripte",
    "description": "Message for the script resources allowed"
  },
  "blockAll": {
    "message": "Versper alles",
    "description": "Message for the resources blocked *block all* option"
  },
  "allowAll": {
    "message": "Staan alles toe",
    "description": "Message for the resources blocked *allow all* option"
  },
  "block": {
    "message": "Versper",
    "description": "Message for the resources blocked *block* option"
  },
  "allow": {
    "message": "Staan Toe",
    "description": "Message for the resources blocked *allow* option"
  },
  "blockedOnce": {
    "message": "Blocked once",
    "description": "Message for the resources blocked *blocked once* option"
  },
  "allowedOnce": {
    "message": "Allowed once",
    "description": "Message for the resources blocked *allowed once* option"
  },
  "allowScriptsOnce": {
    "message": "Allow scripts once",
    "description": "Message for the shortcut in the main interface to allow all scripts once"
  },
  "cancel": {
    "message": "Kanselleer",
    "description": "Message for the button inside the static list of resources blocked to cancel the operation"
  },
  "goBack": {
    "message": "Gaan terug",
    "description": "Message for the button inside the static list of resources blocked to go back from the current screen"
  },
  "applyOnce": {
    "message": "Pas eenmalig toe",
    "description": "Message for action in dynamic list of resources blocked to *apply once*"
  },
  "changeDefaults": {
    "message": "Change global shield defaults",
    "description": "Message for the button action linking to the settings page"
  },
  "manageCustomFilters": {
    "message": "Manage custom filters",
    "description": "Message for context menu that opens a page for adding, editing, and removing custom cosmetic filters"
  },
  "elementPickerMode": {
    "message": "Block element",
    "description": "Message for context menu that enables the element picker UI to apply cosmetic filter rules to the page."
  },
  "advancedView": {
    "message": "Gevorderde Aansig",
    "description": "Message for the advanced view option"
  },
  "simpleView": {
    "message": "Eenvoudige Aansig",
    "description": "Message for the simple view option"
  },
  "shieldsExplanation": {
    "message": "Werwe sluit dikwels koekies en skripte in wat u en u toestel probeer identifiseer (dikwels by advertensies ingebed). Hulle probeer vasstel wie u is en volg u regoor die web — spoor na wat u op elke werf doen. Shunya versper hierdie dinge sodat u kan blaai sonder om agtervolg te word.",
    "description": "Message in read-only view explaining what Shunya Shields do"
  },
  "blockedResoucesExplanation": {
    "message": "Cross-site trackers and other creepy things blocked",
    "description": "Message for the main trackers count in Shields simple view"
  },
  "webCompatWarning": {
    "message": "Changing Shield settings in this view may affect web compatibility on this site.",
    "description": "Message for web compat warning when switching from simple to advanced view"
  },
  "gotIt": {
    "message": "Het dit",
    "description": "Message for the button that confirms the advanced view"
  },
  "learnMore": {
    "message": "Leer meer",
    "description": "Message inviting the user to learn more about Shields"
  },
  "addToShunya": {
    "message": "Voeg toe tot Shunya",
    "description": "Message for adding an extension to Shunya"
  },
  "removeFromShunya": {
    "message": "Verwyder uit Shunya",
    "description": "Message for removing an extension from Shunya"
  },
  "addToChrome": {
    "message": "Toev. aan Chrome",
    "description": "Message for adding an extension to Chrome"
  },
  "removeFromChrome": {
    "message": "Verwijderen uit Chrome",
    "description": "Message for removing an extension from Chrome"
  }
}
