<?xml version='1.0' encoding='UTF-8'?>
<!-- android_chrome_strings.grd contains strings for tab ui DFM of Shunya for Android. -->
<grit current_release="1" latest_public_release="0" output_all_resource_defines="false">
  <translations>
    <file path="translations/android_chrome_tab_ui_strings_override_af.xtb" lang="af" />
    <file path="translations/android_chrome_tab_ui_strings_override_am.xtb" lang="am" />
    <file path="translations/android_chrome_tab_ui_strings_override_ar.xtb" lang="ar" />
    <file path="translations/android_chrome_tab_ui_strings_override_as.xtb" lang="as" />
    <file path="translations/android_chrome_tab_ui_strings_override_az.xtb" lang="az" />
    <file path="translations/android_chrome_tab_ui_strings_override_be.xtb" lang="be" />
    <file path="translations/android_chrome_tab_ui_strings_override_bg.xtb" lang="bg" />
    <file path="translations/android_chrome_tab_ui_strings_override_bn.xtb" lang="bn" />
    <file path="translations/android_chrome_tab_ui_strings_override_bs.xtb" lang="bs" />
    <file path="translations/android_chrome_tab_ui_strings_override_ca.xtb" lang="ca" />
    <file path="translations/android_chrome_tab_ui_strings_override_cs.xtb" lang="cs" />
    <file path="translations/android_chrome_tab_ui_strings_override_cy.xtb" lang="cy" />
    <file path="translations/android_chrome_tab_ui_strings_override_da.xtb" lang="da" />
    <file path="translations/android_chrome_tab_ui_strings_override_de.xtb" lang="de" />
    <file path="translations/android_chrome_tab_ui_strings_override_el.xtb" lang="el" />
    <file path="translations/android_chrome_tab_ui_strings_override_en-GB.xtb" lang="en-GB" />
    <file path="translations/android_chrome_tab_ui_strings_override_es.xtb" lang="es" />
    <file path="translations/android_chrome_tab_ui_strings_override_es-419.xtb" lang="es-419" />
    <file path="translations/android_chrome_tab_ui_strings_override_et.xtb" lang="et" />
    <file path="translations/android_chrome_tab_ui_strings_override_eu.xtb" lang="eu" />
    <file path="translations/android_chrome_tab_ui_strings_override_fa.xtb" lang="fa" />
    <file path="translations/android_chrome_tab_ui_strings_override_fi.xtb" lang="fi" />
    <file path="translations/android_chrome_tab_ui_strings_override_fil.xtb" lang="fil" />
    <file path="translations/android_chrome_tab_ui_strings_override_fr.xtb" lang="fr" />
    <file path="translations/android_chrome_tab_ui_strings_override_fr-CA.xtb" lang="fr-CA" />
    <file path="translations/android_chrome_tab_ui_strings_override_gl.xtb" lang="gl" />
    <file path="translations/android_chrome_tab_ui_strings_override_gu.xtb" lang="gu" />
    <file path="translations/android_chrome_tab_ui_strings_override_hi.xtb" lang="hi" />
    <file path="translations/android_chrome_tab_ui_strings_override_hr.xtb" lang="hr" />
    <file path="translations/android_chrome_tab_ui_strings_override_hu.xtb" lang="hu" />
    <file path="translations/android_chrome_tab_ui_strings_override_hy.xtb" lang="hy" />
    <file path="translations/android_chrome_tab_ui_strings_override_id.xtb" lang="id" />
    <file path="translations/android_chrome_tab_ui_strings_override_is.xtb" lang="is" />
    <file path="translations/android_chrome_tab_ui_strings_override_it.xtb" lang="it" />
    <file path="translations/android_chrome_tab_ui_strings_override_iw.xtb" lang="iw" />
    <file path="translations/android_chrome_tab_ui_strings_override_ja.xtb" lang="ja" />
    <file path="translations/android_chrome_tab_ui_strings_override_ka.xtb" lang="ka" />
    <file path="translations/android_chrome_tab_ui_strings_override_kk.xtb" lang="kk" />
    <file path="translations/android_chrome_tab_ui_strings_override_km.xtb" lang="km" />
    <file path="translations/android_chrome_tab_ui_strings_override_kn.xtb" lang="kn" />
    <file path="translations/android_chrome_tab_ui_strings_override_ko.xtb" lang="ko" />
    <file path="translations/android_chrome_tab_ui_strings_override_ky.xtb" lang="ky" />
    <file path="translations/android_chrome_tab_ui_strings_override_lo.xtb" lang="lo" />
    <file path="translations/android_chrome_tab_ui_strings_override_lt.xtb" lang="lt" />
    <file path="translations/android_chrome_tab_ui_strings_override_lv.xtb" lang="lv" />
    <file path="translations/android_chrome_tab_ui_strings_override_mk.xtb" lang="mk" />
    <file path="translations/android_chrome_tab_ui_strings_override_ml.xtb" lang="ml" />
    <file path="translations/android_chrome_tab_ui_strings_override_mn.xtb" lang="mn" />
    <file path="translations/android_chrome_tab_ui_strings_override_mr.xtb" lang="mr" />
    <file path="translations/android_chrome_tab_ui_strings_override_ms.xtb" lang="ms" />
    <file path="translations/android_chrome_tab_ui_strings_override_my.xtb" lang="my" />
    <file path="translations/android_chrome_tab_ui_strings_override_ne.xtb" lang="ne" />
    <file path="translations/android_chrome_tab_ui_strings_override_nl.xtb" lang="nl" />
    <file path="translations/android_chrome_tab_ui_strings_override_no.xtb" lang="no" />
    <file path="translations/android_chrome_tab_ui_strings_override_or.xtb" lang="or" />
    <file path="translations/android_chrome_tab_ui_strings_override_pa.xtb" lang="pa" />
    <file path="translations/android_chrome_tab_ui_strings_override_pl.xtb" lang="pl" />
    <file path="translations/android_chrome_tab_ui_strings_override_pt-BR.xtb" lang="pt-BR" />
    <file path="translations/android_chrome_tab_ui_strings_override_pt-PT.xtb" lang="pt-PT" />
    <file path="translations/android_chrome_tab_ui_strings_override_ro.xtb" lang="ro" />
    <file path="translations/android_chrome_tab_ui_strings_override_ru.xtb" lang="ru" />
    <file path="translations/android_chrome_tab_ui_strings_override_si.xtb" lang="si" />
    <file path="translations/android_chrome_tab_ui_strings_override_sk.xtb" lang="sk" />
    <file path="translations/android_chrome_tab_ui_strings_override_sl.xtb" lang="sl" />
    <file path="translations/android_chrome_tab_ui_strings_override_sq.xtb" lang="sq" />
    <file path="translations/android_chrome_tab_ui_strings_override_sr.xtb" lang="sr" />
    <file path="translations/android_chrome_tab_ui_strings_override_sr-Latn.xtb" lang="sr-Latn" />
    <file path="translations/android_chrome_tab_ui_strings_override_sv.xtb" lang="sv" />
    <file path="translations/android_chrome_tab_ui_strings_override_sw.xtb" lang="sw" />
    <file path="translations/android_chrome_tab_ui_strings_override_ta.xtb" lang="ta" />
    <file path="translations/android_chrome_tab_ui_strings_override_te.xtb" lang="te" />
    <file path="translations/android_chrome_tab_ui_strings_override_th.xtb" lang="th" />
    <file path="translations/android_chrome_tab_ui_strings_override_tr.xtb" lang="tr" />
    <file path="translations/android_chrome_tab_ui_strings_override_uk.xtb" lang="uk" />
    <file path="translations/android_chrome_tab_ui_strings_override_ur.xtb" lang="ur" />
    <file path="translations/android_chrome_tab_ui_strings_override_uz.xtb" lang="uz" />
    <file path="translations/android_chrome_tab_ui_strings_override_vi.xtb" lang="vi" />
    <file path="translations/android_chrome_tab_ui_strings_override_zh-CN.xtb" lang="zh-CN" />
    <file path="translations/android_chrome_tab_ui_strings_override_zh-HK.xtb" lang="zh-HK" />
    <file path="translations/android_chrome_tab_ui_strings_override_zh-TW.xtb" lang="zh-TW" />
    <file path="translations/android_chrome_tab_ui_strings_override_zu.xtb" lang="zu" />
  </translations>
  <release seq="1">
    <messages fallback_to_english="true">
      <message name="IDS_CLOSE_ALL_TABS_DIALOG_MESSAGE_WITH_INCOGNITO_TABS" desc="When users click the menu item 'Close all tabs' in tab switcher, a dialog will pop up and this text is the message of the dialog. If there are any Private tabs opened this message would warn users that those Private tabs would be lost.">
      {INCOGNITO_TABS_COUNT, plural,
        =1 {You can find your closed tabs in Recent tabs under the Shunya main menu. Your Private tab won't be available.}
        other {You can find your closed tabs in Recent tabs under the Shunya main menu. Your # Private tabs won't be available.}}
      </message>
      <message name="IDS_CLOSE_ALL_TABS_DIALOG_TITLE_INCOGNITO" desc="When users click the menu item 'Close all tabs' in Private tab switcher, a dialog will pop up and this text is the title of the dialog.">
        Close all Private tabs?
      </message>
      <message name="IDS_CLOSE_ALL_TABS_DIALOG_MESSAGE_INCOGNITO" desc="When users click the menu item 'Close all tabs' in Private tab switcher, a dialog will pop up and this text is the message of the dialog.">
        Your activity in these Private tabs will be removed from this device
      </message>
    </messages>
  </release>
</grit>
