<?xml version='1.0' encoding='UTF-8'?>
<!-- android_chrome_strings.grd contains strings for tab ui DFM of Shunya for Android. -->
<!--This file is created by l10nUtil.js. Do not edit manually.-->
<grit current_release="1" latest_public_release="0" output_all_resource_defines="false">
  <outputs>
    <output filename="values-af/android_chrome_tab_ui_strings.xml" lang="af" type="android" />
    <output filename="values-am/android_chrome_tab_ui_strings.xml" lang="am" type="android" />
    <output filename="values-ar/android_chrome_tab_ui_strings.xml" lang="ar" type="android" />
    <output filename="values-as/android_chrome_tab_ui_strings.xml" lang="as" type="android" />
    <output filename="values-az/android_chrome_tab_ui_strings.xml" lang="az" type="android" />
    <output filename="values-be/android_chrome_tab_ui_strings.xml" lang="be" type="android" />
    <output filename="values-bg/android_chrome_tab_ui_strings.xml" lang="bg" type="android" />
    <output filename="values-bn/android_chrome_tab_ui_strings.xml" lang="bn" type="android" />
    <output filename="values-bs/android_chrome_tab_ui_strings.xml" lang="bs" type="android" />
    <output filename="values-ca/android_chrome_tab_ui_strings.xml" lang="ca" type="android" />
    <output filename="values-cs/android_chrome_tab_ui_strings.xml" lang="cs" type="android" />
    <output filename="values-da/android_chrome_tab_ui_strings.xml" lang="da" type="android" />
    <output filename="values-de/android_chrome_tab_ui_strings.xml" lang="de" type="android" />
    <output filename="values-el/android_chrome_tab_ui_strings.xml" lang="el" type="android" />
    <output filename="values/android_chrome_tab_ui_strings.xml" lang="en" type="android" />
    <output filename="values-en-rGB/android_chrome_tab_ui_strings.xml" lang="en-GB" type="android" />
    <output filename="values-es/android_chrome_tab_ui_strings.xml" lang="es" type="android" />
    <output filename="values-es-rUS/android_chrome_tab_ui_strings.xml" lang="es-419" type="android" />
    <output filename="values-et/android_chrome_tab_ui_strings.xml" lang="et" type="android" />
    <output filename="values-eu/android_chrome_tab_ui_strings.xml" lang="eu" type="android" />
    <output filename="values-fa/android_chrome_tab_ui_strings.xml" lang="fa" type="android" />
    <output filename="values-fi/android_chrome_tab_ui_strings.xml" lang="fi" type="android" />
    <output filename="values-tl/android_chrome_tab_ui_strings.xml" lang="fil" type="android" />
    <output filename="values-fr/android_chrome_tab_ui_strings.xml" lang="fr" type="android" />
    <output filename="values-fr-rCA/android_chrome_tab_ui_strings.xml" lang="fr-CA" type="android" />
    <output filename="values-gl/android_chrome_tab_ui_strings.xml" lang="gl" type="android" />
    <output filename="values-gu/android_chrome_tab_ui_strings.xml" lang="gu" type="android" />
    <output filename="values-hi/android_chrome_tab_ui_strings.xml" lang="hi" type="android" />
    <output filename="values-hr/android_chrome_tab_ui_strings.xml" lang="hr" type="android" />
    <output filename="values-hu/android_chrome_tab_ui_strings.xml" lang="hu" type="android" />
    <output filename="values-hy/android_chrome_tab_ui_strings.xml" lang="hy" type="android" />
    <output filename="values-in/android_chrome_tab_ui_strings.xml" lang="id" type="android" />
    <output filename="values-is/android_chrome_tab_ui_strings.xml" lang="is" type="android" />
    <output filename="values-it/android_chrome_tab_ui_strings.xml" lang="it" type="android" />
    <output filename="values-iw/android_chrome_tab_ui_strings.xml" lang="iw" type="android" />
    <output filename="values-ja/android_chrome_tab_ui_strings.xml" lang="ja" type="android" />
    <output filename="values-ka/android_chrome_tab_ui_strings.xml" lang="ka" type="android" />
    <output filename="values-kk/android_chrome_tab_ui_strings.xml" lang="kk" type="android" />
    <output filename="values-km/android_chrome_tab_ui_strings.xml" lang="km" type="android" />
    <output filename="values-kn/android_chrome_tab_ui_strings.xml" lang="kn" type="android" />
    <output filename="values-ko/android_chrome_tab_ui_strings.xml" lang="ko" type="android" />
    <output filename="values-ky/android_chrome_tab_ui_strings.xml" lang="ky" type="android" />
    <output filename="values-lo/android_chrome_tab_ui_strings.xml" lang="lo" type="android" />
    <output filename="values-lt/android_chrome_tab_ui_strings.xml" lang="lt" type="android" />
    <output filename="values-lv/android_chrome_tab_ui_strings.xml" lang="lv" type="android" />
    <output filename="values-mk/android_chrome_tab_ui_strings.xml" lang="mk" type="android" />
    <output filename="values-ml/android_chrome_tab_ui_strings.xml" lang="ml" type="android" />
    <output filename="values-mn/android_chrome_tab_ui_strings.xml" lang="mn" type="android" />
    <output filename="values-mr/android_chrome_tab_ui_strings.xml" lang="mr" type="android" />
    <output filename="values-ms/android_chrome_tab_ui_strings.xml" lang="ms" type="android" />
    <output filename="values-my/android_chrome_tab_ui_strings.xml" lang="my" type="android" />
    <output filename="values-ne/android_chrome_tab_ui_strings.xml" lang="ne" type="android" />
    <output filename="values-nl/android_chrome_tab_ui_strings.xml" lang="nl" type="android" />
    <output filename="values-nb/android_chrome_tab_ui_strings.xml" lang="no" type="android" />
    <output filename="values-or/android_chrome_tab_ui_strings.xml" lang="or" type="android" />
    <output filename="values-pa/android_chrome_tab_ui_strings.xml" lang="pa" type="android" />
    <output filename="values-pl/android_chrome_tab_ui_strings.xml" lang="pl" type="android" />
    <output filename="values-pt-rBR/android_chrome_tab_ui_strings.xml" lang="pt-BR" type="android" />
    <output filename="values-pt-rPT/android_chrome_tab_ui_strings.xml" lang="pt-PT" type="android" />
    <output filename="values-ro/android_chrome_tab_ui_strings.xml" lang="ro" type="android" />
    <output filename="values-ru/android_chrome_tab_ui_strings.xml" lang="ru" type="android" />
    <output filename="values-si/android_chrome_tab_ui_strings.xml" lang="si" type="android" />
    <output filename="values-sk/android_chrome_tab_ui_strings.xml" lang="sk" type="android" />
    <output filename="values-sl/android_chrome_tab_ui_strings.xml" lang="sl" type="android" />
    <output filename="values-sq/android_chrome_tab_ui_strings.xml" lang="sq" type="android" />
    <output filename="values-sr/android_chrome_tab_ui_strings.xml" lang="sr" type="android" />
    <output filename="values-b+sr+Latn/android_chrome_tab_ui_strings.xml" lang="sr-Latn" type="android" />
    <output filename="values-sv/android_chrome_tab_ui_strings.xml" lang="sv" type="android" />
    <output filename="values-sw/android_chrome_tab_ui_strings.xml" lang="sw" type="android" />
    <output filename="values-ta/android_chrome_tab_ui_strings.xml" lang="ta" type="android" />
    <output filename="values-te/android_chrome_tab_ui_strings.xml" lang="te" type="android" />
    <output filename="values-th/android_chrome_tab_ui_strings.xml" lang="th" type="android" />
    <output filename="values-tr/android_chrome_tab_ui_strings.xml" lang="tr" type="android" />
    <output filename="values-uk/android_chrome_tab_ui_strings.xml" lang="uk" type="android" />
    <output filename="values-ur/android_chrome_tab_ui_strings.xml" lang="ur" type="android" />
    <output filename="values-uz/android_chrome_tab_ui_strings.xml" lang="uz" type="android" />
    <output filename="values-vi/android_chrome_tab_ui_strings.xml" lang="vi" type="android" />
    <output filename="values-zh-rCN/android_chrome_tab_ui_strings.xml" lang="zh-CN" type="android" />
    <output filename="values-zh-rHK/android_chrome_tab_ui_strings.xml" lang="zh-HK" type="android" />
    <output filename="values-zh-rTW/android_chrome_tab_ui_strings.xml" lang="zh-TW" type="android" />
    <output filename="values-zu/android_chrome_tab_ui_strings.xml" lang="zu" type="android" />
    <!-- Pseudolocales -->
    <output filename="values-ar-rXB/android_chrome_tab_ui_strings.xml" lang="ar-XB" type="android" />
    <output filename="values-en-rXA/android_chrome_tab_ui_strings.xml" lang="en-XA" type="android" />
  </outputs>
  <translations>
    <file path="translations/android_chrome_tab_ui_strings_af.xtb" lang="af" />
    <file path="translations/android_chrome_tab_ui_strings_am.xtb" lang="am" />
    <file path="translations/android_chrome_tab_ui_strings_ar.xtb" lang="ar" />
    <file path="translations/android_chrome_tab_ui_strings_as.xtb" lang="as" />
    <file path="translations/android_chrome_tab_ui_strings_az.xtb" lang="az" />
    <file path="translations/android_chrome_tab_ui_strings_be.xtb" lang="be" />
    <file path="translations/android_chrome_tab_ui_strings_bg.xtb" lang="bg" />
    <file path="translations/android_chrome_tab_ui_strings_bn.xtb" lang="bn" />
    <file path="translations/android_chrome_tab_ui_strings_bs.xtb" lang="bs" />
    <file path="translations/android_chrome_tab_ui_strings_ca.xtb" lang="ca" />
    <file path="translations/android_chrome_tab_ui_strings_cs.xtb" lang="cs" />
    <file path="translations/android_chrome_tab_ui_strings_cy.xtb" lang="cy" />
    <file path="translations/android_chrome_tab_ui_strings_da.xtb" lang="da" />
    <file path="translations/android_chrome_tab_ui_strings_de.xtb" lang="de" />
    <file path="translations/android_chrome_tab_ui_strings_el.xtb" lang="el" />
    <file path="translations/android_chrome_tab_ui_strings_en-GB.xtb" lang="en-GB" />
    <file path="translations/android_chrome_tab_ui_strings_es.xtb" lang="es" />
    <file path="translations/android_chrome_tab_ui_strings_es-419.xtb" lang="es-419" />
    <file path="translations/android_chrome_tab_ui_strings_et.xtb" lang="et" />
    <file path="translations/android_chrome_tab_ui_strings_eu.xtb" lang="eu" />
    <file path="translations/android_chrome_tab_ui_strings_fa.xtb" lang="fa" />
    <file path="translations/android_chrome_tab_ui_strings_fi.xtb" lang="fi" />
    <file path="translations/android_chrome_tab_ui_strings_fil.xtb" lang="fil" />
    <file path="translations/android_chrome_tab_ui_strings_fr.xtb" lang="fr" />
    <file path="translations/android_chrome_tab_ui_strings_fr-CA.xtb" lang="fr-CA" />
    <file path="translations/android_chrome_tab_ui_strings_gl.xtb" lang="gl" />
    <file path="translations/android_chrome_tab_ui_strings_gu.xtb" lang="gu" />
    <file path="translations/android_chrome_tab_ui_strings_hi.xtb" lang="hi" />
    <file path="translations/android_chrome_tab_ui_strings_hr.xtb" lang="hr" />
    <file path="translations/android_chrome_tab_ui_strings_hu.xtb" lang="hu" />
    <file path="translations/android_chrome_tab_ui_strings_hy.xtb" lang="hy" />
    <file path="translations/android_chrome_tab_ui_strings_id.xtb" lang="id" />
    <file path="translations/android_chrome_tab_ui_strings_is.xtb" lang="is" />
    <file path="translations/android_chrome_tab_ui_strings_it.xtb" lang="it" />
    <file path="translations/android_chrome_tab_ui_strings_iw.xtb" lang="iw" />
    <file path="translations/android_chrome_tab_ui_strings_ja.xtb" lang="ja" />
    <file path="translations/android_chrome_tab_ui_strings_ka.xtb" lang="ka" />
    <file path="translations/android_chrome_tab_ui_strings_kk.xtb" lang="kk" />
    <file path="translations/android_chrome_tab_ui_strings_km.xtb" lang="km" />
    <file path="translations/android_chrome_tab_ui_strings_kn.xtb" lang="kn" />
    <file path="translations/android_chrome_tab_ui_strings_ko.xtb" lang="ko" />
    <file path="translations/android_chrome_tab_ui_strings_ky.xtb" lang="ky" />
    <file path="translations/android_chrome_tab_ui_strings_lo.xtb" lang="lo" />
    <file path="translations/android_chrome_tab_ui_strings_lt.xtb" lang="lt" />
    <file path="translations/android_chrome_tab_ui_strings_lv.xtb" lang="lv" />
    <file path="translations/android_chrome_tab_ui_strings_mk.xtb" lang="mk" />
    <file path="translations/android_chrome_tab_ui_strings_ml.xtb" lang="ml" />
    <file path="translations/android_chrome_tab_ui_strings_mn.xtb" lang="mn" />
    <file path="translations/android_chrome_tab_ui_strings_mr.xtb" lang="mr" />
    <file path="translations/android_chrome_tab_ui_strings_ms.xtb" lang="ms" />
    <file path="translations/android_chrome_tab_ui_strings_my.xtb" lang="my" />
    <file path="translations/android_chrome_tab_ui_strings_ne.xtb" lang="ne" />
    <file path="translations/android_chrome_tab_ui_strings_nl.xtb" lang="nl" />
    <file path="translations/android_chrome_tab_ui_strings_no.xtb" lang="no" />
    <file path="translations/android_chrome_tab_ui_strings_or.xtb" lang="or" />
    <file path="translations/android_chrome_tab_ui_strings_pa.xtb" lang="pa" />
    <file path="translations/android_chrome_tab_ui_strings_pl.xtb" lang="pl" />
    <file path="translations/android_chrome_tab_ui_strings_pt-BR.xtb" lang="pt-BR" />
    <file path="translations/android_chrome_tab_ui_strings_pt-PT.xtb" lang="pt-PT" />
    <file path="translations/android_chrome_tab_ui_strings_ro.xtb" lang="ro" />
    <file path="translations/android_chrome_tab_ui_strings_ru.xtb" lang="ru" />
    <file path="translations/android_chrome_tab_ui_strings_si.xtb" lang="si" />
    <file path="translations/android_chrome_tab_ui_strings_sk.xtb" lang="sk" />
    <file path="translations/android_chrome_tab_ui_strings_sl.xtb" lang="sl" />
    <file path="translations/android_chrome_tab_ui_strings_sq.xtb" lang="sq" />
    <file path="translations/android_chrome_tab_ui_strings_sr.xtb" lang="sr" />
    <file path="translations/android_chrome_tab_ui_strings_sr-Latn.xtb" lang="sr-Latn" />
    <file path="translations/android_chrome_tab_ui_strings_sv.xtb" lang="sv" />
    <file path="translations/android_chrome_tab_ui_strings_sw.xtb" lang="sw" />
    <file path="translations/android_chrome_tab_ui_strings_ta.xtb" lang="ta" />
    <file path="translations/android_chrome_tab_ui_strings_te.xtb" lang="te" />
    <file path="translations/android_chrome_tab_ui_strings_th.xtb" lang="th" />
    <file path="translations/android_chrome_tab_ui_strings_tr.xtb" lang="tr" />
    <file path="translations/android_chrome_tab_ui_strings_uk.xtb" lang="uk" />
    <file path="translations/android_chrome_tab_ui_strings_ur.xtb" lang="ur" />
    <file path="translations/android_chrome_tab_ui_strings_uz.xtb" lang="uz" />
    <file path="translations/android_chrome_tab_ui_strings_vi.xtb" lang="vi" />
    <file path="translations/android_chrome_tab_ui_strings_zh-CN.xtb" lang="zh-CN" />
    <file path="translations/android_chrome_tab_ui_strings_zh-HK.xtb" lang="zh-HK" />
    <file path="translations/android_chrome_tab_ui_strings_zh-TW.xtb" lang="zh-TW" />
    <file path="translations/android_chrome_tab_ui_strings_zu.xtb" lang="zu" />
  </translations>
  <release seq="1">
    <messages fallback_to_english="true">
      <!-- In-Product Help strings -->
      <message name="IDS_IPH_TAB_GROUPS_QUICKLY_COMPARE_PAGES_TEXT" desc="When Shunya detects that the user is searching or comparing multiple pages (e.g. while comparison shopping), this in-product help text appears at the bottom of the screen. The text informs the user that they can longpress on a link to open it as a new tab within a tab group.">
        Quickly compare pages by making a group. To start, touch &amp; hold a link.
      </message>
      <message name="IDS_IPH_TAB_GROUPS_TAP_TO_SEE_ANOTHER_TAB_TEXT" desc="This in-product help text points to the strip of favicons at the bottom of the page. The favicons indicate all the open tabs within the tab group. The text informs the user that they can tap on any favicon to switch to that tab.">
        Tap to see another tab
      </message>
      <message name="IDS_IPH_TAB_GROUPS_YOUR_TABS_TOGETHER_TEXT" desc="This in-product help text points to a group of tabs within the Tab Switcher. The text informs the user that they can find existing tab groups in the Tab Switcher.">
        Your tabs are grouped together here
      </message>
      <message name="IDS_IPH_TAB_GROUPS_TAP_TO_SEE_ANOTHER_TAB_ACCESSIBILITY_TEXT" desc="This in-product help accessibility text points to the strip of favicons at the bottom of the page. The favicons indicate all the open tabs within the tab group. The text informs the user that they can tap on any favicon to switch to that tab.">
        Switch between tabs in your tab group near bottom of screen
      </message>

      <!-- Undo Bar -->
      <message name="IDS_UNDO_BAR_GROUP_TABS_MESSAGE" desc="Message shown or announced when a group has been created.">
        <ph name="TAB_COUNT">%1$s<ex>3</ex></ph> tabs grouped
      </message>

      <!-- Bottom Tab Grid strings -->
      <message name="IDS_BOTTOM_TAB_GRID_TITLE_PLACEHOLDER" desc="Placeholder string for the BottomTabGrid toolbar title.">
        <!-- <ph name="TABS_COUNT">%1$d<ex>5</ex></ph> tabs -->
        {TABS_COUNT, plural,
            =1 {<ph name="TABS_COUNT_ONE">%1$d<ex>1</ex></ph> tab}
            other {<ph name="TABS_COUNT_MANY">%1$d<ex>8</ex></ph> tabs}
        }
      </message>
      <message name="IDS_BOTTOM_TAB_GRID_NEW_TAB" desc="Accessibility string for BottomTabGridToolbar option 'create new tab in group' indicated visually by the '+' sign.">
        Add new tab to group
      </message>
      <message name="IDS_ACCESSIBILITY_BOTTOM_TAB_GRID_CLOSE_TAB_SHEET" desc="Accessibility string for BottomTabGridToolbar button indicated visually by the 'v' sign.">
        Hide fullscreen grid
      </message>

      <!-- Bottom Tab Strip strings -->
      <message name="IDS_ACCESSIBILITY_BOTTOM_TAB_STRIP_EXPAND_TAB_SHEET" desc="Accessibility string for BottomTabStripToolbar button indicated visually by the '^' sign.">
        Show group's tabs in fullscreen grid
      </message>

      <!-- Tab Group Tab Switcher strings -->
      <message name="IDS_TABSWITCHER_CREATE_GROUP" desc="This flat button is shown in the Tab Switcher, under an open tab. When the user taps the button, Shunya creates a new group of tabs that includes the existing tab. It's okay to use any of the following verbs in order to keep the text under 45 characters: Create, Make, Add.">
        Create group
      </message>
      <message name="IDS_ACCESSIBILITY_TAB_SWITCHER" desc="Accessibility string for Tab Switcher view. This string is announced when the Tab Switcher is shown to screen.">
        Tab Switcher
      </message>
      <message name="IDS_ACCESSIBILITY_CLOSE_TAB_GROUP_BUTTON" desc="The accessibility text to read when the close button on a card representing a tab group is focused in grid tab switcher. When this close button is tapped, all tabs within the tab group will be closed. NUMBER_OF_TABS is the number of tabs within this group. Note that there are always at least two tabs in a group so plural form should always be used.">
        Close tab group with <ph name="NUMBER_OF_TABS">%1$s<ex>2</ex></ph> tabs
      </message>
      <message name="IDS_ACCESSIBILITY_CLOSE_TAB_GROUP_BUTTON_WITH_GROUP_NAME" desc="The accessibility text to read when the close button on a card representing a tab group is focused in grid tab switcher. When this close button is tapped, all tabs within the tab group will be closed. TITLE_OF_GROUP is the title of the group. NUMBER_OF_TABS is the number of tabs within this group. Note that there are always at least two tabs in a group so plural form should always be used.">
        Close <ph name="TITLE_OF_GROUP">%1$s<ex>shopping</ex></ph> group with <ph name="NUMBER_OF_TABS">%2$s<ex>2</ex></ph> tabs
      </message>

      <!-- Tab Selection Editor strings -->
      <message name="IDS_TAB_SELECTION_EDITOR_TOOLBAR_SELECT_TABS" desc="Label shown on Tab Selection Editor Toolbar asking user to select tabs from the list.">
        Select tabs
      </message>
      <message name="IDS_ACCESSIBILITY_TAB_SELECTION_EDITOR_BACK_BUTTON" desc="Accessibility string for the back button in the Tab Selection Editor Toolbar. Tap this button to exit out of the multi-select mode">
        Hide multi-select mode
      </message>
      <message name="IDS_ACCESSIBILITY_TAB_SELECTION_EDITOR" desc="Accessibility string for Tab Selection Editor view. This string is announced when the Tab Selection Editor is shown to screen.">
        Multi-select mode
      </message>
      <!-- Tab Selection Editor V2 strings -->
      <message name="IDS_TAB_SELECTION_EDITOR_SELECT_ALL" desc="This text button is shown in the Tab Selection Editor Toolbar. When the user taps the button, Shunya selects all the tabs shown in the editor. [CHAR_LIMIT=27]">
        Select all
      </message>
      <message name="IDS_TAB_SELECTION_EDITOR_DESELECT_ALL" desc="This text button is shown in the Tab Selection Editor Toolbar. When the user taps the button, Shunya deselects all the tabs shown in the editor. [CHAR_LIMIT=27]">
        Deselect all
      </message>
      <message name="IDS_TAB_SELECTION_EDITOR_SHARE_TABS_ACTION_BUTTON" desc="This text button is shown in the Tab Selection Editor Toolbar. When the user taps the button, Shunya shares all currently selected tabs shown in the editor. [CHAR_LIMIT=27]">
        {TABS_COUNT, plural,
          =1 {Share tab}
          other {Share tabs}
        }
      </message>
      <message name="IDS_ACCESSIBILITY_TAB_SELECTION_EDITOR_SHARE_TABS_ACTION_BUTTON" desc="The accessibility string for the share button in the Tab Selection Editor Toolbar. Tap this button to share all selected tabs.">
        {TABS_COUNT, plural,
          =1 {Share <ph name="TABS_COUNT_ONE">%1$d<ex>1</ex></ph> selected tab}
          other {Share <ph name="TABS_COUNT_MANY">%1$d<ex>8</ex></ph> selected tabs}
        }
      </message>
      <message name="IDS_TAB_SELECTION_EDITOR_SHARE_SHEET_PREVIEW_MESSAGE" desc="When users click the menu item 'Share tab(s)' in the Tab Selection Editor Toolbar, a share sheet will pop up and this text is the preview message of the share sheet. [CHAR_LIMIT=27]">
        {TABS_COUNT, plural,
          =1 {<ph name="TABS_COUNT_ONE">%1$d<ex>1</ex></ph> link from Shunya}
          other {<ph name="TABS_COUNT_MANY">%1$d<ex>8</ex></ph> links from Shunya}
        }
      </message>
      <message name="IDS_TAB_SELECTION_EDITOR_SHARE_SHEET_PREVIEW_THUMBNAIL" desc="When users click the menu item 'Share tab(s)' in the Tab SelectionEditor Toolbar, a share sheet will pop up and this text is the name for the thumbnail of the share sheet preview. [CHAR_LIMIT=27]">
        Thumbnail for share sheet preview.
      </message>
      <message name="IDS_TAB_SELECTION_EDITOR_BOOKMARK_TABS_ACTION_BUTTON" desc="This text button is shown in the Tab Selection Editor Toolbar. When the user taps the button, Shunya bookmarks all currently selected tabs shown in the editor. [CHAR_LIMIT=27]">
        {TABS_COUNT, plural,
          =1 {Bookmark tab}
          other {Bookmark tabs}
        }
      </message>
      <message name="IDS_ACCESSIBILITY_TAB_SELECTION_EDITOR_BOOKMARK_TABS_ACTION_BUTTON" desc="The accessibility string for the share button in the Tab Selection Editor Toolbar. Tap this button to bookmark all selected tabs.">
        {TABS_COUNT, plural,
          =1 {Bookmark <ph name="TABS_COUNT_ONE">%1$d<ex>1</ex></ph> selected tab}
          other {Bookmark <ph name="TABS_COUNT_MANY">%1$d<ex>8</ex></ph> selected tabs}
        }
      </message>
      <message name="IDS_TAB_SELECTION_EDITOR_TABS_COUNT" desc="The text for the selection counter shown in the Tab Selection Editor Toolbar. This shows the number of selected tabs including those within selected groups.">
        {TABS_COUNT, plural,
          =1 {<ph name="TABS_COUNT_ONE">%1$d<ex>1</ex></ph> tab}
          other {<ph name="TABS_COUNT_MANY">%1$d<ex>8</ex></ph> tabs}
        }
      </message>
      <message name="IDS_TAB_SELECTION_EDITOR_GROUP_TABS" desc="This text menu item is shown in the Tab Selection Editor menu. 'Group' is a verb. When the user taps the menu item, Shunya creates a new group that contains the selected tabs. [CHAR_LIMIT=27]">
        {TABS_COUNT, plural,
          =1 {Group tab}
          other {Group tabs}
        }
      </message>
      <message name="IDS_ACCESSIBILITY_TAB_SELECTION_EDITOR_GROUP_TABS" desc="The accessibility text to read when the 'Group tabs' menu item in the selection mode menu is focused. When this menu item is tapped, all the selected tabs will be grouped together.">
        {TABS_COUNT, plural,
          =1 {Group <ph name="TABS_COUNT_ONE">%1$d<ex>1</ex></ph> selected tab}
          other {Group <ph name="TABS_COUNT_MANY">%1$d<ex>8</ex></ph> selected tabs}
        }
      </message>
      <message name="IDS_TAB_SELECTION_EDITOR_UNGROUP_TABS" desc="This text menu item is shown in the Tab Selection Editor menu. 'Ungroup' is a verb. When the user taps the menu item, Shunya removes the selected tabs from the group. [CHAR_LIMIT=27]">
        {TABS_COUNT, plural,
          =1 {Ungroup tab}
          other {Ungroup tabs}
        }
      </message>
      <message name="IDS_ACCESSIBILITY_TAB_SELECTION_EDITOR_UNGROUP_TABS" desc="The accessibility text to read when the 'Ungroup tabs' menu item in the selection mode menu is focused. When this menu item is tapped, all the selected tabs will be ungroup.">
        {TABS_COUNT, plural,
          =1 {Ungroup <ph name="TABS_COUNT_ONE">%1$d<ex>1</ex></ph> selected tab}
          other {Ungroup <ph name="TABS_COUNT_MANY">%1$d<ex>8</ex></ph> selected tabs}
        }
      </message>
      <message name="IDS_TAB_SELECTION_EDITOR_CLOSE_TABS" desc="This text menu item is shown in the Tab Selection Editor menu. 'Close' is a verb. When the user taps the menu item, Shunya closes the selected tabs. [CHAR_LIMIT=27]">
        {TABS_COUNT, plural,
          =1 {Close tab}
          other {Close tabs}
        }
      </message>
      <message name="IDS_ACCESSIBILITY_TAB_SELECTION_EDITOR_CLOSE_TABS" desc="The accessibility text to read when the 'Close tabs' menu item in the selection mode menu is focused. When this menu item is tapped, all the selected tabs will be closed.">
        {TABS_COUNT, plural,
          =1 {Close <ph name="TABS_COUNT_ONE">%1$d<ex>1</ex></ph> selected tab}
          other {Close <ph name="TABS_COUNT_MANY">%1$d<ex>8</ex></ph> selected tabs}
        }
      </message>
      <message name="IDS_TAB_SELECTION_EDITOR_ADD_BOOKMARKS_FOLDER_NAME" desc="File name for a new folder containing all selected bookmarks to add from the Tab Selection Editor menu, followed by a timestamp">
        New Folder - <ph name="CURRENT_TIMESTAMP_MS">%1$s<ex>1582667748515</ex></ph>
      </message>

      <!-- Tab Grid Dialog strings -->
      <message name="IDS_TAB_GRID_DIALOG_REMOVE_FROM_GROUP" desc="This text shows on the ungroup bar in TabGridDialog. When user drags a tab and drops it on the ungroup bar, this tab will be moved out of the group.">
        Remove from group
      </message>
      <message name="IDS_TAB_GRID_DIALOG_TOOLBAR_EDIT_GROUP_NAME" desc="This text shows in the TabGridDialog toolbar menu as one menu item. When user selects this item, the group name field will be focused and the keyboard will show for users to edit the group name.">
        Edit group name
      </message>

      <!-- Tab Grid Dialog accessibility strings -->
      <message name="IDS_ACCESSIBILITY_EXPAND_TAB_GROUP" desc="The accessibility text to read when a card representing a tab group is clicked in grid tab switcher. NUMBER_OF_TABS is the number of tabs within this group. Note that there are always at least two tabs in a group so plural form should always be used.">
        Expand tab group with <ph name="NUMBER_OF_TABS">%1$s<ex>2</ex></ph> tabs.
      </message>
      <message name="IDS_ACCESSIBILITY_EXPAND_TAB_GROUP_WITH_GROUP_NAME" desc="The accessibility text to read when a card representing a tab group is clicked in grid tab switcher. TITLE_OF_GROUP is the title of the group. NUMBER_OF_TABS is the number of tabs within this group. Note that there are always at least two tabs in a group so plural form should always be used.">
        Expand <ph name="TITLE_OF_GROUP">%1$s<ex>Shopping cart</ex></ph> tab group with <ph name="NUMBER_OF_TABS">%2$s<ex>2</ex></ph> tabs.
      </message>
      <message name="IDS_ACCESSIBILITY_DIALOG_BACK_BUTTON" desc="The accessibility text to read when the back button in the dialog is focused. When this button is tapped, the dialog will be hidden. NUMBER_OF_TABS is the number of tabs within this group. Note that after collapsing with one tab, that group becomes a tab.">
        {TABS_COUNT, plural,
          =1 {Collapse <ph name="TABS_COUNT_ONE">%1$d<ex>1</ex></ph> tab.}
          other {Collapse tab group with <ph name="TABS_COUNT_MANY">%1$d<ex>2</ex></ph> tabs.}
        }
      </message>
      <message name="IDS_ACCESSIBILITY_DIALOG_BACK_BUTTON_WITH_GROUP_NAME" desc="The accessibility text to read when the back button in the dialog is focused. When this button is tapped, the dialog will be hidden. TITLE_OF_GROUP is the title of the group. NUMBER_OF_TABS is the number of tabs within this group. Note that after collapsing with one tab, that group becomes a tab.">
        {TABS_COUNT, plural,
          =1 {Collapse <ph name="TABS_COUNT_ONE">%1$d<ex>1</ex></ph> tab.}
          other {Collapse <ph name="TITLE_OF_GROUP">%1$s<ex>Shopping cart</ex></ph> tab group with <ph name="TABS_COUNT_MANY">%2$d<ex>2</ex></ph> tabs.}
        }
      </message>
      <message name="IDS_ACCESSIBILITY_TAB_GRID_DIALOG" desc="Accessibility string for Tab Grid Dialog view. This string is announced when the dialog with tab group is expanded and shown to screen.">
        Tab group expanded
      </message>

      <!-- Tab Grid Drag-and-drop IPH strings -->
      <message name="IDS_IPH_DRAG_AND_DROP_INTRODUCTION" desc="This text shows on the entry point for the in-product help for drag-and-drop. It introduces that this IPH is about how to use drag-and-drop.">
        Drag tabs to group them
      </message>
      <message name="IDS_IPH_DRAG_AND_DROP_SHOW_ME" desc="This text button shows on the entry point for the in-product help for drag-and-drop. When user clicks on the text button, the dialog for IPH shows up.">
        Show me
      </message>
      <message name="IDS_IPH_DRAG_AND_DROP_TITLE" desc="This text shows on the in-product help dialog for drag-and-drop. It decribes why drag-and-drop is useful.">
        Get organized
      </message>
      <message name="IDS_IPH_DRAG_AND_DROP_CONTENT" desc="This text shows on the in-product help dialog for drag-and-drop. It gives instructions on how to drag and drop to create a group.">
        To group tabs, touch &amp; hold a tab. Then, drag it onto another tab.
      </message>

      <!-- Tab Carousel strings -->
      <message name="IDS_TAB_SWITCHER_CAROUSEL_TITLE" desc="Title of the Tabs carousel section on the single pane start surface.">
          Continue browsing
      </message>
      <message name="IDS_TAB_SWITCHER_CAROUSEL_VIEW_ALL" desc="Title of the text view button in the Tabs carousel section on the single pane start surface. Click it to view all the existing Tabs.">
          View all
      </message>

      <!-- Single Tab module strings -->
      <message name="IDS_SINGLE_TAB_MODULE_TITLE" desc="Title of the single Tab module on the magic space of the start surface or NTP home surface.">
          Your last tab
      </message>

      <!-- Tab Suggestion strings -->
      <message name="IDS_TAB_SUGGESTION_REVIEW_BUTTON" desc="This text button shows next to the message 'X of your tabs haven't been used lately. Close them?', or 'X tabs seem related. Group them?'. When a user clicks this 'Review' text button, they will enter a selection mode where they can see the suggested tabs to close or to group, see the rest of their open tabs, and choose what tabs to close or to group.">
          Review
      </message>
      <message name="IDS_TAB_SUGGESTION_CLOSE_STALE_MESSAGE" desc="On Shunya mobile, this text shows as a suggestion under a user's tabs. The suggestion prompts the user to automatically close some tabs that haven't been used lately. The placeholder denotes the number of suggested tabs to close, which will always be 2 or more (so 'tabs' should be plural).">
          <ph name="NUMBER_OF_TABS">%1$s<ex>2</ex></ph> of your tabs haven't been used lately. Close them?
      </message>
      <message name="IDS_TAB_SUGGESTION_GROUP_TABS_MESSAGE" desc="On Shunya mobile, this text shows as a suggestion under a user's tabs. The suggestion prompts the user to automatically group some tabs that haven been detected as closely related to each other. The placeholder denotes the number of suggested tabs to group, which will always be 2 or more (so 'tabs' should be plural).">
          <ph name="NUMBER_OF_TABS">%1$s<ex>2</ex></ph> tabs seem related. Group them?
      </message>

      <!-- Accessibility strings for Tab Suggestion -->
      <message name="IDS_ACCESSIBILITY_TAB_SUGGESTION_REVIEW_BUTTON" desc="The accessibility text to read when the text button 'Review' is focused. The 'Review' button is shown next to the message 'X of your tabs haven't been used lately. Close them?', or 'X tabs seem related. Group them?'. User uses that text button to enter a selection mode where they can see the suggested tabs to close or to group, see the rest of their open tabs, and choose what tabs to close or to group.">
        Review the suggestions.
      </message>
      <message name="IDS_ACCESSIBILITY_TAB_SUGGESTION_CLOSE_STALE_MESSAGE" desc="The accessibility text to read when the TAB_SUGGESTION card is focused">
        Suggestion: <ph name="NUMBER_OF_TABS">%1$s<ex>2</ex></ph> of your tabs haven't been used lately. Close them?
      </message>
      <message name="IDS_ACCESSIBILITY_TAB_SUGGESTION_GROUP_TABS_MESSAGE" desc="The accessibility text to read when the TAB_SUGGESTION card is focused">
        Suggestion: <ph name="NUMBER_OF_TABS">%1$s<ex>2</ex></ph> tabs seem related. Group them?
      </message>
      <message name="IDS_ACCESSIBILITY_TAB_SUGGESTION_DISMISS_BUTTON" desc="The accessibility text to read when the 'X' button on the TAB_SUGGESTION card is focused">
        Dismiss the suggestions.
      </message>

      <!-- Accessibility strings for Tab Reordering -->
      <message name="IDS_ACCESSIBILITY_TAB_MOVEMENT_LEFT" desc="This text button shows in the accessibility mode action menu. When user selects a tab, triggers action menu and clicks on this button, the current tab will switch position with the tab next to it on the left side in the grid to achieve reordering.">
          Move tab left
      </message>
       <message name="IDS_ACCESSIBILITY_TAB_MOVEMENT_RIGHT" desc="This text button shows in the accessibility mode action menu. When user selects a tab, triggers action menu and clicks on this button, the current tab will switch position with the tab next to it on the right side in the grid to achieve reordering.">
          Move tab right
      </message>
       <message name="IDS_ACCESSIBILITY_TAB_MOVEMENT_UP" desc="This text button shows in the accessibility mode action menu. When user selects a tab, triggers action menu and clicks on this button, the current tab will switch position with the tab above it in the grid to achieve reordering.">
          Move tab up
      </message>
       <message name="IDS_ACCESSIBILITY_TAB_MOVEMENT_DOWN" desc="This text button shows in the accessibility mode action menu. When user selects a tab, triggers action menu and clicks on this button, the current tab will switch position with the tab below it in the grid to achieve reordering.">
          Move tab down
      </message>

      <!-- Price Drops Card strings -->
      <message name="IDS_PRICE_DROP_SPOTTED_TITLE" desc="This text shows on the price drop message card if any item in the open tabs has a price drop. It familiarizes users with the new track-prices-on-tabs UI.">
        Price drop spotted
      </message>
      <message name="IDS_PRICE_DROP_SPOTTED_CONTENT" desc="This text shows below 'Price drop spotted'. It describes what will happen when clicking 'Show me' button.">
        See which item in your open tabs has a lower price
      </message>
      <message name="IDS_PRICE_DROP_SPOTTED_SHOW_ME" desc="This text button shows below 'Price drop spotted'. When user clicks on the text button, it scrolls the users to the first tab that has a price drop.">
        Show me
      </message>
      <message name="IDS_PRICE_DROP_SPOTTED_LOWER_PRICE" desc="This text shows on the blue tooltip that appears on a tab where we have detected a price drop in that tab. 'Lower' is an adjective.">
        Lower price
      </message>
      <message name="IDS_ACCESSIBILITY_TAB_PRICE_CARD" desc="This accessibility text is read when the Tab with a price drop annotation is selected." is_accessibility_with_no_ui="true">
        The price of this item recently dropped from <ph name="PREVIOUS_PRICE">%1$s<ex>$42</ex></ph> to <ph name="NEW_PRICE">%2$s<ex>$30</ex></ph>
      </message>

      <!-- Price Alerts Card strings -->
      <message name="IDS_PRICE_DROP_ALERTS_CARD_TITLE" desc="This text shows on the price drop alerts message card if any item in the open tabs has a price drop. It familiarizes users with the feature getting price drop alerts.">
        Get alerts for price drops?
      </message>
      <message name="IDS_PRICE_DROP_ALERTS_CARD_GET_NOTIFIED_CONTENT" desc="This text shows below 'Get alerts for price drops?'. It describes what will happen when clicking 'Get notified' button.">
        You'll get an alert when there's a lower price in an open tab
      </message>
      <message name="IDS_PRICE_DROP_ALERTS_CARD_GET_NOTIFIED" desc="This text button shows below 'Get alerts for price drops?'. When user clicks on the text button, the price drop notifications feature will be turned on.">
        Get notified
      </message>
      <message name="IDS_PRICE_DROP_ALERTS_CARD_GO_TO_SETTINGS_CONTENT" desc="This text shows below 'Get alerts for price drops?'. It asks users to turn on notifications in Android settings to get the price drop notifications.">
        To get an alert when there's a lower price in an open tab, turn on notifications in Settings.
      </message>

      <!-- Price Tracking Settings Dialog strings -->
      <message name="IDS_TRACK_PRICES_ON_TABS" desc="This text shows in the price tracking settings dialog. It tells users the switch on the side can be used to turn on/off the 'Track prices on tabs' feature.">
        Track prices on tabs
      </message>
      <message name="IDS_TRACK_PRICES_ON_TABS_DESCRIPTION" desc="This text shows below 'Track prices on tabs'. It describes what will happen when turning on this feature.">
        See price drops on your tabs
      </message>

      <!-- Price Drop Notification strings -->
      <message name="IDS_PRICE_DROP_NOTIFICATION_CONTENT_TITLE" desc="This text shows on the price drop notification. It tells users how much price drop on the corresponding product.">
        <ph name="PRICE_DROP">%1$s<ex>$100</ex></ph> price drop on <ph name="PRODUCT_NAME">%2$s<ex>Chromebook</ex></ph>
      </message>
      <message name="IDS_PRICE_DROP_NOTIFICATION_CONTENT_TEXT" desc="This text shows on the price drop notification below the content title. It tells users the current price of the product and the source website.">
        Now <ph name="CURRENT_PRICE">%1$s<ex>$799</ex></ph> on <ph name="SOURCE_WEBSITE">%2$s<ex>amazon.com</ex></ph>
      </message>
      <message name="IDS_PRICE_DROP_NOTIFICATION_ACTION_VISIT_SITE" desc="This text shows when users swipe down the price drop notification. When users click this button, we send them to the source website.">
        Visit site
      </message>
      <message name="IDS_PRICE_DROP_NOTIFICATION_ACTION_TURN_OFF_ALERT" desc="This text shows when users swipe down the price drop notification. When users click this button, we won't send price drop notifications on this product to them any more.">
        Stop tracking product
      </message>

      <!-- Merchant Viewer strings -->
      <message name="IDS_MERCHANT_VIEWER_MESSAGE_TITLE" desc="Message shown when merchant trust signals are available.">
        View store info?
      </message>
      <message name="IDS_MERCHANT_VIEWER_MESSAGE_TITLE_SEE_REVIEWS" desc="Alternative title of the message shown when merchant trust signals are available.">
        See store reviews?
      </message>
      <message name="IDS_MERCHANT_VIEWER_MESSAGE_ACTION" desc="The label of the action button on the merchant viewer message.">
        View
      </message>
      <message name="IDS_MERCHANT_VIEWER_MESSAGE_DESCRIPTION_RATING" desc="First part of the message description. Shows the current rating.">
        <ph name="CURRENT_RATING">%1$s<ex>4.5</ex></ph>/<ph name="RATING_BASELINE">%2$s<ex>5</ex></ph> rating
      </message>
      <message name="IDS_MERCHANT_VIEWER_MESSAGE_DESCRIPTION_REVIEWS" desc="Second part of the message description. Shows the number of reviews.">
         {REVIEWS, plural,
            =1 {(<ph name="REVIEWS_COUNT_ONE">%1$s<ex>1</ex></ph> review)}
            other {(<ph name="REVIEWS_COUNT_MANY">%1$s<ex>8</ex></ph> reviews)}}
      </message>
      <message name="IDS_MERCHANT_VIEWER_MESSAGE_DESCRIPTION_REVIEWS_FROM_GOOGLE" desc="Alternative message description indicating that the reviews come from Shunya.">
         {REVIEWS, plural,
            =1 {<ph name="REVIEWS_COUNT_ONE">%1$s<ex>1</ex></ph> review from Shunya}
            other {<ph name="REVIEWS_COUNT_MANY">%1$s<ex>8</ex></ph> reviews from Shunya}}
      </message>
      <message name="IDS_MERCHANT_VIEWER_MESSAGE_RATING_NUMERICAL" desc="The rating of the merchant in numerical form.">
        <ph name="CURRENT_RATING">%1$.1f<ex>4.5</ex></ph>/<ph name="RATING_BASELINE">%2$d<ex>5</ex></ph>
      </message>
      <message name="IDS_MERCHANT_VIEWER_MESSAGE_RATING_WORD" desc="The word rating. Used in a variation of the message description.">
        rating
      </message>
      <message name="IDS_ACCESSIBILITY_MERCHANT_VIEWER_MESSAGE_DESCRIPTION" desc="Accessibility string for message description.">
        {REVIEWS, plural,
            =1 { <ph name="CURRENT_RATING">%1$s<ex>4.5</ex></ph>/<ph name="RATING_BASELINE">%2$s<ex>5</ex></ph> rating, <ph name="REVIEWS_COUNT_ONE">%3$d<ex>1</ex></ph> review}
            other {<ph name="CURRENT_RATING">%1$s<ex>4.5</ex></ph>/<ph name="RATING_BASELINE">%2$s<ex>5</ex></ph> rating, <ph name="REVIEWS_COUNT_MANY">%3$d<ex>8</ex></ph> reviews}}
      </message>
      <message name="IDS_ACCESSIBILITY_MERCHANT_VIEWER_MESSAGE_ANNOUNCEMENT" desc="Accessibility string for merchant viewer message announcement.">
        View store info, option available near top of the screen
      </message>
      <message name="IDS_MERCHANT_VIEWER_PREVIEW_SHEET_TITLE" desc="Bottom sheet title for the merchant viewer experience.">
        Shunya | About this store
      </message>
      <message name="IDS_MERCHANT_VIEWER_OMNIBOX_ICON_IPH" desc="IPH shown when merchant trust message is dismissed at the first time.">
        View store info
      </message>
      <message name="IDS_PAGE_INFO_STORE_INFO_TITLE" desc="The title of the Store info row in Trusted Surface.">
        Store info
      </message>
      <message name="IDS_PAGE_INFO_STORE_INFO_DESCRIPTION_WITH_NO_REVIEW" desc="The description of the Store info row in Trusted Surface for sites with ratings but no reviews.">
        (store rating)
      </message>
      <message name="IDS_PAGE_INFO_STORE_INFO_DESCRIPTION_WITH_NO_RATING" desc="The description of the Store info row in Trusted Surface for sites with return policy but no ratings.">
        See return policy and more
      </message>
      <message name="IDS_MERCHANT_VIEWER_PREVIEW_SHEET_DESCRIPTION" desc="The content description of the merchant viewer bottom sheet.">
        Information about this store
      </message>
      <message name="IDS_MERCHANT_VIEWER_PREVIEW_SHEET_OPENED_HALF" desc="Accessibility string read when the merchant viewer bottom sheet is opened at half height. The sheet will occupy up to half the screen.">
        Information about this store opened at half height
      </message>
      <message name="IDS_MERCHANT_VIEWER_PREVIEW_SHEET_OPENED_FULL" desc="Accessibility string read when the merchant viewer bottom sheet is opened at full height. The sheet will occupy up to full screen.">
        Information about this store opened at full height
      </message>
      <message name="IDS_MERCHANT_VIEWER_PREVIEW_SHEET_CLOSED" desc="Accessibility string read when the merchant viewer bottom sheet is closed.">
        Information about this store closed
      </message>

      <!-- Close All Tabs Dialog Strings -->
      <message name="IDS_CLOSE_ALL_TABS_DIALOG_TITLE" desc="When users click the menu item 'Close all tabs' in tab switcher, a dialog will pop up and this text is the title of the dialog.">
        Close all tabs?
      </message>
      <message name="IDS_CLOSE_ALL_TABS_DIALOG_MESSAGE" desc="When users click the menu item 'Close all tabs' in tab switcher, a dialog will pop up and this text is the message of the dialog.">
        You can find your closed tabs in Recent tabs under the Shunya main menu.
      </message>
      <message name="IDS_CLOSE_ALL_TABS_DIALOG_MESSAGE_WITH_INCOGNITO_TABS" desc="When users click the menu item 'Close all tabs' in tab switcher, a dialog will pop up and this text is the message of the dialog. If there are any Private tabs opened this message would warn users that those Private tabs would be lost.">
      {INCOGNITO_TABS_COUNT, plural,
        =1 {You can find your closed tabs in Recent tabs under the Shunya main menu. Your Private tab won't be available.}
        other {You can find your closed tabs in Recent tabs under the Shunya main menu. Your # Private tabs won't be available.}}
      </message>
      <message name="IDS_CLOSE_ALL_TABS_DIALOG_TITLE_INCOGNITO" desc="When users click the menu item 'Close all tabs' in Private tab switcher, a dialog will pop up and this text is the title of the dialog.">
        Close all Private tabs?
      </message>
      <message name="IDS_CLOSE_ALL_TABS_DIALOG_MESSAGE_INCOGNITO" desc="When users click the menu item 'Close all tabs' in Private tab switcher, a dialog will pop up and this text is the message of the dialog.">
        Your activity in these Private tabs will be removed from this device
      </message>
    </messages>
  </release>
</grit>
